<?xml version="1.0" encoding="utf-8"?>
<!-- Generator: Adobe Illustrator 23.0.2, SVG Export Plug-In . SVG Version: 6.00 Build 0)  -->
<svg version="1.1" id="Layer_1" xmlns="http://www.w3.org/2000/svg" xmlns:xlink="http://www.w3.org/1999/xlink" x="0px" y="0px"
	 viewBox="0 0 500 500" style="enable-background:new 0 0 500 500;" xml:space="preserve">
<style type="text/css">
	.st0{fill:#093C5B;stroke:#093C5B;stroke-width:5;stroke-miterlimit:10;}
</style>
<g>
	<g>
		<path class="st0" d="M430,418.9H70.7c-5.7,0-10.4,4.6-10.4,10.4s4.6,10.4,10.4,10.4H430c5.7,0,10.4-4.6,10.4-10.4
			S435.8,418.9,430,418.9z"/>
		<path class="st0" d="M140.3,391.6h24.8c13.2,0,24-10.8,24-24V246.3l34.3-12.7c0.1,0,0.5-0.2,0.9,0.1s0.4,0.6,0.4,0.8v7.5
			c0,7.1,3.5,13.8,9.3,17.8c3.7,2.5,8,3.9,12.3,3.9c2.6,0,5.1-0.5,7.6-1.4l116.3-43.5c8.9-3.3,14.4-11.6,14.1-21.1
			c-0.4-9.5-6.5-17.3-15.6-20l-86.2-25.1c-0.4-0.1-0.7-0.5-0.7-0.9v-32.1c0-10.2-7-18.9-16.9-21.1l-75.8-17
			c-1.1-12.2-11.4-21.8-23.9-21.8h-24.8c-13.2,0-24,10.8-24,24v284C116.4,380.8,127.1,391.6,140.3,391.6z M261.1,119.6v32.1
			c0,9.6,6.4,18.1,15.6,20.8l86.2,25.1c0.3,0.1,0.6,0.2,0.7,0.9c0,0.7-0.3,0.8-0.6,0.9l-116.3,43.5c-0.1,0-0.5,0.2-0.9-0.1
			s-0.4-0.6-0.4-0.8v-7.5c0-7.1-3.5-13.7-9.3-17.8c-3.7-2.6-8-3.9-12.4-3.9c-2.5,0-5.1,0.4-7.5,1.3l-27.2,10V102.7l71.2,16
			C260.8,118.8,261.1,119.1,261.1,119.6z M137.1,83.6c0-1.8,1.5-3.3,3.3-3.3h24.8c1.8,0,3.3,1.5,3.3,3.3V254v113.7
			c0,1.8-1.5,3.3-3.3,3.3h-24.8c-1.8,0-3.3-1.5-3.3-3.3V83.6z"/>
	</g>
</g>
</svg>
