<?xml version="1.0" encoding="utf-8"?>
<!-- Generator: Adobe Illustrator 23.0.2, SVG Export Plug-In . SVG Version: 6.00 Build 0)  -->
<svg version="1.1" id="Layer_1" xmlns="http://www.w3.org/2000/svg" xmlns:xlink="http://www.w3.org/1999/xlink" x="0px" y="0px"
	 viewBox="0 0 500 500" style="enable-background:new 0 0 500 500;" xml:space="preserve">
<style type="text/css">
	.st0{fill:#093C5B;stroke:#093C5B;stroke-width:5;stroke-miterlimit:10;}
</style>
<g>
	<g>
		<path class="st0" d="M413.5,59.6H129.8c-14.7,0-26.6,11.9-26.6,26.6v126.6c0,14.7,11.9,26.6,26.6,26.6h104.5v34.3
			c-21.9,2-30.5,16-35.8,24.7c-3.2,5.2-4.6,7.1-5.8,7.1h-35.9v-9.7c0-11.4-9.3-20.7-20.7-20.7H80.7c-11.4,0-20.7,9.3-20.7,20.7V419
			c0,11.4,9.3,20.7,20.7,20.7H136c11.4,0,20.7-9.3,20.7-20.7v-3.2H180c1.6,0,4.9,3.4,7.8,6.3c6.8,7,17.2,17.6,35.6,17.6h74
			c15.5,0,41.4-5.4,41.4-41.7v-11c0-5.6,2.2-9.6,5.1-14.8c3.4-6.1,7.6-13.7,7.6-24.4c0-10.2-2-17.8-3.6-23.9
			c-1.2-4.6-2.2-8.2-2.2-12c0-25.5-11.5-38.5-34.3-38.5c-0.8,0-1.5,0-2.2,0v-34.1h104.5c14.7,0,26.6-11.9,26.6-26.6V86.2
			C440.1,71.5,428.2,59.6,413.5,59.6z M136,418.9H80.7V295.7H136v9.7v99.9v10.4l0,0V418.9z M324.8,311.9c0,6.5,1.5,12,2.9,17.3
			c1.5,5.7,3,11.1,3,18.6c0,5.4-2.1,9.1-5,14.3c-3.4,6.2-7.6,13.8-7.6,24.8v11c0,13.3-3.4,21-20.7,21h-74c-9.7,0-14.8-5.3-20.7-11.4
			c-5.7-5.9-12.3-12.6-22.6-12.6h-23.3v-68.8h35.9c13.1,0,19.1-9.8,23.5-17c5.1-8.4,9.2-15,23.4-15c1,0,3.6,0.7,5.9,1.3
			c5.8,1.5,13.8,3.6,24.9,3.6c9.1,0,16.9-1.4,23.8-2.7c5.9-1.1,11.5-2.1,17.3-2.1C319.1,294.2,324.8,294.2,324.8,311.9z
			 M288.3,276.3c-5.9,1.1-11.6,2-18.1,2c-6.2,0-11-0.8-15.3-1.8v-37.1h33.3v36.9H288.3z M419.4,212.8c0,3.3-2.6,5.9-5.9,5.9H129.8
			c-3.3,0-5.9-2.6-5.9-5.9V86.2c0-3.3,2.6-5.9,5.9-5.9h283.7c3.3,0,5.9,2.6,5.9,5.9V212.8z"/>
		<path class="st0" d="M253.4,130.5l-21.4-3.1l-9.6-19.4c-1.7-3.5-5.3-5.8-9.3-5.8c-3.9,0-7.5,2.2-9.3,5.8l-9.6,19.4l-21.4,3.1
			c-3.9,0.6-7.1,3.3-8.4,7.1c-1.2,3.8-0.2,7.9,2.6,10.6l15.5,15.1l-3.7,21.3c-0.7,3.9,0.9,7.8,4.1,10.1c3.2,2.3,7.4,2.6,10.9,0.8
			l19.1-10.1l19.1,10.1c1.5,0.8,3.2,1.2,4.8,1.2c2.1,0,4.3-0.7,6.1-2c3.2-2.3,4.8-6.3,4.1-10.1l-3.7-21.3l15.5-15.1
			c2.8-2.8,3.8-6.9,2.6-10.6C260.6,133.8,257.3,131.1,253.4,130.5z M225.3,152.3c-2.4,2.4-3.6,5.8-3,9.2l1,6l-5.4-2.8
			c-1.5-0.8-3.2-1.2-4.8-1.2s-3.3,0.4-4.8,1.2l-5.4,2.8l1-6c0.6-3.4-0.5-6.8-3-9.2l-4.3-4.2l6-0.9c3.4-0.5,6.3-2.6,7.8-5.7l2.7-5.4
			l2.7,5.4c1.5,3.1,4.4,5.2,7.8,5.7l6,0.9L225.3,152.3z"/>
		<path class="st0" d="M370.3,130.5l-21.4-3.1l-9.6-19.4c-1.7-3.5-5.3-5.8-9.3-5.8c-3.9,0-7.5,2.2-9.3,5.8l-9.6,19.4l-21.4,3.1
			c-3.9,0.6-7.1,3.3-8.4,7.1c-1.2,3.8-0.2,7.9,2.6,10.6l15.5,15.1l-3.7,21.3c-0.7,3.9,0.9,7.8,4.1,10.1s7.4,2.6,10.9,0.8l19.1-10.1
			l19.1,10.1c1.5,0.8,3.2,1.2,4.8,1.2c2.1,0,4.3-0.7,6.1-2c3.2-2.3,4.8-6.3,4.1-10.1l-3.7-21.3l15.5-15.1c2.8-2.8,3.8-6.9,2.6-10.6
			C377.5,133.8,374.2,131.1,370.3,130.5z M342.2,152.3c-2.4,2.4-3.6,5.8-3,9.2l1,6l-5.4-2.8c-1.5-0.8-3.2-1.2-4.8-1.2
			c-1.7,0-3.3,0.4-4.8,1.2l-5.4,2.8l1-6c0.6-3.4-0.5-6.8-3-9.2l-4.3-4.2l6-0.9c3.4-0.5,6.3-2.6,7.8-5.7l2.7-5.4l2.7,5.4
			c1.5,3.1,4.4,5.2,7.8,5.7l6,0.9L342.2,152.3z"/>
	</g>
</g>
</svg>
