<?xml version="1.0" encoding="utf-8"?>
<!-- Generator: Adobe Illustrator 23.0.2, SVG Export Plug-In . SVG Version: 6.00 Build 0)  -->
<svg version="1.1" id="Layer_1" xmlns="http://www.w3.org/2000/svg" xmlns:xlink="http://www.w3.org/1999/xlink" x="0px" y="0px"
	 viewBox="0 0 500 500" style="enable-background:new 0 0 500 500;" xml:space="preserve">
<style type="text/css">
	.st0{fill:#093C5B;stroke:#093C5B;stroke-width:5;stroke-miterlimit:10;}
</style>
<g>
	<g>
		<g>
			<path class="st0" d="M409.6,178.8h-37.2c-17.2,0-31.2-14-31.2-31.2v-32.9c0-17.2,14-31.2,31.2-31.2h37.2
				c17.2,0,31.2,14,31.2,31.2v32.9C440.8,164.8,426.8,178.8,409.6,178.8z M372.4,104.2c-5.8,0-10.4,4.7-10.4,10.4v32.9
				c0,5.8,4.7,10.4,10.4,10.4h37.2c5.8,0,10.4-4.7,10.4-10.4v-32.9c0-5.8-4.7-10.4-10.4-10.4H372.4z"/>
		</g>
		<g>
			<path class="st0" d="M409.6,309h-99.7c-17.2,0-31.2-14-31.2-31.2v-32.9c0-17.2,14-31.2,31.2-31.2h99.7c17.2,0,31.2,14,31.2,31.2
				v32.9C440.8,295,426.8,309,409.6,309z M309.9,234.4c-5.8,0-10.4,4.7-10.4,10.4v32.9c0,5.8,4.7,10.4,10.4,10.4h99.7
				c5.8,0,10.4-4.7,10.4-10.4v-32.9c0-5.8-4.7-10.4-10.4-10.4H309.9z"/>
		</g>
		<g>
			<path class="st0" d="M409.6,439.7H233.7c-17.2,0-31.2-14-31.2-31.2v-32.9c0-17.2,14-31.2,31.2-31.2h175.9
				c17.2,0,31.2,14,31.2,31.2v32.9C440.8,425.7,426.8,439.7,409.6,439.7z M233.7,365.1c-5.8,0-10.4,4.7-10.4,10.4v32.9
				c0,5.8,4.7,10.4,10.4,10.4h175.9c5.8,0,10.4-4.7,10.4-10.4v-32.9c0-5.8-4.7-10.4-10.4-10.4H233.7z"/>
		</g>
		<g>
			<g>
				<path class="st0" d="M286.8,178.8h-63.1c-9,0-16.2-7.3-16.2-16.2v-11.7c0-13.8,6.1-26.8,16.1-35.8c-3.3-5.6-5.1-12-5.1-18.7
					c0-20.3,16.5-36.8,36.8-36.8s36.8,16.5,36.8,36.8c0,6.7-1.8,13.1-5.1,18.7c10.1,9,16.1,22,16.1,35.8v11.7
					C303,171.5,295.7,178.8,286.8,178.8z M228.1,158h54.1v-7.2c0-10.3-6-19.9-15.3-24.4c-3.2-1.6-5.4-4.7-5.8-8.2
					c-0.4-3.6,1.1-7.1,3.9-9.3c3.9-3.1,6.2-7.7,6.2-12.6c0-8.8-7.2-16-16-16s-16,7.2-16,16c0,4.9,2.2,9.5,6.2,12.6
					c2.8,2.2,4.3,5.7,3.9,9.3s-2.6,6.7-5.8,8.2c-9.3,4.5-15.3,14.1-15.3,24.4v7.2H228.1z"/>
			</g>
			<g>
				<path class="st0" d="M213.4,309h-63.1c-9,0-16.2-7.3-16.2-16.2V281c0-13.8,6.1-26.8,16.1-35.8c-3.3-5.6-5.1-12-5.1-18.7
					c0-20.3,16.5-36.8,36.8-36.8s36.8,16.5,36.8,36.8c0,6.7-1.8,13.1-5.1,18.7c10.1,9,16.1,22,16.1,35.8v11.7
					C229.6,301.7,222.4,309,213.4,309z M154.8,288.2h54.1V281c0-10.3-6-19.9-15.3-24.4c-3.2-1.6-5.4-4.7-5.8-8.2
					c-0.4-3.6,1.1-7.1,3.9-9.3c3.9-3.1,6.2-7.7,6.2-12.6c0-8.8-7.2-16-16-16s-16,7.2-16,16c0,4.9,2.2,9.5,6.2,12.6
					c2.8,2.2,4.3,5.7,3.9,9.3c-0.4,3.6-2.6,6.7-5.8,8.2c-9.3,4.5-15.3,14.1-15.3,24.4L154.8,288.2L154.8,288.2z"/>
			</g>
			<g>
				<path class="st0" d="M140,439.7H76.9c-9,0-16.2-7.3-16.2-16.2v-11.7c0-13.8,6.1-26.8,16.1-35.8c-3.3-5.6-5.1-12-5.1-18.7
					c0-20.3,16.5-36.8,36.8-36.8s36.8,16.5,36.8,36.8c0,6.7-1.8,13.1-5.1,18.7c10.1,9,16.1,22,16.1,35.8v11.7
					C156.3,432.4,149,439.7,140,439.7z M81.4,418.9h54.1v-7.2c0-10.3-6-19.9-15.3-24.4c-3.2-1.6-5.4-4.7-5.8-8.2
					c-0.4-3.6,1.1-7.1,3.9-9.3c3.9-3.1,6.2-7.7,6.2-12.6c0-8.8-7.2-16-16-16s-16,7.2-16,16c0,4.9,2.2,9.5,6.2,12.6
					c2.8,2.2,4.3,5.7,3.9,9.3c-0.4,3.6-2.6,6.7-5.8,8.2c-9.3,4.5-15.3,14.1-15.3,24.4L81.4,418.9L81.4,418.9z"/>
			</g>
		</g>
	</g>
</g>
</svg>
