<?xml version="1.0" encoding="utf-8"?>
<!-- Generator: Adobe Illustrator 23.0.2, SVG Export Plug-In . SVG Version: 6.00 Build 0)  -->
<svg version="1.1" id="Layer_1" xmlns="http://www.w3.org/2000/svg" xmlns:xlink="http://www.w3.org/1999/xlink" x="0px" y="0px"
	 viewBox="0 0 200 200" style="enable-background:new 0 0 200 200;" xml:space="preserve">
<style type="text/css">
	.st0{fill:none;stroke:#093C5B;stroke-width:3;stroke-linecap:round;stroke-linejoin:round;stroke-miterlimit:10;}
</style>
<g>
	<g>
		<line class="st0" x1="81" y1="10.8" x2="190.6" y2="10.8"/>
		<line class="st0" x1="81" y1="46.8" x2="158.2" y2="46.8"/>
		<line class="st0" x1="81" y1="82.8" x2="190.6" y2="82.8"/>
		<line class="st0" x1="81" y1="118.8" x2="158.2" y2="118.8"/>
		<line class="st0" x1="81" y1="154.8" x2="190.6" y2="154.8"/>
		<line class="st0" x1="81" y1="190.8" x2="158.2" y2="190.8"/>
	</g>
	<g>
		<circle class="st0" cx="34.1" cy="34.3" r="23.5"/>
		<g>
			<line class="st0" x1="21.8" y1="27.4" x2="26.7" y2="27.4"/>
			<line class="st0" x1="41.4" y1="27.4" x2="46.4" y2="27.4"/>
		</g>
		<path class="st0" d="M25.6,37.8c1.6,3,4.7,5.1,8.4,5.1c3.7,0,6.8-2.1,8.4-5.1"/>
	</g>
	<g>
		<circle class="st0" cx="34.1" cy="166.1" r="23.5"/>
		<g>
			<line class="st0" x1="21.8" y1="159.3" x2="26.7" y2="159.3"/>
			<line class="st0" x1="41.4" y1="159.3" x2="46.4" y2="159.3"/>
		</g>
		<path class="st0" d="M42.5,176.2c-1.6-3-4.7-5.1-8.4-5.1s-6.8,2.1-8.4,5.1"/>
	</g>
	<g>
		<circle class="st0" cx="34.1" cy="100.2" r="23.5"/>
		<g>
			<line class="st0" x1="21.8" y1="93.3" x2="26.7" y2="93.3"/>
			<line class="st0" x1="41.4" y1="93.3" x2="46.4" y2="93.3"/>
		</g>
		<line class="st0" x1="27.1" y1="109.3" x2="41" y2="109.3"/>
	</g>
</g>
</svg>
