<?xml version="1.0" encoding="utf-8"?>
<!-- Generator: Adobe Illustrator 22.0.1, SVG Export Plug-In . SVG Version: 6.00 Build 0)  -->
<svg version="1.1" id="Mobile_x5F_Inactive" xmlns="http://www.w3.org/2000/svg" xmlns:xlink="http://www.w3.org/1999/xlink"
	 x="0px" y="0px" viewBox="0 0 500 500" style="enable-background:new 0 0 500 500;" xml:space="preserve">
<style type="text/css">
	.st0{fill:#E6E6E6;stroke:#58595B;stroke-width:8;stroke-linecap:round;stroke-linejoin:round;stroke-miterlimit:10;}
	.st1{fill:#E6E6E6;}
	.st2{fill:#FFFFFF;stroke:#58595B;stroke-width:8;stroke-linecap:round;stroke-linejoin:round;stroke-miterlimit:10;}
	.st3{fill:#FFFFFF;stroke:#58595B;stroke-width:8;stroke-miterlimit:10;}
	.st4{fill:none;stroke:#58595B;stroke-width:8;stroke-linecap:round;stroke-linejoin:round;stroke-miterlimit:10;}
	.st5{fill:#E6E6E6;stroke:#58595B;stroke-width:8;stroke-miterlimit:10;}
	.st6{fill:#58595B;stroke:#FFFFFF;stroke-width:8;stroke-miterlimit:10;}
	.st7{fill:#58595B;}
</style>
<g>
	<path class="st0" d="M232.5,200H134c-2.8,0-5-2.2-5-5v-50c0-2.8,2.2-5,5-5h98.5c2.8,0,5,2.2,5,5v50
		C237.5,197.8,235.3,200,232.5,200z"/>
	<path class="st2" d="M232.5,373H134c-2.8,0-5-2.2-5-5V228.4c0-2.8,2.2-5,5-5h98.5c2.8,0,5,2.2,5,5V368
		C237.5,370.8,235.3,373,232.5,373z"/>
	<path class="st2" d="M266.5,313H365c2.8,0,5,2.2,5,5v50c0,2.8-2.2,5-5,5h-98.5c-2.8,0-5-2.2-5-5v-50
		C261.5,315.2,263.7,313,266.5,313z"/>
	<path class="st0" d="M266.5,140H365c2.8,0,5,2.2,5,5v139.6c0,2.8-2.2,5-5,5h-98.5c-2.8,0-5-2.2-5-5V145
		C261.5,142.2,263.7,140,266.5,140z"/>
</g>
</svg>
