<?xml version="1.0" encoding="utf-8"?>
<!-- Generator: Adobe Illustrator 22.0.1, SVG Export Plug-In . SVG Version: 6.00 Build 0)  -->
<svg version="1.1" id="Website_x5F_Coloured" xmlns="http://www.w3.org/2000/svg" xmlns:xlink="http://www.w3.org/1999/xlink"
	 x="0px" y="0px" viewBox="0 0 500 500" style="enable-background:new 0 0 500 500;" xml:space="preserve">
<style type="text/css">
	
		.st0{clip-path:url(#SVGID_2_);fill:#E6E6E6;stroke:#58595B;stroke-width:8;stroke-linecap:round;stroke-linejoin:round;stroke-miterlimit:10;}
	.st1{fill:none;stroke:#58595B;stroke-width:8;stroke-linecap:round;stroke-linejoin:round;stroke-miterlimit:10;}
</style>
<g>
	<defs>
		<circle id="SVGID_1_" cx="250" cy="251" r="177"/>
	</defs>
	<clipPath id="SVGID_2_">
		<use xlink:href="#SVGID_1_"  style="overflow:visible;"/>
	</clipPath>
	<path class="st0" d="M366.1,394.6c0-16-9.1-30.7-23.4-37.8l-50.4-25.2c-6.5-3.3-10.6-9.9-10.6-17.2v-19.8c1.4-1.6,3-3.7,4.8-6.1
		c6.9-9.7,12.1-20.4,15.7-31.6c6.5-2,11.2-8,11.2-15.1v-21.1c0-4.6-2.1-8.8-5.3-11.7v-30.5c0,0,6.3-47.5-58-47.5
		c-64.3,0-58,47.5-58,47.5V209c-3.2,2.9-5.3,7.1-5.3,11.7v21.1c0,5.6,2.9,10.5,7.3,13.3c5.3,23,19.1,39.5,19.1,39.5v19.3
		c0,7-3.8,13.5-10,16.9l-47.1,25.7c-13.6,7.4-22.1,21.7-22.1,37.1v11.8c0,0,0,3.5,0,5.3c0,14.6,52,26.4,116.1,26.4
		s116.1-11.8,116.1-26.4c0-1.8,0-5.3,0-5.3V394.6z"/>
</g>
<circle class="st1" cx="250" cy="251" r="177"/>
</svg>
