<?xml version="1.0" encoding="utf-8"?>
<!-- Generator: Adobe Illustrator 22.0.1, SVG Export Plug-In . SVG Version: 6.00 Build 0)  -->
<svg version="1.1" id="Website_x5F_Coloured" xmlns="http://www.w3.org/2000/svg" xmlns:xlink="http://www.w3.org/1999/xlink"
	 x="0px" y="0px" viewBox="0 0 500 500" style="enable-background:new 0 0 500 500;" xml:space="preserve">
<style type="text/css">
	.st0{fill:#E6E6E6;stroke:#58595B;stroke-width:8;stroke-linecap:round;stroke-linejoin:round;stroke-miterlimit:10;}
	.st1{fill:#FFFFFF;stroke:#58595B;stroke-width:8;stroke-linecap:round;stroke-linejoin:round;stroke-miterlimit:10;}
</style>
<g>
	
		<rect x="271.5" y="231.5" transform="matrix(0.7731 -0.6343 0.6343 0.7731 -117.3983 244.8463)" class="st0" width="24" height="110"/>
	<path class="st0" d="M427.3,460.9L427.3,460.9c-12.8,10.5-31.7,8.6-42.2-4.2l-84.6-103.1c-10.5-12.8-8.6-31.7,4.2-42.2l0,0
		c12.8-10.5,31.7-8.6,42.2,4.2l84.6,103.1C442,431.5,440.1,450.4,427.3,460.9z"/>
	<circle class="st0" cx="190" cy="177" r="129"/>
	<circle class="st1" cx="190" cy="177" r="81.7"/>
</g>
</svg>
