<?xml version="1.0" encoding="utf-8"?>
<!-- Generator: Adobe Illustrator 22.0.1, SVG Export Plug-In . SVG Version: 6.00 Build 0)  -->
<svg version="1.1" id="Mobile_x5F_Inactive" xmlns="http://www.w3.org/2000/svg" xmlns:xlink="http://www.w3.org/1999/xlink"
	 x="0px" y="0px" viewBox="0 0 500 500" style="enable-background:new 0 0 500 500;" xml:space="preserve">
<style type="text/css">
	.st0{fill:#E6E6E6;stroke:#58595B;stroke-width:8;stroke-linecap:round;stroke-linejoin:round;stroke-miterlimit:10;}
	.st1{fill:#E6E6E6;}
	.st2{fill:#FFFFFF;stroke:#58595B;stroke-width:8;stroke-linecap:round;stroke-linejoin:round;stroke-miterlimit:10;}
	.st3{fill:#FFFFFF;stroke:#58595B;stroke-width:8;stroke-miterlimit:10;}
	.st4{fill:none;stroke:#58595B;stroke-width:8;stroke-linecap:round;stroke-linejoin:round;stroke-miterlimit:10;}
	.st5{fill:#E6E6E6;stroke:#58595B;stroke-width:8;stroke-miterlimit:10;}
	.st6{fill:#58595B;stroke:#FFFFFF;stroke-width:8;stroke-miterlimit:10;}
	.st7{fill:#58595B;}
</style>
<g>
	<path class="st0" d="M325,416.5H152.8c-7.7,0-14-6.3-14-14v-302c0-7.7,6.3-14,14-14H325c7.7,0,14,6.3,14,14v302
		C339,410.2,332.7,416.5,325,416.5z"/>
	<rect x="138.8" y="140" class="st2" width="200.2" height="215"/>
	<line class="st4" x1="213.9" y1="114" x2="264" y2="114"/>
	<polygon class="st4" points="275.9,196 207.9,196 207.9,236 207.9,249 207.9,257 207.9,270 207.9,310 275.9,310 238.9,253 	"/>
</g>
</svg>
