<?xml version="1.0" encoding="utf-8"?>
<!-- Generator: Adobe Illustrator 22.0.1, SVG Export Plug-In . SVG Version: 6.00 Build 0)  -->
<svg version="1.1" id="Mobile_x5F_Inactive" xmlns="http://www.w3.org/2000/svg" xmlns:xlink="http://www.w3.org/1999/xlink"
	 x="0px" y="0px" viewBox="0 0 500 500" style="enable-background:new 0 0 500 500;" xml:space="preserve">
<style type="text/css">
	.st0{fill:#E6E6E6;stroke:#58595B;stroke-width:8;stroke-linecap:round;stroke-linejoin:round;stroke-miterlimit:10;}
	.st1{fill:#E6E6E6;}
	.st2{fill:#FFFFFF;stroke:#58595B;stroke-width:8;stroke-linecap:round;stroke-linejoin:round;stroke-miterlimit:10;}
	.st3{fill:#FFFFFF;stroke:#58595B;stroke-width:8;stroke-miterlimit:10;}
	.st4{fill:none;stroke:#58595B;stroke-width:8;stroke-linecap:round;stroke-linejoin:round;stroke-miterlimit:10;}
	.st5{fill:#E6E6E6;stroke:#58595B;stroke-width:8;stroke-miterlimit:10;}
	.st6{fill:#58595B;stroke:#FFFFFF;stroke-width:8;stroke-miterlimit:10;}
	.st7{fill:#58595B;}
</style>
<path class="st0" d="M237,227.3c33.5,0,60.7-27.2,60.7-60.7S270.5,106,237,106s-60.7,27.2-60.7,60.7S203.5,227.3,237,227.3z"/>
<path class="st0" d="M262.8,243h-51.5c-42.8,0-77.7,34.8-77.7,77.7v62.9l0.2,1l4.3,1.4c40.9,12.8,76.4,17,105.6,17
	c57.1,0,90.2-16.3,92.2-17.3l4.1-2h0.4v-63C340.4,277.9,305.6,243,262.8,243z"/>
<path class="st2" d="M462.8,305.9c0.2-0.3,0.4-0.6,0.5-0.9c0.1-0.2,0.3-0.5,0.4-0.7c0.2-0.3,0.3-0.6,0.4-0.9
	c0.1-0.2,0.2-0.5,0.3-0.7c0.2-0.4,0.3-0.8,0.4-1.2c0.1-0.3,0.2-0.6,0.3-0.8c0.1-0.5,0.3-0.9,0.3-1.4c0-0.2,0.1-0.5,0.1-0.7
	c0.1-0.4,0.1-0.8,0.2-1.2c0-0.2,0-0.5,0.1-0.7c0-0.4,0.1-0.8,0.1-1.2c0-0.1,0-0.3,0-0.4c0-0.1,0-0.2,0-0.2c0-0.5,0-0.9-0.1-1.4
	c0-0.2,0-0.3,0-0.5c-0.1-0.6-0.2-1.2-0.3-1.8c0-0.2-0.1-0.4-0.2-0.7c-0.1-0.4-0.2-0.7-0.3-1.1c-0.1-0.3-0.2-0.5-0.3-0.8
	c-0.1-0.3-0.2-0.6-0.3-0.9c-0.1-0.3-0.2-0.5-0.3-0.8c-0.1-0.3-0.3-0.6-0.4-0.9c-0.1-0.2-0.2-0.5-0.4-0.7c-0.2-0.3-0.4-0.6-0.6-0.9
	c-0.1-0.2-0.3-0.4-0.4-0.6c-0.2-0.3-0.5-0.6-0.7-0.9c-0.1-0.2-0.3-0.3-0.4-0.5c0,0,0-0.1-0.1-0.1l-59-70c-7.1-8.4-19.7-9.5-28.2-2.4
	c-8.4,7.1-9.5,19.7-2.4,28.2L403,275H297c-11,0-20,9-20,20s9,20,20,20h109.1L371,362c-6.6,8.9-4.8,21.4,4.1,28c3.6,2.7,7.8,4,12,4
	c6.1,0,12.1-2.8,16-8l59-79c0.1-0.1,0.2-0.3,0.3-0.4C462.5,306.3,462.6,306.1,462.8,305.9z"/>
</svg>
