<?xml version="1.0" encoding="utf-8"?>
<!-- Generator: Adobe Illustrator 23.0.2, SVG Export Plug-In . SVG Version: 6.00 Build 0)  -->
<svg version="1.1" id="Layer_1" xmlns="http://www.w3.org/2000/svg" xmlns:xlink="http://www.w3.org/1999/xlink" x="0px" y="0px"
	 viewBox="0 0 500 500" style="enable-background:new 0 0 500 500;" xml:space="preserve">
<style type="text/css">
	.st0{fill:#093C5B;stroke:#093C5B;stroke-width:5;stroke-miterlimit:10;}
</style>
<g>
	<g>
		<g>
			<path class="st0" d="M185,237.3h-31.1c-3.8,0-7,3.1-7,7v73.9c0,3.8,3.1,7,7,7H185c3.8,0,7-3.1,7-7v-73.9
				C192,240.4,188.8,237.3,185,237.3z"/>
			<path class="st0" d="M265.1,176.1H234c-3.8,0-7,3.1-7,7v135c0,3.8,3.1,7,7,7h31.1c3.8,0,7-3.1,7-7v-135
				C272.1,179.3,269,176.1,265.1,176.1z"/>
			<path class="st0" d="M346.5,199.3h-31.1c-3.8,0-7,3.1-7,7v111.9c0,3.8,3.1,7,7,7h31.1c3.8,0,7-3.1,7-7V206.3
				C353.4,202.4,350.3,199.3,346.5,199.3z"/>
		</g>
		<g>
			<path class="st0" d="M160.7,105.1c-3.6,0-7.1-1.9-9-5.2c-2.9-5-1.1-11.3,3.8-14.2c28.7-16.5,61.4-25.2,94.6-25.2
				c25.2,0,49.8,4.9,72.9,14.5c5.3,2.2,7.8,8.3,5.6,13.6c-2.2,5.3-8.3,7.8-13.6,5.6c-20.6-8.6-42.5-12.9-65-12.9
				c-29.6,0-58.8,7.8-84.3,22.4C164.2,104.7,162.5,105.1,160.7,105.1z"/>
		</g>
		<g>
			<path class="st0" d="M394.6,367.9c-2.1,0-4.3-0.7-6.2-2c-4.6-3.4-5.6-9.9-2.2-14.5c21.7-29.3,33.2-64.1,33.2-100.7
				c0-47.9-20.4-93.7-56-125.8c-4.3-3.8-4.6-10.4-0.8-14.6c3.8-4.3,10.4-4.6,14.6-0.8c39.9,36,62.8,87.5,62.8,141.2
				c0,41.1-12.9,80.2-37.3,113.1C400.9,366.4,397.8,367.9,394.6,367.9z"/>
		</g>
		<g>
			<path class="st0" d="M250.2,440.7c-104.8,0-190-85.3-190-190c0-37.2,10.8-73.3,31.2-104.3c3.1-4.8,9.6-6.1,14.4-3s6.1,9.6,3,14.4
				C90.6,185.4,81,217.5,81,250.7C81,344.1,157,420,250.3,420c33,0,64.9-9.5,92.4-27.4c4.8-3.1,11.2-1.8,14.3,3
				c3.1,4.8,1.8,11.2-3,14.3C323,430,287.1,440.7,250.2,440.7z"/>
		</g>
	</g>
</g>
</svg>
