<?xml version="1.0" encoding="utf-8"?>
<!-- Generator: Adobe Illustrator 23.0.2, SVG Export Plug-In . SVG Version: 6.00 Build 0)  -->
<svg version="1.1" id="Layer_1" xmlns="http://www.w3.org/2000/svg" xmlns:xlink="http://www.w3.org/1999/xlink" x="0px" y="0px"
	 viewBox="0 0 500 500" style="enable-background:new 0 0 500 500;" xml:space="preserve">
<style type="text/css">
	.st0{fill:#093C5B;stroke:#093C5B;stroke-width:5;stroke-miterlimit:10;}
</style>
<g>
	<g>
		<path class="st0" d="M430.2,204.6c-5.7,0-10.4,4.6-10.4,10.4v192.9c0,6.7-5.4,12.1-12.1,12.1h-243c-6.7,0-12.1-5.4-12.1-12.1
			v-38.6h183.8c18.1,0,32.8-14.7,32.8-32.8v-144c0-5.7-4.6-10.4-10.4-10.4s-10.4,4.6-10.4,10.4v144c0,6.7-5.4,12.1-12.1,12.1H142.2
			H93.3c-6.7,0-12.1-5.4-12.1-12.1V93.4c0-6.7,5.4-12.1,12.1-12.1h109.3c5.7,0,10.4-4.6,10.4-10.4c0-5.7-4.6-10.4-10.4-10.4H93.3
			c-18.1,0-32.8,14.7-32.8,32.8v243.1c0,18.1,14.7,32.8,32.8,32.8h38.6v38.6c0,18.1,14.7,32.8,32.8,32.8h243.1
			c18.1,0,32.8-14.7,32.8-32.8V214.9C440.6,209.2,436,204.6,430.2,204.6z"/>
		<path class="st0" d="M155.1,134.5c-4,4-4,10.6,0,14.7l56.9,56.9c2,2,4.7,3,7.3,3s5.3-1,7.3-3L354.5,78.3c4-4,4-10.6,0-14.7
			c-4-4-10.6-4-14.7,0L219.3,184.1l-49.6-49.6C165.7,130.5,159.1,130.5,155.1,134.5z"/>
	</g>
</g>
</svg>
