<?xml version="1.0" encoding="utf-8"?>
<!-- Generator: Adobe Illustrator 23.0.2, SVG Export Plug-In . SVG Version: 6.00 Build 0)  -->
<svg version="1.1" id="Layer_1" xmlns="http://www.w3.org/2000/svg" xmlns:xlink="http://www.w3.org/1999/xlink" x="0px" y="0px"
	 viewBox="0 0 200 200" style="enable-background:new 0 0 200 200;" xml:space="preserve">
<style type="text/css">
	.st0{fill:none;stroke:#093C5B;stroke-width:5;stroke-linecap:round;stroke-linejoin:round;stroke-miterlimit:10;}
	.st1{fill:none;stroke:#F07D7C;stroke-width:5;stroke-linecap:round;stroke-linejoin:round;stroke-miterlimit:10;}
</style>
<path class="st0" d="M48.7,84.3V21.6c0-6.1,5-11.1,11.1-11.1h80c6.1,0,11.1,5,11.1,11.1v62.6"/>
<line class="st0" x1="48.7" y1="33.6" x2="150.8" y2="33.6"/>
<path class="st0" d="M25.1,84.3v77h74.6v-63c0-7.7-6.3-14-14-14H25.1z"/>
<path class="st0" d="M51.3,84.3"/>
<path class="st0" d="M130.3,84.3h-16.5c-7.7,0-14,6.3-14,14v62.9h74.6v-77h-32.9"/>
<path class="st0" d="M174.3,98.4h15.4v69.3c0,4.7-3.8,8.7-8.7,8.7h-67.2c0,7.8-6.3,14.2-14.2,14.2s-14.2-6.3-14.2-14.2H36.3"/>
<path class="st0" d="M25.1,98.4H9.7v69.3c0,4.7,3.8,8.7,8.7,8.7h5.8"/>
<path class="st0" d="M25.1,161.2c17.4-20.7,49-25.7,74.6,0"/>
<path class="st0" d="M174.3,161.2c-17.4-20.7-49-25.7-74.6,0"/>
<line class="st1" x1="37.5" y1="99.3" x2="87.1" y2="99.3"/>
<line class="st1" x1="37.5" y1="116.1" x2="87.1" y2="116.1"/>
<line class="st1" x1="37.5" y1="130" x2="87.1" y2="130"/>
<line class="st1" x1="127.1" y1="99.3" x2="162.6" y2="99.3"/>
<line class="st1" x1="113" y1="116.1" x2="162.6" y2="116.1"/>
<line class="st1" x1="113" y1="130" x2="162.6" y2="130"/>
<line class="st0" x1="89.3" y1="22.7" x2="110" y2="22.7"/>
<path class="st0" d="M48.7,176.4v3.1c0,6.1,5,11.1,11.1,11.1h80c6.1,0,11.1-5,11.1-11.1v-3.1"/>
</svg>
