<?xml version="1.0" encoding="utf-8"?>
<!-- Generator: Adobe Illustrator 23.0.2, SVG Export Plug-In . SVG Version: 6.00 Build 0)  -->
<svg version="1.1" id="Layer_1" xmlns="http://www.w3.org/2000/svg" xmlns:xlink="http://www.w3.org/1999/xlink" x="0px" y="0px"
	 viewBox="0 0 200 200" style="enable-background:new 0 0 200 200;" xml:space="preserve">
<style type="text/css">
	.st0{fill:none;stroke:#093C5B;stroke-width:5;stroke-linecap:round;stroke-linejoin:round;stroke-miterlimit:10;}
	.st1{fill:none;stroke:#F07D7C;stroke-width:5;stroke-linecap:round;stroke-linejoin:round;stroke-miterlimit:10;}
	.st2{enable-background:new    ;}
</style>
<path class="st0" d="M189.7,124.1V29.6c0-11-8.9-19.9-19.9-19.9H75.3"/>
<path class="st0" d="M83.2,131.3l54.5,49.6c6.4,5.8,16.6,1.3,16.6-7.3V92.3c0-6.8-2.9-13.3-7.9-17.9L75.3,9.7v103.7
	C75.3,120.2,78.2,126.7,83.2,131.3z"/>
<line class="st1" x1="130.9" y1="96.6" x2="130.9" y2="133.4"/>
<g class="st2">
	<line class="st1" x1="9.7" y1="158.4" x2="66.2" y2="158.4"/>
	<path class="st1" d="M38.4,127.2l25.4,25.4c3.2,3.2,3.2,8.4,0,11.6l-25.4,25.4"/>
</g>
</svg>
