<?xml version="1.0" encoding="utf-8"?>
<!-- Generator: Adobe Illustrator 23.0.2, SVG Export Plug-In . SVG Version: 6.00 Build 0)  -->
<svg version="1.1" id="Layer_1" xmlns="http://www.w3.org/2000/svg" xmlns:xlink="http://www.w3.org/1999/xlink" x="0px" y="0px"
	 viewBox="0 0 500 500" style="enable-background:new 0 0 500 500;" xml:space="preserve">
<style type="text/css">
	.st0{fill:#093C5B;stroke:#093C5B;stroke-width:5;stroke-miterlimit:10;}
</style>
<g>
	<g>
		<path class="st0" d="M357.2,332.1c3.2,0,6.3-1.4,8.4-4.1c3.7-4.7,2.9-11.4-1.7-15.2l-84.6-67.4l-9.7-85.6
			c-0.7-5.9-6-10.2-11.9-9.5s-10.2,6-9.5,11.9l10.2,90.1c0.3,2.8,1.8,5.4,4,7.2l88.1,70.2C352.4,331.3,354.8,332.1,357.2,332.1z"/>
		<ellipse class="st0" cx="156.2" cy="161.2" rx="12" ry="12"/>
		<path class="st0" d="M171.7,373.3c5.2,4.1,12.7,3.3,16.8-1.9c4.1-5.2,3.3-12.7-1.9-16.8c-5.2-4.1-12.7-3.3-16.8,1.9
			C165.7,361.7,166.5,369.2,171.7,373.3z"/>
		<circle class="st0" cx="285.3" cy="394.5" r="12"/>
		<circle class="st0" cx="125.7" cy="267.3" r="12"/>
		<path class="st0" d="M450,145.7l-25.9-65.8c-2.7-6.8-11.7-8.1-16.2-2.4l-15.3,19.2c-0.1-0.1-0.2-0.2-0.3-0.3
			c-41.3-32.9-93-47.8-145.5-41.8c-52.5,5.9-99.5,32-132.4,73.3c-67.9,85.3-53.8,209.9,31.5,277.9c36.3,28.9,79.8,43,123,43
			c58.2,0,115.9-25.5,154.9-74.5c3.7-4.7,2.9-11.4-1.7-15.2c-4.7-3.7-11.4-2.9-15.2,1.7c-60.5,76-171.6,88.6-247.6,28
			c-76-60.5-88.6-171.6-28-247.6c29.3-36.8,71.2-60,118-65.3C296,70.7,342,84,378.8,113.3c0.1,0.1,0.2,0.2,0.4,0.3l-15.3,19.2
			c-4.5,5.7-1.2,14.2,6,15.2l70,10.5C447,159.6,452.7,152.5,450,145.7z"/>
	</g>
</g>
</svg>
