<?xml version="1.0" encoding="utf-8"?>
<!-- Generator: Adobe Illustrator 23.0.2, SVG Export Plug-In . SVG Version: 6.00 Build 0)  -->
<svg version="1.1" id="Layer_1" xmlns="http://www.w3.org/2000/svg" xmlns:xlink="http://www.w3.org/1999/xlink" x="0px" y="0px"
	 viewBox="0 0 200 200" style="enable-background:new 0 0 200 200;" xml:space="preserve">
<style type="text/css">
	.st0{fill:none;stroke:#F07D7C;stroke-width:5;stroke-linecap:round;stroke-linejoin:round;stroke-miterlimit:10;}
	.st1{fill:none;stroke:#093C5B;stroke-width:5;stroke-linecap:round;stroke-linejoin:round;stroke-miterlimit:10;}
</style>
<path class="st0" d="M26.7,43.2c2.3,2.9,5.8,4.7,9.7,4.7s7.4-1.8,9.7-4.7"/>
<line class="st0" x1="21.9" y1="31" x2="30.9" y2="31"/>
<line class="st0" x1="41.9" y1="31" x2="51" y2="31"/>
<path class="st0" d="M46.1,176.4c-2.3-2.9-5.8-4.7-9.7-4.7s-7.4,1.8-9.7,4.7"/>
<line class="st0" x1="21.9" y1="159.4" x2="30.9" y2="159.4"/>
<line class="st0" x1="41.9" y1="159.4" x2="51" y2="159.4"/>
<circle class="st1" cx="36.4" cy="35.6" r="25.8"/>
<circle class="st1" cx="36.4" cy="164" r="25.8"/>
<circle class="st1" cx="36.4" cy="99.8" r="25.8"/>
<line class="st0" x1="21.9" y1="95.2" x2="30.9" y2="95.2"/>
<line class="st0" x1="41.9" y1="95.2" x2="51" y2="95.2"/>
<line class="st0" x1="26.7" y1="109.9" x2="46.1" y2="109.9"/>
<polyline class="st1" points="77.8,34.7 89.5,46.4 111.2,24.7 "/>
<path class="st1" d="M98.1,113.2H84.3c-3.6,0-6.5-2.9-6.5-6.5V92.9c0-3.6,2.9-6.5,6.5-6.5h13.8c3.6,0,6.5,2.9,6.5,6.5v13.8
	C104.6,110.3,101.6,113.2,98.1,113.2z"/>
<path class="st1" d="M98.1,177.4H84.3c-3.6,0-6.5-2.9-6.5-6.5v-13.8c0-3.6,2.9-6.5,6.5-6.5h13.8c3.6,0,6.5,2.9,6.5,6.5v13.8
	C104.6,174.5,101.6,177.4,98.1,177.4z"/>
<g>
	<g>
		<line class="st1" x1="126.8" y1="30.6" x2="190.6" y2="30.6"/>
		<line class="st1" x1="126.8" y1="40.6" x2="183.5" y2="40.6"/>
	</g>
</g>
<g>
	<g>
		<line class="st1" x1="126.8" y1="94.8" x2="190.6" y2="94.8"/>
		<line class="st1" x1="126.8" y1="104.8" x2="183.5" y2="104.8"/>
	</g>
</g>
<g>
	<g>
		<line class="st1" x1="126.8" y1="159.1" x2="190.6" y2="159.1"/>
		<line class="st1" x1="126.8" y1="169" x2="183.5" y2="169"/>
	</g>
</g>
</svg>
