<?xml version="1.0" encoding="utf-8"?>
<!-- Generator: Adobe Illustrator 22.0.1, SVG Export Plug-In . SVG Version: 6.00 Build 0)  -->
<svg version="1.1" id="Website_x5F_Mono" xmlns="http://www.w3.org/2000/svg" xmlns:xlink="http://www.w3.org/1999/xlink" x="0px"
	 y="0px" viewBox="0 0 500 500" style="enable-background:new 0 0 500 500;" xml:space="preserve">
<style type="text/css">
	.st0{fill:#E6E6E6;}
	.st1{fill:none;stroke:#58595B;stroke-width:5;stroke-linecap:round;stroke-linejoin:round;stroke-miterlimit:10;}
	.st2{fill:#58595B;stroke:#FFFFFF;stroke-width:5;stroke-miterlimit:10;}
	.st3{fill:#F2F2F2;}
	.st4{fill:#FFFFFF;}
	.st5{fill:#FFFFFF;stroke:#58595B;stroke-width:5;stroke-linecap:round;stroke-linejoin:round;stroke-miterlimit:10;}
	.st6{fill:#E6E6E6;stroke:#FFFFFF;stroke-width:10;stroke-miterlimit:10;}
	.st7{fill:none;}
	.st8{fill:none;stroke:#E6E6E6;stroke-width:10;stroke-linecap:round;stroke-linejoin:round;stroke-miterlimit:10;}
</style>
<path class="st0" d="M223.1,102.6L67,141.5c-14.9,3.7-24.1,19-20.4,33.9l22.2,89.1c3.7,14.9,19,24.1,33.9,20.4l47.8-11.9
	c0,0,0,0,0,0l78.4,14.7c0.6,0.1,1.3,0.1,1.9-0.1c0.9-0.2,1.7-0.7,2.3-1.4c1-1.2,1.3-2.9,0.7-4.4l-10.2-27.1l35.1-8.7
	c14.9-3.7,24.1-19,20.4-33.9L257,123C253.3,108.1,238.1,98.9,223.1,102.6z"/>
<path class="st0" d="M318,228h109.5c10.5,0,19,8.6,19,19v62.5c0,10.5-8.6,19-19,19H394c0,0,0,0,0,0l-49.4,22.6
	c-0.4,0.2-0.8,0.3-1.2,0.3c-0.6,0-1.2-0.2-1.8-0.6c-0.9-0.6-1.3-1.7-1.2-2.8l2.3-19.6H318c-10.5,0-19-8.6-19-19V247
	C299,236.6,307.6,228,318,228z"/>
<path class="st1" d="M122.5,296.1l16.5-4.1c0,0,0,0,0,0l78.4,14.7c0.6,0.1,1.3,0.1,1.9-0.1c0.9-0.2,1.7-0.7,2.3-1.4
	c1-1.2,1.3-2.9,0.7-4.4l-10.2-27.1l35.1-8.7c14.9-3.7,24.1-19,20.4-33.9l-11.9-47.9"/>
<path class="st1" d="M155.3,135.7l-99.7,24.8c-14.9,3.7-24.1,19-20.4,33.9l22.2,89.1c3.7,14.9,19,24.1,33.9,20.4"/>
<line class="st1" x1="211.7" y1="121.7" x2="174.4" y2="131"/>
<path class="st1" d="M332.6,372.2c-0.4,0.2-0.8,0.3-1.2,0.3c-0.6,0-1.2-0.2-1.8-0.6c-0.9-0.6-1.3-1.7-1.2-2.8l2.3-19.6H306
	c-10.5,0-19-8.6-19-19v-45.9"/>
<path class="st1" d="M434.6,297.8v32.7c0,10.5-8.6,19-19,19H382c0,0,0,0,0,0l-18.3,8.4"/>
<path class="st1" d="M322.1,249h93.5c10.5,0,19,8.6,19,19v11.1"/>
<line class="st1" x1="95.5" y1="192.1" x2="201.3" y2="164.4"/>
<line class="st1" x1="101.2" y1="218.7" x2="207" y2="191.1"/>
<line class="st1" x1="106.9" y1="243.5" x2="163.2" y2="229.2"/>
<line class="st1" x1="335.5" y1="279.5" x2="403.5" y2="279.5"/>
<line class="st1" x1="335.5" y1="303.5" x2="403.5" y2="303.5"/>
</svg>
