<?xml version="1.0" encoding="utf-8"?>
<!-- Generator: Adobe Illustrator 22.0.1, SVG Export Plug-In . SVG Version: 6.00 Build 0)  -->
<svg version="1.1" id="Website_x5F_Coloured" xmlns="http://www.w3.org/2000/svg" xmlns:xlink="http://www.w3.org/1999/xlink"
	 x="0px" y="0px" viewBox="0 0 500 500" style="enable-background:new 0 0 500 500;" xml:space="preserve">
<style type="text/css">
	.st0{fill:#E6E6E6;}
	.st1{fill:none;stroke:#58595B;stroke-width:5;stroke-linecap:round;stroke-linejoin:round;stroke-miterlimit:10;}
</style>
<g id="surface1_5_">
	<path class="st0" d="M263.9,48c-33.4,0-60.7,28-60.7,61.5s27.2,60.7,60.7,60.7s60.7-27.2,60.7-60.7S297.4,48,263.9,48z"/>
	<path class="st0" d="M348.9,267.2c26.8,0,48.5-21.8,48.5-48.5s-21.8-48.5-48.5-48.5c-26.8,0-48.5,21.8-48.5,48.5
		S322.1,267.2,348.9,267.2z"/>
	<path class="st0" d="M69,412.8h12.1c13.4,0,24.3-10.9,24.3-24.3V242.9c0-13.4-10.9-24.3-24.3-24.3H69c-6.7,0-12.1,5.4-12.1,12.1
		v169.8C56.9,407.3,62.3,412.8,69,412.8z"/>
	<path class="st0" d="M129.7,242.9v145.6c0,2.4-0.4,4.8-0.7,7.1l70.8,35c8.4,4.2,17.8,6.4,27.1,6.4c3.7,0,109.6,0,109.6,0
		c9,0,17.8-2.5,25.5-7.2l99.3-70.2c10.7-8.1,12.9-23.3,4.8-34c-7.3-9.7-21.4-13.9-34-4.8l-74.7,42.1c-1.7,0.9-3.7,1.4-5.6,1.4
		c-4.4,0-144.1,0-138.9,0c-6.7,0-12.1-5.4-12.1-12.1c0-6.7,5.4-12.1,12.1-12.1h111.6c13.4,0,24.3-10.9,24.3-24.3
		c0-13.4-10.9-24.3-24.3-24.3h-57l-57.5-38.3c-10-6.7-21.6-10.2-33.6-10.2H129.7z"/>
</g>
<g id="surface1_4_">
	<path class="st1" d="M187.9,115.4c-1.1,4.5-1.6,9.2-1.6,14c0,16.7,6.8,31.9,17.8,42.9"/>
	<path class="st1" d="M246.9,190.1c33.4,0,60.7-27.2,60.7-60.7S280.4,68,246.9,68c-23.8,0-44.5,14.2-54.4,34.5"/>
	<path class="st1" d="M380.4,238.7c0-26.8-21.8-48.5-48.5-48.5c-26.8,0-48.5,21.8-48.5,48.5s21.8,48.5,48.5,48.5
		c16.1,0,30.4-7.9,39.2-20"/>
	<path class="st1" d="M39.9,395v25.6c0,6.7,5.4,12.1,12.1,12.1h12.1c13.4,0,24.3-10.9,24.3-24.3V262.9c0-13.4-10.9-24.3-24.3-24.3
		H52c-6.7,0-12.1,5.4-12.1,12.1v32.3"/>
	<path class="st1" d="M39.9,309.4V351"/>
	<path class="st1" d="M265.1,360h42.5c13.4,0,24.3-10.9,24.3-24.3c0-13.4-10.9-24.3-24.3-24.3h-57l-57.5-38.3
		c-10-6.7-21.6-10.2-33.6-10.2"/>
	<path class="st1" d="M319.5,457c9,0,17.8-2.5,25.5-7.2l99.3-70.2c10.7-8.1,12.9-23.3,4.8-34c-7.3-9.7-21.4-13.9-34-4.8l-74.7,42.1
		c-1.7,0.9-3.7,1.4-5.6,1.4c-4.4,0-144.1,0-138.9,0c-6.7,0-12.1-5.4-12.1-12.1c0-6.7,5.4-12.1,12.1-12.1h69.2"/>
	<path class="st1" d="M259,457c19.4,0,40.7,0,60,0"/>
	<path class="st1" d="M112.7,305v103.5c0,2.4-0.4,4.8-0.7,7.1l70.8,35c8.4,4.2,17.8,6.4,27.1,6.4"/>
</g>
</svg>
