<?xml version="1.0" encoding="utf-8"?>
<!-- Generator: Adobe Illustrator 22.0.1, SVG Export Plug-In . SVG Version: 6.00 Build 0)  -->
<svg version="1.1" id="Website_x5F_Mono" xmlns="http://www.w3.org/2000/svg" xmlns:xlink="http://www.w3.org/1999/xlink" x="0px"
	 y="0px" viewBox="0 0 500 500" style="enable-background:new 0 0 500 500;" xml:space="preserve">
<style type="text/css">
	.st0{fill:#E6E6E6;}
	.st1{fill:none;stroke:#58595B;stroke-width:5;stroke-linecap:round;stroke-linejoin:round;stroke-miterlimit:10;}
	.st2{fill:#58595B;stroke:#FFFFFF;stroke-width:5;stroke-miterlimit:10;}
	.st3{fill:#F2F2F2;}
	.st4{fill:#FFFFFF;}
	.st5{fill:#FFFFFF;stroke:#58595B;stroke-width:5;stroke-linecap:round;stroke-linejoin:round;stroke-miterlimit:10;}
	.st6{fill:#E6E6E6;stroke:#FFFFFF;stroke-width:10;stroke-miterlimit:10;}
	.st7{fill:none;}
	.st8{font-family:'Roboto-Bold';}
	.st9{font-size:250px;}
	.st10{fill:none;stroke:#E6E6E6;stroke-width:10;stroke-linecap:round;stroke-linejoin:round;stroke-miterlimit:10;}
</style>
<g>
	<circle class="st0" cx="241" cy="258" r="165"/>
	<circle class="st4" cx="241" cy="258" r="134"/>
	<rect x="165.9" y="161.8" class="st7" width="150.1" height="196.2"/>
	<text transform="matrix(1 0 0 1 178.7432 349.3008)" class="st0 st8 st9">?</text>
</g>
<g>
	<path class="st1" d="M223,78c91.1,0,165,73.9,165,165c0,27.5-6.7,53.5-18.6,76.3"/>
	<path class="st1" d="M153,93.5c10.2-4.8,20.9-8.5,32.1-11.2"/>
	<path class="st1" d="M285.2,395.9C266,403.7,245,408,223,408c-91.1,0-165-73.9-165-165c0-60.9,33-114.1,82.1-142.7"/>
	<path class="st1" d="M335.8,363.4c-10.2,9.6-21.7,17.9-34.1,24.6"/>
	<path class="st1" d="M351.3,281.7C334.7,336.8,283.5,377,223,377c-43.1,0-81.5-20.4-106-52"/>
	<path class="st1" d="M101,298.5c-7.7-16.9-12-35.7-12-55.5c0-74,60-134,134-134s134,60,134,134"/>
	<rect x="147.9" y="146.8" class="st7" width="150.1" height="196.2"/>
	<text transform="matrix(1 0 0 1 160.7432 334.3008)" class="st5 st8 st9">?</text>
</g>
</svg>
