<?xml version="1.0" encoding="utf-8"?>
<!-- Generator: Adobe Illustrator 22.0.1, SVG Export Plug-In . SVG Version: 6.00 Build 0)  -->
<svg version="1.1" id="Website_x5F_Mono" xmlns="http://www.w3.org/2000/svg" xmlns:xlink="http://www.w3.org/1999/xlink" x="0px"
	 y="0px" viewBox="0 0 500 500" style="enable-background:new 0 0 500 500;" xml:space="preserve">
<style type="text/css">
	.st0{fill:#E6E6E6;}
	.st1{fill:none;stroke:#58595B;stroke-width:5;stroke-linecap:round;stroke-linejoin:round;stroke-miterlimit:10;}
	.st2{fill:#58595B;stroke:#FFFFFF;stroke-width:5;stroke-miterlimit:10;}
	.st3{fill:#F2F2F2;}
	.st4{fill:#FFFFFF;}
	.st5{fill:#FFFFFF;stroke:#58595B;stroke-width:5;stroke-linecap:round;stroke-linejoin:round;stroke-miterlimit:10;}
	.st6{fill:#E6E6E6;stroke:#FFFFFF;stroke-width:10;stroke-miterlimit:10;}
	.st7{fill:none;}
	.st8{fill:none;stroke:#E6E6E6;stroke-width:10;stroke-linecap:round;stroke-linejoin:round;stroke-miterlimit:10;}
</style>
<g>
	<path class="st0" d="M149.6,139h196.3c18.8,0,34.1,15.4,34.1,34.1v112c0,18.8-15.4,34.1-34.1,34.1h-60.1c0,0,0,0,0,0l-88.5,40.6
		c-0.7,0.3-1.5,0.5-2.2,0.5c-1.1,0-2.2-0.3-3.1-1c-1.6-1.1-2.4-3-2.2-4.9l4.1-35.1h-44.2c-18.8,0-34.1-15.4-34.1-34.1v-112
		C115.5,154.4,130.9,139,149.6,139z"/>
	<circle class="st4" cx="186" cy="234" r="19"/>
	<circle class="st4" cx="247" cy="234" r="19"/>
	<circle class="st4" cx="310" cy="234" r="19"/>
</g>
<g>
	<path class="st1" d="M301.8,161h30.2c18.8,0,34.1,15.4,34.1,34.1v112c0,18.8-15.4,34.1-34.1,34.1h-60.1"/>
	<path class="st1" d="M101.5,215v-19.9c0-18.8,15.4-34.1,34.1-34.1h124.6"/>
	<line class="st1" x1="101.5" y1="253" x2="101.5" y2="228.2"/>
	<path class="st1" d="M175.7,376.4l4.1-35.1h-44.2c-18.8,0-34.1-15.4-34.1-34.1v-36.6"/>
	<circle class="st1" cx="172" cy="256" r="19"/>
	<path class="st1" d="M250.9,262.4c-2.6,7.3-9.6,12.6-17.9,12.6c-10.5,0-19-8.5-19-19s8.5-19,19-19c5.2,0,10,2.1,13.4,5.6"/>
	<circle class="st1" cx="296" cy="256" r="19"/>
</g>
</svg>
