<?xml version="1.0" encoding="utf-8"?>
<!-- Generator: Adobe Illustrator 17.0.0, SVG Export Plug-In . SVG Version: 6.00 Build 0)  -->
<!DOCTYPE svg PUBLIC "-//W3C//DTD SVG 1.1//EN" "http://www.w3.org/Graphics/SVG/1.1/DTD/svg11.dtd">
<svg version="1.1" id="Layer_1" xmlns="http://www.w3.org/2000/svg" xmlns:xlink="http://www.w3.org/1999/xlink" x="0px" y="0px"
	 width="6597.378px" height="6597.933px" viewBox="0 0 6597.378 6597.933" enable-background="new 0 0 6597.378 6597.933"
	 xml:space="preserve">
<g>
	<path fill="#F2F5FA" d="M6436.462,3281.361c0-322.151-301.588-370.131-507.217-370.131
		c-616.884,0-1144.664,493.508-1645.026,493.508s-1549.066-987.016-2248.203-987.016c-58.001,0-161.648,15.866-270.753,59.596
		c-556.803,144.323-777.354,621.784-502.772,978.419c327.189,424.961-293.135,388.617-912.538,1350.135
		c-88.265,137.017-575.754,812.797,479.795,812.797c440.632,0,989.954,0,1480.44,0c684.488,0,1254.391,0,1254.391,0
		c1001.337,0,2268.689,0,2467.48,0c335.86,0,404.403-102.814,404.403-274.171c0-500.362-397.548-767.679-397.548-1048.705
		S6436.462,3603.512,6436.462,3281.361z"/>
	<circle fill="#E1EAF4" cx="1527.417" cy="2212.905" r="318.607"/>
	<circle fill="#E1EAF4" cx="890.204" cy="2446.046" r="156.853"/>
	<circle fill="#E1EAF4" cx="1149.298" cy="2971.698" r="221.536"/>
	<circle fill="#E1EAF4" cx="6112.61" cy="4059.892" r="170.786"/>
	<path fill="#D6DBF8" d="M5447.061,5819.443c370.719,0,813.999,83.32,813.999,274.666s-727.608,342.894-1866.028,342.894
		c-259.438,0-630.732-59.587-630.732-164.292S4155.685,5819.443,5447.061,5819.443z"/>
	<path fill="#FEC52E" d="M5321.782,4005.217c-12.912,3.689-25.009,5.726-35.78,5.726c-68.579,0-109.329-64.603-109.329-107.341
		c0-90.444,100.384-137.157,100.384-182.876c0-37.768-18.884-64.604-70.567-64.604c-40.759,0-137.723-26.657-176.91-141.247
		c-13.958,44.972-2.372,96.553-30.814,160.132c-33.793,75.536-78.518,149.084-18.884,248.474
		c59.633,99.389,139.146,99.389,139.146,99.389v22.86h202.754V4005.217z"/>
	<path fill="#3D427A" d="M5206.489,3656.122c51.683,0,70.567,26.835,70.567,64.604c0,45.719-100.384,92.432-100.384,182.876
		c0,42.738,40.75,107.341,109.329,107.341c10.771,0,22.868-2.037,35.78-5.726c105.038-30.012,267.357-176.391,267.357-348.1
		c0-192.815-172.938-297.174-313.077-297.174c-140.139,0-150.078-58.64-207.723-58.64c-47.707,0-55.659,50.689-55.659,101.377
		c0,44.532,6.399,81.487,16.9,112.196C5068.767,3629.466,5165.73,3656.122,5206.489,3656.122z"/>
	<path fill="#FEC52E" d="M4549.252,3993.52c-6.42-20.275-17.776-44.39-6.188-66.562c17.145-32.799,46.961-94.668,32.053-109.577
		s-40.253,7.454-49.198-11.927c-8.945-19.381-63.981-145.357-90.133-145.357s46.899,122.88,22.3,132.627
		c-24.599,9.748-84.978,26.893-84.978,63.418s62.678,95.414,62.678,116.286c0,12.606,9.482,35.5,17.002,51.691
		C4475.226,3998.548,4517.036,3985.113,4549.252,3993.52z"/>
	<path fill="#A4A4EC" d="M5491.857,4280.496c-41.144-123.591-154.174-158.237-154.174-158.237v-76.53h-15.901h-202.754h-20.872
		v54.664c-122.249,0-379.668,160.018-419.425,160.018c-3.975-46.713-63.608-183.871-93.425-239.529
		c-7.853-14.657-20.895-23.405-36.054-27.362c-32.216-8.408-74.026,5.027-96.463,30.601c-7.098,8.09-12.292,17.367-14.58,27.572
		c-19.877,95.414,88.457,348.857,110.323,398.552c21.866,49.695,78.518,52.676,116.286,52.676
		c140.139,0,265.866-83.984,278.291-71.561c12.423,12.424-107.34,51.683-107.34,51.683s-25.842,176.914-25.842,215.675
		c0,37.894-9.465,118.504,35.611,154.598c1.034,0.827,2.06,1.658,3.15,2.437c149.084,101.377,423.399,91.438,534.716,15.903
		c8.086-5.487,15.588-12.066,22.658-19.413c4.893-5.084,9.594-10.51,14.029-16.395c77.364-102.667,86.556-321.419,86.556-459.152
		C5506.646,4339.81,5501.006,4307.981,5491.857,4280.496z"/>
	<path fill="#9A9AE2" d="M4696.621,6104.084c0.364-4.013,0.961-10.375,1.747-18.682c-56.371-9.104-101.135,26.96-101.135,51.48
		c0,25.841,16.896,68.579,189.833,99.39c92.39,16.499,119.706-26.567,117.242-67.26
		C4844.3,6186.021,4743.127,6177.477,4696.621,6104.084z"/>
	<path fill="#9A9AE2" d="M5193.569,6142.846c0-7.439-1.378-25.142-3.49-49.767c-81.172-21.706-119.155,24.25-119.155,48.773
		c0,25.842,20.273,80.506,243.9,105.353c53.576,5.103,59.246-33.573,55.132-62.74
		C5298.249,6197.988,5211.902,6176.691,5193.569,6142.846z"/>
	<path fill="#404680" d="M5445.152,5900.595c-0.648-346.126-6.141-922.195-39.091-1048.352c-7.07,7.347-14.572,13.925-22.658,19.413
		c-111.317,75.536-385.631,85.475-534.716-15.903c-1.09-0.779-2.117-1.61-3.15-2.437c-53.956,124.276-62.882,380.183-79.342,541.128
		c-12.194,119.235-37.778,380.208-54.408,551.625c-5.975,61.603-10.792,111.61-13.418,139.334
		c-0.786,8.307-1.383,14.669-1.747,18.682c46.506,73.393,147.679,81.936,207.687,64.928c22.069-6.255,38.617-15.937,44.763-27.161
		c12.94-74.835,32.254-165.598,51.806-256.418c14.984-69.603,30.108-139.24,42.614-201.767
		c28.823-144.115,57.646-270.339,80.506-389.606c22.859-119.267,28.822-221.639,42.738-221.639
		c13.914,0-22.86,107.341-19.879,208.718c2.982,101.377,17.247,396.564,23.035,535.709c0.751,18.067,1.709,36.485,2.804,54.918
		c4.995,84.182,12.87,168.638,17.385,221.313c2.111,24.625,3.49,42.328,3.49,49.767c18.333,33.845,104.679,55.142,176.387,41.619
		c29.369-5.539,56.297-16.884,75.068-35.655C5445.024,6112.072,5445.376,6020.018,5445.152,5900.595z"/>
	<path fill="#FEC52E" d="M5499.688,4994.898c-13.438,0-23.805-3.161-32.04-8.763c-10.226,66.094-2.394,118.091,6.199,118.091
		c9.938,0,11.927-34.786,17.89-34.786c20.872,0-29.817,129.206,9.938,129.206c38.762,0,76.531-69.573,76.531-98.396
		c0-21.255-22.688-80.579-35.806-127.322C5531.65,4987.239,5517.726,4994.898,5499.688,4994.898z"/>
	<path fill="#9796E2" d="M5491.857,4280.496c9.148,27.485,14.789,59.313,14.789,96.2c0,137.733-9.192,356.485-86.556,459.152
		c16.648,64.509,14.361,127.698,47.559,150.287c8.235,5.602,18.602,8.763,32.04,8.763c18.037,0,31.961-7.659,42.712-21.969
		c31.904-42.463,35.806-143.635,35.806-278.187C5578.207,4547.971,5559.673,4353.588,5491.857,4280.496z"/>
	<polygon fill="none" points="2450.607,4470.742 2340.025,3969.229 2010.815,4378.726 2055.591,4431.585 2107.688,5618.669 
		2371.895,5618.669 2163.99,4784.704 	"/>
	<polygon fill="none" points="2392.324,4842.469 2585.832,5618.669 2703.721,5618.669 2505.287,4718.729 	"/>
	<polygon fill="none" points="1721.879,4738.126 1785.633,5618.669 1899.906,5618.669 1854.049,4573.724 	"/>
	<g>
		<polygon fill="#B6C5DA" points="1682.082,4216.769 1629.203,4154.343 1467.823,3963.826 1210.159,3659.642 1456.407,3438.725 
			615.947,3133.362 778.786,4046.644 1027.611,3823.413 1311.383,4158.418 1440.848,4311.257 1444.068,4384.628 1498.224,5618.669 
			1743.606,5618.669 		"/>
		<polygon fill="#B6C5DA" points="4119.616,3496.507 3820.202,2734.839 3216.12,3470.242 3548.054,3479.891 2892.342,5618.669 
			3148.753,5618.669 3802.199,3487.279 		"/>
		<g>
			<polygon fill="#D2E0F3" points="2214.99,3425.697 2017.987,3670.744 2148.58,4263.011 2350.778,4041.523 			"/>
			<polygon fill="#D2E0F3" points="2072.021,2777.299 2690.315,970.954 2958.73,1053.918 2790.638,160.929 2092.004,786.022 
				2455.995,898.528 1817.822,2762.952 1950.286,3363.702 2147.289,3118.653 			"/>
			<polygon fill="#D2E0F3" points="2213.155,4555.875 2447.498,5618.669 2698.532,5618.669 2415.353,4334.388 			"/>
		</g>
		<g>
			<polygon fill="#B6C5DA" points="2890.442,2398.655 2028.97,2729.586 2292.643,2937.85 2147.289,3118.653 1950.286,3363.702 
				1467.823,3963.826 1629.203,4154.343 2017.987,3670.744 2214.99,3425.697 2485.027,3089.805 2753.868,3302.15 			"/>
			<polygon fill="#B6C5DA" points="1440.848,4311.257 1311.383,4158.418 1036.513,4500.324 1117.485,5618.669 1363.271,5618.669 
				1287.98,4578.782 1444.068,4384.628 			"/>
		</g>
		<polygon fill="#B6C5DA" points="3011.258,3438.725 2396.671,3659.346 2573.267,3797.807 2350.778,4041.523 2148.58,4263.011 
			1810.096,4633.788 2055.624,5618.669 2308.276,5618.669 2079.75,4702.007 2213.155,4555.875 2415.353,4334.388 2766.729,3949.492 
			2890.639,4046.644 		"/>
	</g>
</g>
</svg>
