<?xml version="1.0" encoding="utf-8"?>
<!-- Generator: Adobe Illustrator 17.0.0, SVG Export Plug-In . SVG Version: 6.00 Build 0)  -->
<!DOCTYPE svg PUBLIC "-//W3C//DTD SVG 1.1//EN" "http://www.w3.org/Graphics/SVG/1.1/DTD/svg11.dtd">
<svg version="1.1" id="Layer_1" xmlns="http://www.w3.org/2000/svg" xmlns:xlink="http://www.w3.org/1999/xlink" x="0px" y="0px"
	 width="1479.119px" height="1532.346px" viewBox="0 0 1479.119 1532.346" enable-background="new 0 0 1479.119 1532.346"
	 xml:space="preserve">
<path fill="#F9C941" d="M783.325,786.996c-45.199,19.971-44.955,28.919-49.24,38.56c-4.359,9.807-4.127,46.494-2.245,53.032
	c1.401,4.867,37.371,2.489,55.675,0.955c7.065-17.821,14.498-40.082,26.691-59.537C807.752,798.272,799.479,789.984,783.325,786.996
	z"/>
<path fill="#B5C6DA" d="M1438.031,900.745H55.566c-8.425,0-15.256,6.83-15.256,15.256v587.711h1397.721V900.745z"/>
<rect x="165.989" y="1311.925" fill="#EF6563" width="139.481" height="191.787"/>
<rect x="384.074" y="1156.461" fill="#EF6563" width="139.481" height="347.251"/>
<rect x="602.159" y="1426.707" fill="#EF6563" width="139.481" height="77.005"/>
<rect x="820.244" y="1332.993" fill="#EF6563" width="139.481" height="170.719"/>
<rect x="1038.329" y="1104.156" fill="#EF6563" width="139.481" height="399.556"/>
<rect x="1256.414" y="1206.588" fill="#EF6563" width="139.481" height="297.124"/>
<path fill="#FE6462" d="M626.241,1503.712c0-25.216,20.442-45.658,45.658-45.658s45.658,20.442,45.658,45.658H626.241z"/>
<path fill="none" d="M1150.359,1458.225c-8.463,12.17-22.529,20.152-38.476,20.152c-5.256,0-10.292-0.904-15.009-2.5l-20.894,27.835
	H1282.3c-1.242-2.527-2.288-5.167-3.064-7.925L1150.359,1458.225z"/>
<path fill="#093C5B" d="M1438.031,1205.744l-107.815,144.745c-2.634-0.46-5.329-0.746-8.095-0.746
	c-14.834,0-28.034,6.912-36.619,17.669l-131.916-38.676c-6.63-17.826-23.747-30.549-43.882-30.549
	c-25.878,0-46.857,20.979-46.857,46.857c0,4.412,0.653,8.665,1.793,12.713l-68.301,100.253h46.857l51.499-68.609
	c4.717,1.596,9.753,2.5,15.009,2.5c15.947,0,30.012-7.982,38.476-20.152l128.876,37.563c5.546,19.693,23.598,34.145,45.065,34.145
	c25.878,0,46.857-20.979,46.857-46.857c0-8.483-2.288-16.418-6.231-23.282l75.283-99.65V1205.744z"/>
<path fill="#F9C941" d="M404.27,795.452c-13.076,22.611-31.329,41.953-79.003,50.399c-47.674,8.445-93.714,15.801-93.714,34.053
	c0,18.252,24.518,29.694,62.385,28.332s45.495-7.628,128.312-7.628s14.439-48.709,14.439-48.709L404.27,795.452z"/>
<path fill="#EF6563" d="M1079.141,750.208c14.049-0.765,27.398-1.123,39.607-0.931c60.838,0.956,131.165-1.438,167.888,7.51
	c0.069-13.148-0.402-27.115-1.527-42.017l-94.462-41.693c-6.244,10.385-19.733,32.3-25.769,38.061
	C1158.175,717.537,1109.299,737.993,1079.141,750.208z"/>
<path fill="#F9C941" d="M744.982,1181.525c-16.709,11.987,1.453,33.054-16.709,48.31c-29.422,41.409-112.239,76.642-112.239,115.508
	c0,12.713,10.534,31.238,33.054,31.238s74.1-54.485,107.517-59.207s78.095-7.991,78.095-52.306
	c0-27.606-23.247-54.122-17.798-76.279S755.879,1166.995,744.982,1181.525z"/>
<path fill="none" d="M1025.211,483.985c1.461-3.663,2.976-7,4.546-9.948C1028.398,476.009,1026.856,479.461,1025.211,483.985z"/>
<path fill="#EF6563" d="M1087.679,499.795c-0.011-0.003-0.022-0.005-0.034-0.008c-12.908-3.37-27.233-14.049-34.958-28.324
	c-1.303-2.408-2.428-4.912-3.316-7.504c0,0-10.625,9.807-19.615,10.08c-1.57,2.948-3.085,6.285-4.546,9.948
	c-5.292,14.55-11.656,40.259-16.458,64.057c-7.325,40.686-11.674,85.08-13.14,108.792l-0.312-0.01l-1.504,18.353
	c19.887-4.268,63.751-34.359,66.472-42.689c0.214-0.656,0.48-1.546,0.775-2.571c5.29-18.385,22.862-92.953,26.602-107.66
	c0.764-3.006,1.68-5.918,2.658-8.664C1089.183,508.059,1088.31,503.357,1087.679,499.795z"/>
<path fill="#093C5B" d="M783.485,515.718c-46.857,1.453-219.029,122.046-225.204,134.759l31.238,69.741l92.261,26.153
	c0,0,90.445-58.481,102.795-58.481s35.234,30.875,63.566,61.386c35.96-14.893,145.656-74.099,145.656-74.099v0l1.504-18.353
	l0.312-3.804C926.962,596.356,830.342,514.266,783.485,515.718z"/>
<path fill="#EF6563" d="M1131.644,630.409c-18.492-27.175-30.907-70.385-37.979-101.237c-12.965,31.086-27.51,91.174-26.858,107.139
	c-33.417,32.328-233.559,128.948-281.142,149.652c-0.805,0.35-1.561,0.689-2.339,1.032c16.153,2.988,24.427,11.276,30.88,33.009
	c13.295-21.215,32.253-39.094,62.63-44.212c44.013-7.415,104.878-17.034,161.127-22.428c14.136-1.356,27.967-2.437,41.179-3.157
	c30.158-12.215,79.034-32.671,85.738-39.07c4.524-4.319,13.237-17.714,19.947-28.526
	C1162.705,667.26,1144.228,648.902,1131.644,630.409z"/>
<path fill="#FF999A" d="M1086.226,491.888c0.392,2.625,0.858,5.267,1.419,7.899c0.011,0.003,0.022,0.005,0.034,0.008
	c-0.844-4.766-1.257-7.505-1.257-7.505L1086.226,491.888z"/>
<path fill="#093C5B" d="M1321.251,549.499c-24.518-68.106-33.236-147.654-58.299-281.142
	c-25.063-133.488-118.777-224.478-213.581-224.478c0,0-75.734,0.545-151.468,40.864c-75.734,40.319-80.093,128.04-80.093,187.973
	c-3.814,171.083,140.844,283.867,184.432,314.378c1.14-10.172,3.523-24.241,6.511-39.051c4.404-24.461,9.883-47.579,16.458-64.057
	c1.646-4.525,3.188-7.976,4.546-9.948c-2.735-11.188,2.247-34.621,11.42-47.536c-2.778-3.707-4.929-7.563-6.583-11.247
	c-9.338,2.404-19.802,3.754-31.535,3.754c-83.362,0-107.88-59.933-121.501-194.239c16.618-2.724,38.684-38.684,38.684-38.684
	c31.329,20.977,135.668,55.847,183.342,55.03c11.442-8.718,37.595-7.9,37.595,35.688c0,24.518-15.528,46.857-29.149,43.315
	c-2.794,13.725-8.193,34.867-20.7,54.086c-2.794,15.863-4.965,37.875-5.713,58.26c-0.184,5.004-0.285,9.912-0.285,14.604
	c0,0-1.84,15.601-0.296,34.434c0.277,3.383,0.664,6.867,1.19,10.387l0.195,0.402c0,0,0.413,2.739,1.257,7.505
	c0.631,3.562,1.505,8.264,2.625,13.798c0.943,4.659,2.062,9.909,3.362,15.579c7.072,30.852,19.487,74.062,37.979,101.237
	c12.584,18.493,31.061,36.851,53.182,52.203c32.952,22.867,73.993,39.06,115.721,39.06
	C1370.288,721.672,1345.77,617.605,1321.251,549.499z"/>
<polygon fill="#FFFFFF" points="1063.575,456.774 1074.162,472.403 1078.572,476.092 1069.258,456.875 "/>
<path fill="#FFFFFF" d="M1038.474,456.33l-8.718,17.708c4.131-7.759,7.707-13.48,10.783-17.671L1038.474,456.33z"/>
<path fill="#FFFFFF" d="M1052.687,471.462c7.725,14.275,22.05,24.955,34.958,28.324c-0.56-2.632-1.026-5.274-1.419-7.899
	l-7.655-15.795l-4.41-3.69l-10.587-15.629l-23.035-0.408c-3.076,4.191-6.651,9.912-10.783,17.671
	c8.99-0.272,19.615-10.08,19.615-10.08C1050.259,466.551,1051.384,469.054,1052.687,471.462z"/>
<path fill="#FFFFFF" d="M1040.54,456.366c12.098-16.485,16.46-9.299,16.46-9.299l6.575,9.707l5.684,0.101l9.313,19.218l6.464,5.409
	c-1.544-18.832,0.296-34.434,0.296-34.434c-22.466-0.142-36.017-9.709-44.154-20.566c-9.173,12.915-14.155,36.348-11.42,47.536
	l8.718-17.708L1040.54,456.366z"/>
<path fill="#FFFFFF" d="M1040.54,456.366l23.035,0.408l-6.575-9.707C1056.999,447.067,1052.637,439.881,1040.54,456.366z"/>
<path fill="#FFFFFF" d="M1078.572,476.092l7.655,15.795c-0.526-3.52-0.913-7.004-1.19-10.387L1078.572,476.092z"/>
<path fill="#F9C941" d="M1070.523,429.071c0.403-0.796,0.643-1.255,0.643-1.255l1.234,1.677l13.217,2.97
	c0.748-20.385,2.919-42.397,5.713-58.26c12.507-19.219,17.906-40.361,20.7-54.086c13.621,3.542,29.149-18.797,29.149-43.315
	c0-43.588-26.153-44.405-37.595-35.688c-47.674,0.817-152.013-34.053-183.342-55.03c0,0-22.066,35.96-38.684,38.684
	c13.621,134.305,38.139,194.239,121.501,194.239c11.732,0,22.196-1.349,31.535-3.754c1.655,3.684,3.805,7.541,6.583,11.247
	c0.879-1.237,1.793-2.384,2.746-3.408L1070.523,429.071z"/>
<path fill="#F9C941" d="M1085.332,447.067c0-4.692,0.101-9.601,0.285-14.604l-13.217-2.97L1085.332,447.067z"/>
<path fill="#F9C941" d="M1070.523,429.071l1.877,0.422l-1.234-1.677C1071.165,427.816,1070.926,428.275,1070.523,429.071z"/>
<path fill="#F9C941" d="M1085.332,447.067l-12.932-17.574l-1.877-0.422l-26.6-5.977c-0.953,1.024-1.867,2.171-2.746,3.408
	C1049.315,437.359,1062.865,446.925,1085.332,447.067z"/>
<path fill="#5356A3" d="M1008.753,548.043c4.801-23.799,11.166-49.507,16.458-64.057
	C1018.636,500.464,1013.157,523.582,1008.753,548.043z"/>
<path fill="#D7DFEA" d="M699.578,873.14c-3.269-7.991-52.669-207.769-55.211-216.487c-2.434-8.345,4.762-14.517,7.326-14.81
	c-0.505-0.027-0.971-0.083-1.514-0.083c0,0-230.653-1.816-264.07-1.816c-33.418,0-32.691,17.072-27.969,37.05
	c4.722,19.978,42.135,172.536,48.31,199.778c6.175,27.242,10.171,23.973,10.171,23.973h283.661
	C701.015,892.319,701.782,878.526,699.578,873.14z"/>
<path fill="#B6C5DA" d="M813.27,868.417c0,0-86.086,1.09-94.804,0.727c-2.543-1.816-42.498-171.446-47.947-192.15
	c-5.282-20.072-2.77-34.299-18.827-35.151c-2.564,0.293-9.76,6.465-7.326,14.81c2.543,8.718,51.942,208.496,55.211,216.487
	c2.203,5.386,1.437,19.179,0.702,27.606h119.528L813.27,868.417z"/>
<path fill="#EF6563" d="M524.137,752.91c9.081,0,21.431,8.354,21.431,19.615c0,11.26-10.897,17.435-17.798,17.435
	s-18.168-5.085-18.168-14.893C509.601,765.26,509.97,752.91,524.137,752.91z"/>
<path fill="#093C5B" d="M1118.749,749.277c-12.209-0.192-25.559,0.166-39.607,0.931c-13.212,0.72-27.043,1.801-41.179,3.157
	c-56.249,5.394-117.114,15.013-161.127,22.428c-58.235,9.812-74.552,66.495-89.321,103.75c-2.181,5.502-4.329,10.587-6.573,15.028
	c-6.565,12.993-14.417,49.574-21.966,92.984c-12.501,71.882-24.173,162.496-27.797,195.786
	c20.704,20.704,80.638,27.606,98.799,2.543c18.162-25.063,94.441-227.384,104.974-229.563c10.534-2.179,193.24-0.727,221.209,0
	c26.044,0.677,129.544-21.67,130.475-199.533C1249.914,747.839,1179.587,750.233,1118.749,749.277z"/>
<path opacity="0.15" d="M1131.644,630.409c-18.492-27.175-30.907-70.385-37.979-101.237c-12.965,31.086-27.51,91.174-26.858,107.139
	c-33.417,32.328-233.559,128.948-281.142,149.652c-0.805,0.35-1.561,0.689-2.339,1.032c16.153,2.988,24.427,11.276,30.88,33.009
	c13.295-21.215,32.253-39.094,62.63-44.212c44.013-7.415,104.878-17.034,161.127-22.428c14.136-1.356,27.967-2.437,41.179-3.157
	c30.158-12.215,79.034-32.671,85.738-39.07c4.524-4.319,13.237-17.714,19.947-28.526
	C1162.705,667.26,1144.228,648.902,1131.644,630.409z"/>
<path fill="#093C5B" d="M1457.065,1484.055c0,14.385-11.661,26.046-26.046,26.046H47.322c-14.385,0-26.046-11.661-26.046-26.046l0,0
	c0-14.385,11.661-26.046,26.046-26.046h1383.698C1445.404,1458.009,1457.065,1469.67,1457.065,1484.055L1457.065,1484.055z"/>
</svg>
