<?xml version="1.0" encoding="utf-8"?>
<!-- Generator: Adobe Illustrator 23.0.2, SVG Export Plug-In . SVG Version: 6.00 Build 0)  -->
<svg version="1.1" id="Layer_1" xmlns="http://www.w3.org/2000/svg" xmlns:xlink="http://www.w3.org/1999/xlink" x="0px" y="0px"
	 viewBox="0 0 1920 850.3" style="enable-background:new 0 0 1920 850.3;" xml:space="preserve">
<style type="text/css">
	.st0{fill:#F6D2C9;}
	.st1{fill:#F58A88;}
	.st2{fill:#E97A7B;}
	.st3{fill:#623737;}
	.st4{fill:#915352;}
	.st5{fill:#492A28;}
	.st6{fill:#3E3769;}
	.st7{fill:#EF413B;}
	.st8{fill:#F9B49E;}
	.st9{fill:#2D2856;}
	.st10{fill:#222149;}
	.st11{fill:#FBE7E7;}
	.st12{fill:#FAC5C3;}
	.st13{fill:#F5A0A0;}
	.st14{fill:#DB7C7A;}
	.st15{fill:#CD6D6D;}
	.st16{fill:#FBDBDB;}
	.st17{fill:#F9B49F;}
	.st18{opacity:0.3;}
	.st19{fill:#FFFFFF;}
	.st20{fill:#FDE0DC;}
	.st21{fill:#EF4239;}
	.st22{fill:#E97B7A;}
	.st23{fill:#555599;}
</style>
<g>
	<g>
		<path class="st0" d="M509.3,653.8c0,0-2.3,55-2.3,58.4c0,0-4.3,26.4-4.9,28.4l5.4,9.3c0,0-2.8,1.4-5.7,1.1c-3.7-0.5-6,0.1-9.3-9.7
			c0,0-6.1-1.9-4.4-11.5c0,0,1-6.2-5.7-14.5c-2.3-2.8-3.2-7,5.2-13.6l2.5-1.9l-2.8-33.1L509.3,653.8z"/>
		<path class="st1" d="M466.6,327.2c-19.7-35.5-68.6-57.3-94.1-42.8c-1.7,1-3.3,2-4.8,3.2c-22-4.1-46.3,2.7-58.7,31.9
			c0,0,1.2-9.1,0,0c-11.1,17.5-17.6,39.6-17.6,62.8c0,56,36.6,86.5,73.8,91c28.8,3.4,63,6.1,78.6-6.4c9-7.2,16.4-25.3,10.2-46.8
			c0.9-0.4,9-1.5,9.8-2C489.3,403.7,486.4,362.7,466.6,327.2z"/>
		<path class="st2" d="M336,400c0,0,0.6-10.8-14.3-25.3"/>
		<g>
			<path class="st3" d="M450.4,787.5c0,15.9-41.9,28.7-93.6,28.7c-51.7,0-93.6-12.9-93.6-28.7c0-34,5.7-28.7,93.6-28.7
				C446.5,758.7,450.4,755.7,450.4,787.5z"/>
			<path class="st4" d="M450.4,773.7c0,15.9-41.9,28.7-93.6,28.7c-51.7,0-93.6-12.9-93.6-28.7c0-15.9,41.9-28.7,93.6-28.7
				C408.5,745,450.4,757.8,450.4,773.7z"/>
		</g>
		<g>
			<path class="st5" d="M302.9,723.1c-0.7,3.6-3.7,5.8-6.7,5l0,0c-3-0.8-4.9-4.4-4.2-7.9l33.7-174.1c0.7-3.6,3.7-5.8,6.7-5l0,0
				c3,0.8,4.9,4.4,4.2,7.9L302.9,723.1z"/>
			<path class="st5" d="M428.7,719.5c0.8,3.5-1,7.1-4,8l0,0c-3,0.9-6-1.2-6.8-4.8l-37.6-173c-0.8-3.5,1-7.1,4-8l0,0
				c3-0.9,6,1.2,6.8,4.8L428.7,719.5z"/>
		</g>
		<path class="st6" d="M402.7,219.8c0-25.7-22.3-46.5-49.7-46.5c-27.5,0-49.7,20.8-49.7,46.5c0,11.4,8.5,33,13.6,42.6
			c10.4,19.7-10.9,29.2-16.7,49.6c-1.9,6.6,6,33,37.4,5.6c0,0,13.7-16,12.8-47c0,0,19.6-2.5,22.3-8.2
			C390.4,255.3,402.7,238.9,402.7,219.8z"/>
		<path class="st7" d="M381.5,286.6c0,8-6.5,14.5-14.5,14.5h-3.6c-8,0-14.5-6.5-14.5-14.5V266c0-8,6.5-14.5,14.5-14.5h3.6
			c8,0,14.5,6.5,14.5,14.5V286.6z"/>
		<path class="st8" d="M381.5,279.3c0,8-6.5,14.5-14.5,14.5h-3.6c-8,0-14.5-6.5-14.5-14.5v-20.6c0-8,6.5-14.5,14.5-14.5h3.6
			c8,0,14.5,6.5,14.5,14.5V279.3z"/>
		<path class="st0" d="M389.8,237.7c-1.6,19.1-14.1,33.7-27.9,32.5c-13.8-1.2-23.6-17.6-21.9-36.7c1.6-19.1,14.1-33.7,27.9-32.5
			C381.6,202.2,391.5,218.6,389.8,237.7z"/>
		<path class="st6" d="M365.6,227.2c-12.7,12.4-30.4,14.7-39.7,5.3c-9.3-9.5-6.5-27.2,6.1-39.5c12.7-12.4,30.4-14.7,39.7-5.3
			C381,197.1,378.2,214.8,365.6,227.2z"/>
		<path class="st0" d="M431.3,658.2c0,0-16.6,55.1-17.5,58.5c0,0-11.2,25.6-12.4,27.4l3,10.8c0,0-3.2,0.7-6-0.4
			c-3.7-1.4-6.1-1.4-6.8-12.2c0,0-5.7-3.5-1.5-12.7c0,0,2.6-6-2-16.1c-1.6-3.5-1.4-7.9,8.8-12.4l3-1.3l5.8-34.2L431.3,658.2z"/>
		<path class="st9" d="M443.2,473l71.8,36.5c0,0,18.5,8.9,12.6,50.4l-16.3,120.8h-33.4l0.7-86.7c0,0-11.9-63.8-14.8-65.2
			c-3-1.5-59.3-24.5-59.3-24.5l-34.1-31.9L443.2,473z"/>
		<path class="st10" d="M492,532.8c15.3,22.6-13.6,84.4-13.6,84.4l0.2-23.1l-1.7-8.8l-1.7-8.7l5.9-21.9v-14.3c0,0,5.3-3.4,5.8-3.4
			C487.6,537,491.2,531.6,492,532.8z"/>
		<path class="st4" d="M427.2,547c0,5.9-6,10.7-13.3,10.7H285.5c-7.4,0-13.3-4.8-13.3-10.7v-3.6c0-5.9,6-10.7,13.3-10.7h128.4
			c7.4,0,13.3,4.8,13.3,10.7V547z"/>
		<path class="st6" d="M298.6,458.3c0,0-31,74.1,36.4,78.6l86.7,1.3l-23.2,147.7c0,0,21.9,20,28.6,0l54.1-128.3
			c0,0,17.8-40.8-28.2-60l-42.7-16.8L298.6,458.3z"/>
		<g>
			<path class="st4" d="M269.2,412.9c0,0.8-0.4,1.5-0.9,1.5l0,0c-0.5,0-0.9-0.7-0.9-1.5v-23c0-0.8,0.4-1.5,0.9-1.5l0,0
				c0.5,0,0.9,0.7,0.9,1.5V412.9z"/>
			<path class="st4" d="M407.7,350.1c0,1.5-1.2,2.6-2.6,2.6h-33.9c-1.5,0-2.6-1.2-2.6-2.6l0,0c0-1.5,1.2-2.6,2.6-2.6h33.9
				C406.5,347.4,407.7,348.6,407.7,350.1L407.7,350.1z"/>
			<path class="st4" d="M363,326.5c0,1.1-0.9,2.1-2.1,2.1l0,0c-1.1,0-2.1-0.9-2.1-2.1v-31.7c0-1.1,0.9-2.1,2.1-2.1l0,0
				c1.1,0,2.1,0.9,2.1,2.1V326.5z"/>
			<path class="st4" d="M270.3,356.4c0,1.1-0.9,2.1-2.1,2.1l0,0c-1.1,0-2.1-0.9-2.1-2.1v-31.7c0-1.1,0.9-2.1,2.1-2.1l0,0
				c1.1,0,2.1,0.9,2.1,2.1V356.4z"/>
			<path class="st11" d="M270.8,400.9c0,0.8-1.1,1.5-2.6,1.5l0,0c-1.4,0-2.6-0.7-2.6-1.5v-23c0-0.8,1.2-1.5,2.6-1.5l0,0
				c1.4,0,2.6,0.7,2.6,1.5V400.9z"/>
			<g>
				<path class="st11" d="M370.5,325.5c-6.4,0-12.7,0-19.1,0c4.5-7.3,4.5-15.6,0-22.9c6.4,0,12.7,0,19.1,0
					C366,309.9,366,318.2,370.5,325.5z"/>
				<path class="st11" d="M375.3,302.6c0,1.7-1.4,3.1-3.1,3.1h-22.6c-1.7,0-3.1-1.4-3.1-3.1l0,0c0-1.7,1.4-3.1,3.1-3.1h22.6
					C373.9,299.5,375.3,300.9,375.3,302.6L375.3,302.6z"/>
				<path class="st11" d="M375.3,325.5c0,1.7-1.4,3.1-3.1,3.1h-22.6c-1.7,0-3.1-1.4-3.1-3.1l0,0c0-1.7,1.4-3.1,3.1-3.1h22.6
					C373.9,322.5,375.3,323.8,375.3,325.5L375.3,325.5z"/>
			</g>
			<path class="st12" d="M384.6,419.4v-65.1c0,0-2.9-28.1-23.5-28.1c-20.5,0-32.8,20.5-62.2,20.5s-17.6-15.1-25.3-16.8
				c-7.6-1.8-18.7-1.4-18.7,6.8c0,8.2-1.8,45.2,0.6,50.4c2.3,5.3,7.7,8.3,19.9,5.3c9.4-2.3,3.5-18.2,14.7-26.4
				c11.1-8.2,35.8-13.5,47.5-4.7c11.7,8.8,15.2,21.7,5.9,29.9c-9.4,8.2-26.7,18.8-28.3,28.2H384.6z"/>
			<path class="st13" d="M370.5,350.1c0,5.3-4.3,9.6-9.6,9.6s-9.6-4.3-9.6-9.6c0-5.3,4.3-9.6,9.6-9.6S370.5,344.8,370.5,350.1z"/>
			<path class="st1" d="M367.8,350.1c0,3.8-3.1,6.9-6.9,6.9s-6.9-3.1-6.9-6.9c0-3.8,3.1-6.9,6.9-6.9S367.8,346.2,367.8,350.1z"/>
			<path class="st11" d="M374.2,404.9c0,1-0.8,1.9-1.9,1.9l0,0c-1,0-1.9-0.8-1.9-1.9v-22c0-1,0.8-1.9,1.9-1.9l0,0
				c1,0,1.9,0.8,1.9,1.9V404.9z"/>
			<path class="st11" d="M265,374.3c0,1.1-0.9,2.1-2.1,2.1l0,0c-1.1,0-2.1-0.9-2.1-2.1v-31.7c0-1.1,0.9-2.1,2.1-2.1l0,0
				c1.1,0,2.1,0.9,2.1,2.1V374.3z"/>
			<path class="st14" d="M398.4,457.9c0,3.8-3.1,6.9-6.9,6.9H239c-3.8,0-6.9-3.1-6.9-6.9v-34.7c0-3.8,3.1-6.9,6.9-6.9h152.4
				c3.8,0,6.9,3.1,6.9,6.9V457.9z"/>
			<path class="st15" d="M386.6,452.1c0,2.1-1.7,3.8-3.8,3.8H247.6c-2.1,0-3.8-1.7-3.8-3.8v-19c0-2.1,1.7-3.8,3.8-3.8h135.2
				c2.1,0,3.8,1.7,3.8,3.8V452.1z"/>
			<path class="st1" d="M386.6,450c0,2.1-1.7,3.8-3.8,3.8H247.6c-2.1,0-3.8-1.7-3.8-3.8v-19c0-2.1,1.7-3.8,3.8-3.8h135.2
				c2.1,0,3.8,1.7,3.8,3.8V450z"/>
			<path class="st12" d="M321.4,440.5c0,3.4-2.8,6.2-6.2,6.2l0,0c-3.4,0-6.2-2.8-6.2-6.2l0,0c0-3.4,2.8-6.2,6.2-6.2l0,0
				C318.6,434.3,321.4,437.1,321.4,440.5L321.4,440.5z"/>
			<path class="st11" d="M395.4,357.6c0,2.7-1.6,4.8-3.6,4.8l0,0c-2,0-3.6-2.2-3.6-4.8v-15c0-2.7,1.6-4.8,3.6-4.8l0,0
				c2,0,3.6,2.2,3.6,4.8V357.6z"/>
			<path class="st11" d="M402.6,368.4c0,2.7-1.6,4.8-3.6,4.8l0,0c-2,0-3.6-2.2-3.6-4.8v-36.7c0-2.7,1.6-4.8,3.6-4.8l0,0
				c2,0,3.6,2.2,3.6,4.8V368.4z"/>
			<g>
				<g>
					<path class="st13" d="M370.1,306.6c-0.2,0.5-0.6,0.9-1,0.9c-5.5,0-10.9,0-16.4,0c-0.4,0-0.8-0.4-1-0.9l0,0
						c-0.2-0.5,0-0.9,0.4-0.9c5.9,0,11.8,0,17.7,0C370.2,305.7,370.3,306.1,370.1,306.6L370.1,306.6z"/>
				</g>
				<g>
					<path class="st12" d="M369.5,308.4c-0.1,0.5-0.5,0.9-0.9,0.9c-5.2,0-10.3,0-15.5,0c-0.3,0-0.7-0.4-0.9-0.9l0,0
						c-0.1-0.5,0-0.9,0.4-0.9c5.5,0,10.9,0,16.4,0C369.5,307.5,369.7,307.9,369.5,308.4L369.5,308.4z"/>
				</g>
				<g>
					<path class="st13" d="M369.1,310.3c-0.1,0.5-0.4,0.9-0.8,0.9c-4.9,0-9.9,0-14.8,0c-0.3,0-0.7-0.4-0.8-0.9l0,0
						c-0.1-0.5,0.1-0.9,0.4-0.9c5.2,0,10.3,0,15.5,0C369,309.3,369.2,309.7,369.1,310.3L369.1,310.3z"/>
				</g>
				<g>
					<path class="st12" d="M368.8,312.2c0,0.5-0.3,0.9-0.7,0.9c-4.8,0-9.7,0-14.5,0c-0.3,0-0.6-0.4-0.7-0.9l0,0c0-0.5,0.2-1,0.5-1
						c4.9,0,9.9,0,14.8,0C368.7,311.2,368.9,311.6,368.8,312.2L368.8,312.2z"/>
				</g>
				<g>
					<path class="st13" d="M368.7,314.1c0,0.5-0.2,1-0.6,1c-4.8,0-9.7,0-14.5,0c-0.3,0-0.6-0.4-0.6-1l0,0c0-0.5,0.2-1,0.6-1
						c4.8,0,9.7,0,14.5,0C368.5,313.1,368.7,313.5,368.7,314.1L368.7,314.1z"/>
				</g>
				<g>
					<path class="st12" d="M368.8,316c0,0.5-0.2,0.9-0.5,0.9c-4.9,0-9.9,0-14.8,0c-0.3,0-0.5-0.4-0.5-0.9l0,0c0-0.5,0.3-1,0.7-1
						c4.8,0,9.7,0,14.5,0C368.5,315,368.8,315.4,368.8,316L368.8,316z"/>
				</g>
				<g>
					<path class="st13" d="M369.1,317.9c0.1,0.5-0.1,0.9-0.4,0.9c-5.2,0-10.3,0-15.5,0c-0.4,0-0.5-0.4-0.4-0.9l0,0
						c0.1-0.5,0.4-0.9,0.8-0.9c4.9,0,9.9,0,14.8,0C368.7,316.9,369,317.3,369.1,317.9L369.1,317.9z"/>
				</g>
				<g>
					<path class="st12" d="M369.5,319.7c0.1,0.5,0,0.9-0.4,0.9c-5.5,0-10.9,0-16.4,0c-0.4,0-0.5-0.4-0.4-0.9l0,0
						c0.1-0.5,0.5-0.9,0.9-0.9c5.2,0,10.3,0,15.5,0C369,318.8,369.4,319.2,369.5,319.7L369.5,319.7z"/>
				</g>
				<g>
					<path class="st13" d="M370.1,321.6c0.2,0.5,0,0.9-0.4,0.9c-5.9,0-11.8,0-17.7,0c-0.4,0-0.5-0.4-0.4-0.9l0,0
						c0.2-0.5,0.6-0.9,1-0.9c5.5,0,10.9,0,16.4,0C369.5,320.7,369.9,321.1,370.1,321.6L370.1,321.6z"/>
				</g>
			</g>
		</g>
		<path class="st3" d="M360.4,773.8c0,3.5-2.8,6.4-6.4,6.4l0,0c-3.5,0-6.4-2.8-6.4-6.4V473.3c0-3.5,2.8-6.4,6.4-6.4l0,0
			c3.5,0,6.4,2.8,6.4,6.4V773.8z"/>
		<path class="st4" d="M516.1,471.2c0,4-4.3,7.2-9.5,7.2H178.2c-5.3,0-9.5-3.2-9.5-7.2l0,0c0-4,4.3-7.2,9.5-7.2h328.4
			C511.8,464,516.1,467.2,516.1,471.2L516.1,471.2z"/>
		<path class="st3" d="M490.6,485c0,4-4.3,7.2-9.5,7.2H203.6c-5.3,0-9.5-3.2-9.5-7.2l0,0c0-4,3.2-7.2,8.5-7.2h278.6
			C486.4,477.8,490.6,481,490.6,485L490.6,485z"/>
		<path class="st7" d="M429.2,371.6c-2,5.3-7.1,8.4-11.3,6.7c-4.2-1.6-6-7.2-4-12.6c2-5.3,7.1-8.4,11.3-6.7
			C429.4,360.6,431.2,366.2,429.2,371.6z"/>
		<g>
			<path class="st0" d="M423.4,362l-2.2-1.5c-0.6-0.4-1-1-1.1-1.7l-1.7-8.2c-0.1-0.6-0.4-1.3-0.7-1.8l-2.3-3.5
				c-0.5-0.7-1.1-1.3-1.9-1.5l-7.1-2.6c-1.3-0.5-2.8,0.1-3.4,1.4l-5.5,11.6c-0.6,1.2-0.2,2.7,0.9,3.5l2.1,1.5c0.4,0.3,0.7,0.6,0.9,1
				l3.9,7.4c0.3,0.6,0.8,1,1.4,1.3l5.4,2.2c0.2,0.1,0.4,0.2,0.5,0.3c0,0,2.3,1.6,3.1,2.1c1.3,0.9,6.4,0.2,7.2-1.1
				c0.8-1.2,2.1-3.8,2.8-5.1C426.6,365.8,424.7,362.8,423.4,362z"/>
			<path class="st0" d="M395.8,351.4l3.5,1.8c0.8,0.5,6.9,5.4,6.4,6.2l-0.1,0.2c-0.5,0.8-1.9,1.3-2.7,0.8l-9-5.8
				c-0.8-0.5-1.1-1.6-0.6-2.4l0.1-0.2C393.8,351.2,394.9,350.9,395.8,351.4z"/>
			<path class="st0" d="M396.7,346.8l10.7,5.2c0.9,0.5,1,2.1,0.5,3l-0.1,0.3c-0.5,0.9-1.9,2.1-2.9,1.6l-10.2-6.3
				c-0.9-0.5-1.3-1.7-0.8-2.6l0.1-0.3C394.6,346.6,395.8,346.3,396.7,346.8z"/>
			<path class="st0" d="M397.3,341.3l11.6,5.8c1,0.5,1.3,2.1,0.7,3.1l-0.2,0.3c-0.5,1-1.5,2.8-2.6,2.2l-11.7-7.3
				c-1-0.5-1.4-1.8-0.9-2.9l0.2-0.3C395,341.1,396.3,340.7,397.3,341.3z"/>
			<path class="st0" d="M401.3,338.7l10,4.1c0.9,0.4,0.8,1.8,0.4,2.7l-0.1,0.2c-0.4,0.9-1.5,2.6-2.3,2.2l-9.5-5.9
				c-0.9-0.4-1.2-1.5-0.8-2.3l0.1-0.2C399.4,338.7,400.4,338.3,401.3,338.7z"/>
			<path class="st0" d="M403.6,357.5c-0.4,0.6-1.1,0.9-1.5,0.7c-0.4-0.3-0.3-1,0.1-1.6c0.4-0.6,1.1-0.9,1.5-0.7
				C404,356.2,404,356.9,403.6,357.5z"/>
			<path class="st0" d="M407.8,354.5c-0.4,0.6-1.1,0.9-1.5,0.7c-0.4-0.3-0.3-1,0.1-1.6c0.4-0.6,1.1-0.9,1.5-0.7
				C408.2,353.2,408.2,353.9,407.8,354.5z"/>
			<path class="st0" d="M411,350.6c-0.4,0.6-1.1,0.9-1.5,0.7c-0.4-0.3-0.3-1,0.1-1.6c0.4-0.6,1.1-0.9,1.5-0.7
				C411.5,349.2,411.4,350,411,350.6z"/>
			<path class="st0" d="M413.7,346.6c-0.4,0.6-1.1,0.9-1.5,0.7c-0.4-0.3-0.3-1,0.1-1.6c0.4-0.6,1.1-0.9,1.5-0.7
				C414.2,345.3,414.1,346,413.7,346.6z"/>
		</g>
		<path class="st2" d="M417.9,378.3c0,0-6.6,49.3,36.1,41.8l1.6,7C455.6,427.1,409,432.7,417.9,378.3z"/>
		<path class="st2" d="M433.6,363.4c0,0,14,1.3,20.4,8.3"/>
	</g>
</g>
<g>
	<path class="st0" d="M863.2,805c1.5,12.2-0.7,18.7-0.8,20.9c-0.1,2.1,1.9,5.8,7.4,4.8s10.1,0.4,13.2,0.9c3,0.5,13.1,3.2,12.9-5.6
		c-2-0.9-4.9,0.7-11.2-2.5c-6.3-3.2-10.8-3.6-11.1-6.8c-0.3-3.2,0.7-11.5-0.7-13.1C871.5,801.9,863.2,805,863.2,805z"/>
	<path class="st0" d="M791.2,805c-1.5,12.2,0.7,18.7,0.8,20.9s-1.9,5.8-7.4,4.8s-10.1,0.4-13.2,0.9s-13.1,3.2-12.9-5.6
		c2-0.9,4.9,0.7,11.2-2.5c6.3-3.2,10.8-3.6,11.1-6.8c0.3-3.2-0.7-11.5,0.7-13.1C782.9,801.9,791.2,805,791.2,805z"/>
	<path class="st6" d="M778.2,650.6c0,45.4,0.2,142.3-2.8,158.4l21.7-0.5c9.3-70.9,22.6-128.2,26.5-153.1
		c4-24.9,15.4-84.9,19.9-113.9c4.5-28.9,13-70.3,13-70.3c2.4,74.6,0,107.8,2.4,146.8c2.4,39,2.1,190.8,2.1,190.8s14.5,1.1,18.1-1.1
		c11.6-51.2,18.5-90.8,26.7-125.3s7.7-35.3,1.3-67.9c-2.1-24.2,7.4-56.5,11.4-79.4c4-22.8,12.5-84.4,12.5-84.4H778.2
		C779.8,524,778.2,605.2,778.2,650.6z"/>
	<path class="st16" d="M894.7,422.6c3.7-30-2.7-84.9-0.8-104.8c1.7-17.9-3.7-127,0.4-159.4c-0.1,0-0.2-0.1-0.4-0.1
		c-16.6-12.1-51.9-7.7-79.7-1.5c0.2,30.5-2.2,71.8-1.3,94.4c1.1,25.5,0.1,136.3-3,171.3c0,0-19.7,0-38,0.3c-2.4,10.3-5,21.8-7,28.3
		c6.4,3.7,54.7-0.5,84.4,1.1c29.7,1.6,64,1.9,102.7,0.5c-2.4-8.7-4.1-23.6-4.7-30.2C934.4,422.3,917.1,417.3,894.7,422.6z"/>
	<g>
		<path class="st1" d="M814.2,156.8c-1.3,0.3-2.6,0.6-3.8,0.9c-3.2,0.7-6.2,1.5-9.1,2.3c-28.7,7.4-36.4,23.1-38,31.8
			c-1.6,8.8-3.7,19.9-13.3,33.4c-9.6,13.5-20.2,24.9-27.9,38s-2.1,13.5,1.1,28.7c3.2,15.1-4.2,8.8-3.7,24.7
			c0.5,15.9,29.2,14.3,29.2,14.3s0,0.7,0,2c0,1.7-0.1,4.6-0.4,8.6c-0.4,5.1-1.1,12.2-2.4,21.3c-3.2,21.6,0.7,30.4,3.5,36.4
			c2.8,6-1.4,17.7-1.1,24.4c5.8-0.4,14.5-0.6,23.6-0.7c18.3-0.3,38-0.3,38-0.3c0.3-3.7,0.6-8.2,0.9-13.4c0.1-1.4,0.1-2.8,0.2-4.3
			c2.2-45.3,2.8-131.5,1.9-153.6C812,228.6,814.4,187.3,814.2,156.8z"/>
		<path class="st1" d="M982.3,286.5c8.2-10.9-1.3-24.2-9.3-35.6c-8-11.4-22-18.6-30.5-49.6c-4.5-16.3-12.9-25.6-22.4-31.6
			c-8.5-5.4-17.8-8.3-25.9-11.2c-4.1,32.4,1.3,141.5-0.4,159.4c-1.5,16.4,2.5,56.6,1.9,87c0,2.3-0.1,4.6-0.2,6.8
			c-0.2,3.9-0.5,7.6-0.9,11c22.4-5.3,39.8-0.4,52.6-0.2c2.6,0,5.1-0.1,7.4-0.6c-1.9-11.4,5.6-32.9,2.9-51c0.4-5.1-2.5-14.2-3.2-27.8
			c-0.1-2.4-0.2-5-0.2-7.7c0-1.8,0.1-3.7,0.2-5.7c0,0,6.6,2.4,12.2,0.8c20.4-1.9,19.4-15.9,18-19.6
			C983.3,307.2,974,297.4,982.3,286.5z"/>
	</g>
	<path class="st2" d="M751.4,401.7c18.7,10.3,43.3,10.4,59.5,7.4c0.1-1.4,0.1-2.8,0.2-4.3C774.3,410.8,764.6,403.5,751.4,401.7z"/>
	<path class="st2" d="M950.9,405.6c-17.2,1.7-41.9,1-55.1-0.8c0,2.3-0.1,4.6-0.2,6.8C925.8,410.4,933.8,413.6,950.9,405.6z"/>
	<path class="st2" d="M937.9,305.9c-2.1,13.8,5.3,29.1,16.4,37.2c-0.1-2.4-0.2-5-0.2-7.7C946.3,328.1,940.5,310.9,937.9,305.9z"/>
	<path class="st2" d="M949.9,293.6c0,0,9-4.8,11.9,3.5C965.3,289.4,954.9,287.5,949.9,293.6z"/>
	<path class="st2" d="M926,240.8c-2.7,10.6,4.8,24.7,5.6,31.3c0.8,6.6,2.9,2.9,2.9,2.9C935.3,264.7,924.9,247.2,926,240.8z"/>
	<path class="st2" d="M766.8,280.9c1.6-11.9,7.2-21.8,3.7-29.2c-1.3,8.8-11.7,21-8,30C766.2,290.7,766.8,280.9,766.8,280.9z"/>
	<path class="st2" d="M764.4,312.2c-4.8,9.8-9.4,15.3-15.7,20.6c0,1.7-0.1,4.6-0.4,8.6C755.6,336.8,767.5,329.1,764.4,312.2z"/>
	<path class="st17" d="M798.9,285.7c-4.2-8-18.6,2.4-25.7-0.3c-4-2.4,0-11.7-6.4-10.9c-2.4-0.5-13.3,13-17.3,23.6
		c0,0-1.3-3.5-4.8,0.5c-2.7,8.2,7.2,21.2,14.9,18.8c1-0.3,2.1-0.5,3.2-0.6c7.9-0.9,18.8,1.7,20.6,1.7c2.1,0,5-8.8,3.7-14.9
		c4.5-2.4-3.2-10.9,2.9-11.9S800.6,289,798.9,285.7z"/>
	<g>
		<path class="st17" d="M948.8,290.5c-1.3-7.7-5.8-7.7-8.2-11.4c-2.4-3.7-8.5-12.5-11.1-11.4c-2.7,1.1-4.8,7.2-5.3,12.2
			c-6.4,0.5-10.4-1.9-13-1.3c-3.2-4.2-11.9-3.5-13.8,1.9c-1.4,4,6.1,4.8,11.4,4c-4.5,7.7,2.7,9.3,2.7,9.3c-3.7,9-0.8,13.8,1.1,12.5
			c-3.5,8.2,7.4,7.7,24.2,5c8,2.4,12.7-2.9,15.1-9.8C954.1,294.4,953.1,288.6,948.8,290.5z"/>
	</g>
	<path class="st7" d="M749.5,298.2c0,0-1.3-3.5-4.8,0.5c-2.7,8.2,7.2,21.2,14.9,18.8c1-0.3,2.1-0.5,3.2-0.6
		C748.9,308.3,750,304.4,749.5,298.2z"/>
	<path class="st7" d="M948.8,290.5c1.6,7.4-2.1,14.3-12.2,20.7c8,2.4,12.7-2.9,15.1-9.8C954.1,294.4,953.1,288.6,948.8,290.5z"/>
	<path class="st6" d="M776.8,209.8c0,0,103,0,137.5,0c0,0-0.5,64.2,3.7,89.7c-47.8,1.1-144.9-3.2-149.7,0
		C776.3,287.8,776.8,233.1,776.8,209.8z"/>
	<g class="st18">
		<path class="st19" d="M846.9,267.6c-7.6,0-13.8-6.2-13.8-13.8s6.2-13.8,13.8-13.8s13.8,6.2,13.8,13.8S854.5,267.6,846.9,267.6z
			 M846.9,242.2c-6.4,0-11.7,5.2-11.7,11.7s5.2,11.7,11.7,11.7s11.7-5.2,11.7-11.7S853.3,242.2,846.9,242.2z"/>
	</g>
	<g>
		<path class="st6" d="M902,71.5c0-30.3-26.3-54.9-58.7-54.9c-32.4,0-58.7,24.6-58.7,54.9c0,13.5,10,38.9,16,50.3
			c12.3,23.3-12.8,34.5-19.7,58.5c-2.2,7.7,7.1,38.9,44.2,6.6c0,0,16.1-18.9,15.1-55.4c0,0,23.2-2.9,26.3-9.6
			C887.5,113.4,902,94,902,71.5z"/>
		<path class="st7" d="M876.9,150.3c0,9.5-7.7,17.1-17.1,17.1h-4.3c-9.5,0-17.1-7.7-17.1-17.1v-24.3c0-9.5,7.7-17.1,17.1-17.1h4.3
			c9.5,0,17.1,7.7,17.1,17.1V150.3z"/>
		<path class="st8" d="M876.9,141.8c0,9.5-7.7,17.1-17.1,17.1h-4.3c-9.5,0-17.1-7.7-17.1-17.1v-24.3c0-9.5,7.7-17.1,17.1-17.1h4.3
			c9.5,0,17.1,7.7,17.1,17.1V141.8z"/>
		<path class="st0" d="M886.8,92.7c-1.9,22.6-16.6,39.7-32.9,38.3c-16.2-1.4-27.8-20.8-25.9-43.4c1.9-22.6,16.6-39.7,32.9-38.3
			C877.2,50.7,888.8,70.1,886.8,92.7z"/>
		<path class="st6" d="M858.2,80.2c-14.9,14.6-35.9,17.4-46.8,6.2c-10.9-11.2-7.7-32.1,7.3-46.7c14.9-14.6,35.9-17.4,46.8-6.2
			C876.4,44.7,873.1,65.6,858.2,80.2z"/>
	</g>
</g>
<g>
	<g>
		<path class="st0" d="M1641.5,766.9c0,0,2,15.1,0,24.1c8.1,0.4,15.6-5.7,15.6-5.7s-2.2-16.9,0-21
			C1659.2,760.1,1641.5,766.9,1641.5,766.9z"/>
		<g>
			<path class="st16" d="M1638.8,784.2c-4.2-0.3,5.9,37,6.1,48.2c16.7-1.5,96.7-14.2,105.2-13.8c0.7-18-18.9-16-38.4-16.9
				c-19.5-0.9-36.8,4.8-52.6-20.4C1653.3,783.3,1642.3,784.4,1638.8,784.2z"/>
			<path class="st6" d="M1677.9,805c0,0,0-9.4,7.5-9C1683.8,797.8,1679.8,801.3,1677.9,805z"/>
			<path class="st6" d="M1686.2,805c-3.6-2,4.3-10.5,7.8-7.9C1689,800,1688.2,806.1,1686.2,805z"/>
			<path class="st6" d="M1693.2,805.2c0,0,2-10.1,7.9-8.5c-0.7,2.3-3.9,4-7.9,9.3"/>
		</g>
	</g>
	<g>
		<path class="st0" d="M1463.4,707.7c0,0-10.4,11.2-18.6,15.4c4.8,6.5,14.3,8.3,14.3,8.3s11.6-12.5,16.2-13.4
			C1480,717,1463.4,707.7,1463.4,707.7z"/>
		<g>
			<path class="st16" d="M1448.4,716.7c-2.5-3.4-24.8,28.2-33.2,35.5c11.8,11.9,72.7,65.4,77.8,72.2c14.3-11,0.3-24.7-11.5-40.3
				c-11.8-15.6-27.2-25.3-17.9-53.5C1458.3,727.3,1450.5,719.6,1448.4,716.7z"/>
			<path class="st6" d="M1457.3,760c0,0,7.3-6,11.7,0C1466.6,760,1461.4,759.2,1457.3,760z"/>
			<path class="st6" d="M1462.6,766.5c-0.8-4,10.8-3.4,11.1,1C1468.3,765.4,1463,768.7,1462.6,766.5z"/>
			<path class="st6" d="M1467,771.9c0,0,9-4.9,11.6,0.6c-2.2,0.9-5.6-0.5-12.2-0.2"/>
		</g>
	</g>
	<path class="st20" d="M1597.3,185.6c8.7-5.2,12.9-16.4,15.5-35.5c13.7,1.6,23.4,3,26.6,0c4.4-2.2,30.4-51.9,2.6-99.2
		c-18.4-25.1-22.8,0-22.8,0l-49.1,18.4l-5.6,44.7l2.9,14.3c1.2,14.3-8.2,26.9-8.2,26.9L1597.3,185.6z"/>
	<g>
		<g>
			<path class="st2" d="M1706.1,404.9c-0.3-0.3-0.9-1-1.8-2.2c-10.9-14.4-64.2-92.3-77.8-114.2l-20.4,13.8c0,0,16.4,58.8,19.9,58.8
				c3.3,0,46.9,41.1,63.8,58.1c1.1,1.1,2.2,2.2,3,3.1C1691.7,408.9,1706.1,404.9,1706.1,404.9z"/>
		</g>
	</g>
	<path class="st1" d="M1639.4,250.8c0-57.3-57-93-83.6-100.6c-38.3-6.4-153.2,173.3-186.5,216.6c0,0-3.2-1.2-5.6,5.3
		c9.1-4.1,19.9,10.2,16.4,17.5c2.3-0.3,6.1-1.8,5.8-8.5c25.4-15.2,88-79.8,126.9-119.3c0,0,0.6,44.4,0,60.5c0,0-25.9,27.7-28.6,75.1
		c4.1,3.9,8.4,7.8,13.2,11.5c2,1.6,4,3.1,6.1,4.6c27.7,19.6,66.4,32.9,122.1,18.4c12.9-26,8.5-137.7-0.3-167.2
		C1629.5,268.3,1639.4,258.6,1639.4,250.8z"/>
	<path class="st9" d="M1661.4,622.3c1-42.7-18.2-75.1-35.7-190.3c-55.7,14.5-94.5,1.2-122.1-18.4c-2.1-1.5-4.2-3-6.1-4.6
		c-4.7-3.7-9.1-7.6-13.2-11.5c0,0.1,0,0.2,0,0.3c-1.3,4.6-2,10-2.2,16c-1.4,36.2,17.1,95.1,59,155.3c-36.2,43-79.5,96.2-85.9,138.3
		l20.5,17.5c16.4-17.5,85.4-76.6,128.3-117.2l3.5,2c-11.7,52,0.6,109.9,25.4,165.7c12.9-2.6,28.6-5.8,28.6-5.8
		C1661.9,751.8,1660.5,658.8,1661.4,622.3z"/>
	<path class="st6" d="M1661.4,622.3c1-42.7-18.2-75.1-35.7-190.3c-55.7,14.5-94.5,1.2-122.1-18.4c-12.2,67.6,55.7,131.5,100.2,194.1
		l3.5,2c-11.7,52,0.6,109.9,25.4,165.7c12.9-2.6,28.6-5.8,28.6-5.8C1661.9,751.8,1660.5,658.8,1661.4,622.3z"/>
	<path class="st2" d="M1512.9,322.4c0,0-25.9,27.7-28.6,75.1c4.1,3.9,8.4,7.8,13.2,11.5c0.6-37.7,7.3-60.2,26.6-86.6
		c-2.9-1.8-6.1-26-5.3-57c8.5-3.2,27.5-24,34.5-47.6c-4.1,7.3-26.9,31-40.3,44.1C1512.9,261.9,1513.4,306.3,1512.9,322.4z"/>
	<path class="st6" d="M1567.5,128.3c-14.9-13.2-29.2-46.2-26.9-58.2l-4.4,4.4c3.2,19.9-12.6,38-20.5,47.6
		c-13.7-16.7-26-42.1-14.2-52c-4.5-8.8-8-37.7,20.3-37.7c11.1,0,19.3,11.4,19.3,11.4c26.9-26.6,48.8-27.2,57-27.2s25.4,2,45.3,31
		c-5.8,30.1-40,43.8-40,43.8c0.9-8.5-6.1-12-9.1-12c-2.9,0-13.2,6.1-4.4,19C1570.4,109.9,1567.5,128.3,1567.5,128.3z"/>
	<path class="st20" d="M1704,404.4c3.8,5,14.8,11.1,20.3,6.3c5.6-4.8,10.7-7.6,12.4-4.4c1.8,3.2-11,9.5-11,11.4s17.8,12,7.9,13.6
		c1,3.1-2.6,6.7-6.4,4.5c1,3.8-1.2,5.6-5,3.5c1.3,6.9-3.9,7.5-7.5,2c-3.5-5.4-23.2-20.3-22.8-23.5
		C1692.5,414.6,1695.1,406.1,1704,404.4z"/>
	<path class="st21" d="M1689.9,419.2c1.1,1.1,2.2,2.2,3,3.1c-1.3-13.4,13.2-17.3,13.2-17.3c-0.3-0.3-0.9-1-1.8-2.2
		C1693.2,404.9,1690.5,413.6,1689.9,419.2z"/>
	<path class="st20" d="M1368.5,369.6c-10.5,9.4-14.9,10.8-22.5,16.5c-7.6,5.7-18.4,15.5-16.8,21.3c3.7-0.9,6.3,1.6,1.6,4.5
		c-4.7,2.9-7.9,9.1-0.4,9.9c-2,3.5,0.1,7.6,6.4,4.7c8.5-1-33.2,39.8-38.6,40.8c-5.4,1-31.7-16.7-43.3-25.9l-3.8,2.5
		c0,0-0.7,28.4,8.5,32.6c9.2,4.2,20.3,6.1,32.9,11.7c12.6,5.6,17.4,4.1,23.5-3.5c6.1-7.6,26.6-34.6,38-50.1c13-10.2,8.9-18,13.2-21
		c4.2-3.1,7.5-10.8,9.8-16.1c2.3-5.2,1.2-7.5,5-10.8S1376.8,371.6,1368.5,369.6z M1352.1,421.5c0,0-3.5-3.2,3.2-5.6
		C1362,413.6,1358.1,418.4,1352.1,421.5z"/>
	<path class="st21" d="M1369.3,366.8c0,0-3.2-1.2-5.6,5.3c9.1-4.1,19.9,10.2,16.4,17.5c2.3-0.3,6.1-1.8,5.8-8.5
		C1381.8,370,1375.3,369,1369.3,366.8z"/>
	<path class="st20" d="M1233.1,429.5c0,0-2.2-10.1-1.5-16.7c16-6.1,29.2-36.4,5.3-68l-23.9,2.6l-25.6,16.4l-5.5,30l11,14.7l17.3,7.9
		c0,0,2.8,9.4,1.3,12.9S1233.1,429.5,1233.1,429.5z"/>
	<path class="st6" d="M1210.9,421.4c1.5-2.4,4.4-12.5-3.1-17.1c-7.5-4.6-17.1-11.4-11.2-14.7c5.5,0,7.7-3.6,6.1-11.4
		c-1.5-7.9,4.6-19.9,14.7-22.5c10.1-2.6,22.1-3.9,22.1-11c0-7-8.5-24.1-30.3-24.1c-21.7,0-47.4,21.5-42.1,59
		c-14.9,4.8-18.2,27.4-9.6,51.1c8.5,23.7,4.4,36.2-6.6,45.8c-7.5,5.7-10.5,10-10.5,15.2s4.8,13.1,18,13.1
		c13.2,0,26.3-10.5,25.2-28.5c-1.1-18,0.9-24.8-7.7-41.7c-8.5-16.9-7.9-31.8-4.2-38.4C1178,412.6,1191.8,421.4,1210.9,421.4z"/>
	<g>
		<path class="st6" d="M1305.6,712.1c6.1,14.7,8.3,30.5,15.6,32.9s25.6-2.4,28.1,1.8c2.4,4.2-9.4,7.4-20.8,13.3
			c-11.4,6-22.4,17.4-25.4-5.9c-4.8-12.1-17.3-26.5-15.6-29.6S1303,716.5,1305.6,712.1z"/>
		<path class="st0" d="M1287.3,657.5c2.4,15.8,13.8,49.1,16.6,55.9c-5.3,5.3-16.4,11.2-16.4,11.2c-3.7-14.9-23-52.6-21-60.7
			S1287.3,657.5,1287.3,657.5z"/>
		<path class="st9" d="M1284.6,726.3c0.6,1.8,6.6-1.1,12.5-5c5.9-3.9,11.4-8.3,10.6-10.7C1306.9,708.1,1282.8,720.8,1284.6,726.3z"
			/>
	</g>
	<g>
		<path class="st6" d="M1148.7,710c-11.9,10.6-26.1,17.9-26,25.5c0.1,7.6,10.7,23.4,7.5,27.1s-10.1-6.5-19.4-15.3
			c-9.4-8.8-23.7-15.4-2.8-26c9.8-8.5,19.4-25.1,22.9-24.4C1134.4,697.6,1143.7,709,1148.7,710z"/>
		<path class="st0" d="M1194.3,674.8c-14.1,7.4-41.9,29.1-47.4,34c-6.7-3.2-16-11.9-16-11.9c12.9-8.4,42.2-39,50.5-39.8
			C1189.7,656.4,1194.3,674.8,1194.3,674.8z"/>
		<path class="st9" d="M1128.3,694.8c-1.5,1.1,3.2,5.9,8.9,10.2c5.7,4.3,11.6,8.1,13.6,6.5C1152.9,710,1132.9,691.4,1128.3,694.8z"
			/>
	</g>
	<path class="st1" d="M1306.6,637.4c-0.1-0.7-0.3-1.3-0.4-2c-11.4-45-17.5-62.6-25.7-86.2c-8.2-23.7-2.3-41.8-6.7-54.1
		c-4.4-12.3-7.9-24.3-9.6-34.8c-1.8-10.5-13.7-37.7-20.2-35.7c-6.4,2-17.5,0.9-28.1,0c-30.2,0.6-25.7,24.8-25.7,49.7
		c0,33.2-11.6,51.2-18.9,59c-7.3,7.9-7,28.1-8.5,36.8c-1.5,8.8-7,24.3-22.1,40.9c-14.5,16-11.2,35.4-4.8,48.6
		c0.3,0.6,0.6,1.1,0.8,1.7c-5.1-1.2-5.7,1.8,0.1,5.8c-1.2,3.5,7,6.4,9.9,4.7c2.9-1.8,7-2,11.7,0.3c4.7,2.3,16.4,2.6,17.5,0.6
		c1.2-2,9.1-0.3,12.9,2.3c3.8,2.6,9.4,0,12-1.2c2.6-1.2,5.6,3.5,10.2,3.5s9.1-4.1,12-4.7c2.9-0.6,8.2,3.2,12.6,2.6
		c4.4-0.6,7.9-4.1,13.4-2.9c5.5,1.2,12.9,0.9,16.4-2.6c3.8,1.8,8.5,1.5,11.4-4.1c4.7,4.4,8.2,2.3,10.8-2c6.4,2.6,7.6-5.6,12.3-8.5
		C1304.3,652.5,1310.1,654.8,1306.6,637.4z"/>
	<path class="st22" d="M1287.3,653.1c-8.3,2-10.6,0.9-15.8,4.2c-5.3,3.3-9.4,6.3-18.9,4.8c-9.4-1.5-13.8,5.3-19.9,5.5
		c-6.1,0.2-15.3-0.9-27.9,1.1c-12.5,2-21-2.4-30.6-4.2c-9.6-1.8-14.9,2.6-28.5-2.6c-3.8-1.5-7-2.1-9.9-2.1c0.3,0.6,0.6,1.1,0.8,1.7
		c-5.1-1.2-5.7,1.8,0.1,5.8c-1.2,3.5,7,6.4,9.9,4.7c2.9-1.8,7-2,11.7,0.3c4.7,2.3,16.4,2.6,17.5,0.6c1.2-2,9.1-0.3,12.9,2.3
		c3.8,2.6,9.4,0,12-1.2c2.6-1.2,5.6,3.5,10.2,3.5s9.1-4.1,12-4.7c2.9-0.6,8.2,3.2,12.6,2.6c4.4-0.6,7.9-4.1,13.4-2.9
		c5.5,1.2,12.9,0.9,16.4-2.6c3.8,1.8,8.5,1.5,11.4-4.1c4.7,4.4,8.2,2.3,10.8-2c6.4,2.6,7.6-5.6,12.3-8.5c4.5-2.8,10.4-0.5,6.9-17.8
		C1297.7,644.2,1293.1,651.7,1287.3,653.1z"/>
	<path class="st9" d="M1324.9,140.8c0-19-6.7-57.9-57.9-57.9c-19,0-50.6,14-50.6,58.2c0,23.8,15.3,87.3,49.8,88.8
		c0.2,6-4.8,12.6-4.8,12.6s7.6,0,11.1,0c-0.5-3-2.4-8.6-3.9-12.6C1285.2,228.3,1324.9,200.9,1324.9,140.8z"/>
	<path class="st6" d="M1269.4,91.2c25.4,2.6,45,15.2,40.6,50.6s-24.8,67.8-46.2,65.2s-46.5-45-39.8-81.8
		C1230.8,88.2,1269.4,91.2,1269.4,91.2z"/>
	<path class="st23" d="M1234.3,111.6c3.6-8.3,23.4-18.7,19.3-10.8c-4.1,7.9-14.9,17.2-16.1,24.8
		C1236.3,133.2,1226.4,130,1234.3,111.6z"/>
	<g>
		<path class="st9" d="M1264.9,582.9l-2.5-0.8c3.8-12.7,2.4-49.4,1.3-76.2c-0.3-8.2-0.6-15.2-0.7-20.7c-0.1-2.9-0.1-6.2-0.2-9.7
			c-0.6-27.1-1.5-68,2.4-83.6c4.4-17.8,2.5-67.2,0.2-89.9l-0.3-2.5c-2.3-22.2-4.1-39.7,2.3-59.9l2.5,0.8c-6.3,19.6-4.6,36-2.2,58.8
			l0.3,2.5c2.4,22.8,4.3,72.7-0.2,90.8c-3.8,15.3-2.9,57.6-2.4,82.9c0.1,3.6,0.1,6.8,0.2,9.7c0.1,5.5,0.4,12.5,0.7,20.7
			C1267.4,532.8,1268.9,569.8,1264.9,582.9z"/>
	</g>
	<path class="st20" d="M1219.1,446.6c8.5,0,12.3,6.7,13.7,40.6c1.5,33.9,2,28.4,11.1,43c9.1,14.6,16.1,24.6,19.6,37.4
		c5.8,7.3,9.9,12.9,5.8,14c4.4,6.4,0.9,13.2-2.6,13.2c-3.5,0-7.9-5-10.8-11.7c-2.9-6.7-19-27.8-29.2-39.8s-21.6-27.2-21.9-49.7
		C1204.5,471.1,1205.1,446.6,1219.1,446.6z"/>
</g>
</svg>
