<?xml version="1.0" encoding="utf-8"?>
<!-- Generator: Adobe Illustrator 17.0.0, SVG Export Plug-In . SVG Version: 6.00 Build 0)  -->
<!DOCTYPE svg PUBLIC "-//W3C//DTD SVG 1.1//EN" "http://www.w3.org/Graphics/SVG/1.1/DTD/svg11.dtd">
<svg version="1.1" id="Layer_1" xmlns="http://www.w3.org/2000/svg" xmlns:xlink="http://www.w3.org/1999/xlink" x="0px" y="0px"
	 width="92px" height="92px" viewBox="27.368 26.091 92 92" enable-background="new 27.368 26.091 92 92" xml:space="preserve">
<g>
	<g opacity="0.3">
		<polygon fill="#EF6563" points="118.368,113.457 118.368,62.722 88.949,84.513 		"/>
		<polygon fill="#EF6563" points="105.426,42.76 91.301,28.635 91.301,42.76 		"/>
		<polygon fill="#EF6563" points="84.659,87.691 73.368,96.053 62.854,88.266 32.164,117.091 114.542,117.091 		"/>
		<polygon fill="#EF6563" points="28.368,62.722 28.368,113.421 58.548,85.076 		"/>
	</g>
	<g>
		
			<polygon fill="none" stroke="#EF6563" stroke-width="2" stroke-linecap="round" stroke-linejoin="round" stroke-miterlimit="10" points="
			73.368,89.491 105.457,65.723 105.457,48.034 86.028,48.034 86.028,27.091 41.303,27.091 41.303,65.74 		"/>
		
			<polygon fill="none" stroke="#EF6563" stroke-width="2" stroke-linecap="round" stroke-linejoin="round" stroke-miterlimit="10" points="
			118.368,113.457 118.368,62.722 88.949,84.513 		"/>
		
			<polygon fill="none" stroke="#EF6563" stroke-width="2" stroke-linecap="round" stroke-linejoin="round" stroke-miterlimit="10" points="
			105.426,42.76 91.301,28.635 91.301,42.76 		"/>
		
			<polygon fill="none" stroke="#EF6563" stroke-width="2" stroke-linecap="round" stroke-linejoin="round" stroke-miterlimit="10" points="
			84.659,87.691 73.368,96.053 62.854,88.266 32.164,117.091 114.542,117.091 		"/>
		
			<polygon fill="none" stroke="#EF6563" stroke-width="2" stroke-linecap="round" stroke-linejoin="round" stroke-miterlimit="10" points="
			28.368,62.722 28.368,113.421 58.548,85.076 		"/>
		
			<polygon fill="none" stroke="#EF6563" stroke-width="2" stroke-linecap="round" stroke-linejoin="round" stroke-miterlimit="10" points="
			36.029,54.279 30.929,58.057 36.029,61.834 		"/>
		
			<polygon fill="none" stroke="#EF6563" stroke-width="2" stroke-linecap="round" stroke-linejoin="round" stroke-miterlimit="10" points="
			115.799,58.063 110.73,54.351 110.73,61.817 		"/>
	</g>
</g>
</svg>
