<?xml version="1.0" encoding="utf-8"?>
<!-- Generator: Adobe Illustrator 17.0.0, SVG Export Plug-In . SVG Version: 6.00 Build 0)  -->
<!DOCTYPE svg PUBLIC "-//W3C//DTD SVG 1.1//EN" "http://www.w3.org/Graphics/SVG/1.1/DTD/svg11.dtd">
<svg version="1.1" id="Layer_1" xmlns="http://www.w3.org/2000/svg" xmlns:xlink="http://www.w3.org/1999/xlink" x="0px" y="0px"
	 width="500px" height="500px" viewBox="0 0 500 500" enable-background="new 0 0 500 500" xml:space="preserve">
<path fill="#093C5B" d="M421.627,69.078C383.163,30.615,332.012,9.413,277.609,9.413H264.08v217.202h217.212v-13.519
	C481.292,158.683,460.101,107.542,421.627,69.078 M313.292,110.609c0-7.477,6.051-13.529,13.519-13.529
	c7.467,0,13.529,6.051,13.529,13.529c0,7.447-6.062,13.519-13.529,13.519C319.344,124.127,313.292,118.056,313.292,110.609
	 M317.549,161.351l57.449-67.368l20.575,17.539l-57.44,67.379L317.549,161.351z M386.322,178.818
	c-7.477,0-13.519-6.051-13.519-13.519c0-7.477,6.042-13.529,13.519-13.529c7.467,0,13.519,6.051,13.519,13.529
	C399.841,172.767,393.79,178.818,386.322,178.818"/>
<path fill="#093C5B" d="M223.402,62.726c-54.403,0-105.555,21.192-144.018,59.655C40.909,160.845,19.728,212.017,19.728,266.4
	c0,54.414,21.181,105.555,59.655,144.04c0.421,0.42,0.851,0.82,1.272,1.241l156.266-176.934V62.726H223.402z"/>
<path fill="#093C5B" d="M257.008,252.881L101.142,429.353c35.079,26.423,77.564,40.751,122.263,40.751
	c54.403,0,105.555-21.201,144.029-59.665c38.464-38.484,59.645-89.626,59.645-144.04V252.88H257.008V252.881z"/>
<path opacity="0.4" fill="#093C5B" d="M436.695,272.19v3.903c0,54.414-21.181,105.556-59.645,144.039
	c-38.474,38.464-89.626,59.665-144.029,59.665c-40.051,0-78.319-11.511-111.08-32.91l-1.568,1.775
	c35.079,26.423,77.564,40.751,122.263,40.751c54.403,0,105.555-21.201,144.029-59.665c38.464-38.484,59.645-89.626,59.645-144.039
	V272.19H436.695z"/>
</svg>
