<?xml version="1.0" encoding="utf-8"?>
<!-- Generator: Adobe Illustrator 17.0.0, SVG Export Plug-In . SVG Version: 6.00 Build 0)  -->
<!DOCTYPE svg PUBLIC "-//W3C//DTD SVG 1.1//EN" "http://www.w3.org/Graphics/SVG/1.1/DTD/svg11.dtd">
<svg version="1.1" id="Layer_1" xmlns="http://www.w3.org/2000/svg" xmlns:xlink="http://www.w3.org/1999/xlink" x="0px" y="0px"
	 width="92px" height="85.804px" viewBox="27.369 29.234 92 85.804" enable-background="new 27.369 29.234 92 85.804"
	 xml:space="preserve">
<g>
	<g opacity="0.3">
		<path fill="#EF6563" d="M106.171,92.714h-4.508c-0.604-0.863-1.598-1.442-2.733-1.442c-0.02,0-0.04,0.007-0.06,0.007l-4.104-5.786
			c-0.605-0.838-1.774-1.039-2.619-0.442c-0.843,0.604-1.046,1.779-0.441,2.624l4.11,5.788c-0.123,0.356-0.208,0.733-0.208,1.136
			c0,1.832,1.481,3.319,3.32,3.319c1.136,0,2.137-0.572,2.733-1.442h4.508c1.039,0,1.877-0.838,1.877-1.877
			C108.048,93.559,107.21,92.714,106.171,92.714L106.171,92.714z"/>
		<path fill="#EF6563" d="M47.08,55.896c3.404,0,6.157-2.753,6.157-6.15V36.391c0-3.404-2.753-6.157-6.157-6.157
			c-3.397,0-6.15,2.753-6.15,6.157v13.355C40.93,53.142,43.684,55.896,47.08,55.896L47.08,55.896z"/>
		<path fill="#EF6563" d="M84.777,55.896c3.404,0,6.157-2.753,6.157-6.15V36.391c0-3.404-2.753-6.157-6.157-6.157
			c-3.397,0-6.15,2.753-6.15,6.157v13.355C78.627,53.142,81.38,55.896,84.777,55.896L84.777,55.896z"/>
		<path fill="#EF6563" d="M55.421,72.983c0-1.754-1.423-3.176-3.184-3.176h-5.896c-1.754,0-3.182,1.422-3.182,3.176v5.898
			c0,1.761,1.428,3.189,3.182,3.189h5.896c1.761,0,3.184-1.428,3.184-3.189C55.421,78.881,55.421,72.983,55.421,72.983z"/>
		<path fill="#EF6563" d="M72.066,72.99c0-1.754-1.428-3.176-3.182-3.176h-5.898c-1.759,0-3.182,1.422-3.182,3.176v5.898
			c0,1.754,1.423,3.182,3.182,3.182h5.898c1.761,0,3.182-1.428,3.182-3.182V72.99z"/>
		<path fill="#EF6563" d="M79.626,69.807c-1.759,0-3.182,1.422-3.182,3.176v5.898c0,1.591,1.182,2.852,2.709,3.084
			c2.331-3.63,5.638-6.573,9.547-8.475v-0.507c0-1.754-1.422-3.176-3.182-3.176H79.626z"/>
		<path fill="#EF6563" d="M46.341,85.784c-1.754,0-3.182,1.423-3.182,3.182v5.898c0,1.754,1.428,3.176,3.182,3.176h5.903
			c1.754,0,3.177-1.422,3.177-3.176v-5.898c0-1.759-1.423-3.182-3.177-3.182H46.341z"/>
		<path fill="#EF6563" d="M68.877,85.791h-5.891c-1.759,0-3.182,1.423-3.182,3.182v5.891c0,1.754,1.423,3.176,3.182,3.176h5.891
			c1.761,0,3.182-1.422,3.182-3.176v-5.891C72.059,87.214,70.638,85.791,68.877,85.791L68.877,85.791z"/>
	</g>
	<g>
		<path fill="none" stroke="#EF6563" stroke-width="2" stroke-linecap="round" stroke-linejoin="round" stroke-miterlimit="10" d="
			M98.93,75.153c-10.738,0-19.447,8.709-19.447,19.445c0,10.729,8.709,19.44,19.447,19.44c10.736,0,19.439-8.711,19.439-19.44
			C118.368,83.862,109.666,75.153,98.93,75.153L98.93,75.153z"/>
		<path fill="none" stroke="#EF6563" stroke-width="2" stroke-linecap="round" stroke-linejoin="round" stroke-miterlimit="10" d="
			M106.171,92.714h-4.508c-0.604-0.863-1.598-1.442-2.733-1.442c-0.02,0-0.04,0.007-0.06,0.007l-4.104-5.786
			c-0.605-0.838-1.774-1.039-2.619-0.442c-0.843,0.604-1.046,1.779-0.441,2.624l4.11,5.788c-0.123,0.356-0.208,0.733-0.208,1.136
			c0,1.832,1.481,3.319,3.32,3.319c1.136,0,2.137-0.572,2.733-1.442h4.508c1.039,0,1.877-0.838,1.877-1.877
			C108.048,93.559,107.21,92.714,106.171,92.714L106.171,92.714z"/>
		<path fill="none" stroke="#EF6563" stroke-width="2" stroke-linecap="round" stroke-linejoin="round" stroke-miterlimit="10" d="
			M47.08,55.896c3.404,0,6.157-2.753,6.157-6.15V36.391c0-3.404-2.753-6.157-6.157-6.157c-3.397,0-6.15,2.753-6.15,6.157v13.355
			C40.93,53.142,43.684,55.896,47.08,55.896L47.08,55.896z"/>
		<path fill="none" stroke="#EF6563" stroke-width="2" stroke-linecap="round" stroke-linejoin="round" stroke-miterlimit="10" d="
			M84.777,55.896c3.404,0,6.157-2.753,6.157-6.15V36.391c0-3.404-2.753-6.157-6.157-6.157c-3.397,0-6.15,2.753-6.15,6.157v13.355
			C78.627,53.142,81.38,55.896,84.777,55.896L84.777,55.896z"/>
		<path fill="none" stroke="#EF6563" stroke-width="2" stroke-linecap="round" stroke-linejoin="round" stroke-miterlimit="10" d="
			M55.421,72.983c0-1.754-1.423-3.176-3.184-3.176h-5.896c-1.754,0-3.182,1.422-3.182,3.176v5.898c0,1.761,1.428,3.189,3.182,3.189
			h5.896c1.761,0,3.184-1.428,3.184-3.189C55.421,78.881,55.421,72.983,55.421,72.983z"/>
		<path fill="none" stroke="#EF6563" stroke-width="2" stroke-linecap="round" stroke-linejoin="round" stroke-miterlimit="10" d="
			M72.066,72.99c0-1.754-1.428-3.176-3.182-3.176h-5.898c-1.759,0-3.182,1.422-3.182,3.176v5.898c0,1.754,1.423,3.182,3.182,3.182
			h5.898c1.761,0,3.182-1.428,3.182-3.182V72.99z"/>
		<path fill="none" stroke="#EF6563" stroke-width="2" stroke-linecap="round" stroke-linejoin="round" stroke-miterlimit="10" d="
			M79.626,69.807c-1.759,0-3.182,1.422-3.182,3.176v5.898c0,1.591,1.182,2.852,2.709,3.084c2.331-3.63,5.638-6.573,9.547-8.475
			v-0.507c0-1.754-1.422-3.176-3.182-3.176H79.626z"/>
		<path fill="none" stroke="#EF6563" stroke-width="2" stroke-linecap="round" stroke-linejoin="round" stroke-miterlimit="10" d="
			M46.341,85.784c-1.754,0-3.182,1.423-3.182,3.182v5.898c0,1.754,1.428,3.176,3.182,3.176h5.903c1.754,0,3.177-1.422,3.177-3.176
			v-5.898c0-1.759-1.423-3.182-3.177-3.182H46.341z"/>
		<path fill="none" stroke="#EF6563" stroke-width="2" stroke-linecap="round" stroke-linejoin="round" stroke-miterlimit="10" d="
			M68.877,85.791h-5.891c-1.759,0-3.182,1.423-3.182,3.182v5.891c0,1.754,1.423,3.176,3.182,3.176h5.891
			c1.761,0,3.182-1.422,3.182-3.176v-5.891C72.059,87.214,70.638,85.791,68.877,85.791L68.877,85.791z"/>
		<path fill="none" stroke="#EF6563" stroke-width="2" stroke-linecap="round" stroke-linejoin="round" stroke-miterlimit="10" d="
			M77.476,104.134H47.554c-5.151,0-9.339-4.19-9.339-9.334V63.546h55.434v8.177c1.701-0.389,3.462-0.624,5.281-0.624
			c1.558,0,3.084,0.163,4.566,0.462V42.165h-8.872v7.58c0,5.429-4.411,9.845-9.847,9.845c-5.43,0-9.846-4.416-9.846-9.845v-7.58
			H56.927v7.58c0,5.429-4.416,9.845-9.847,9.845c-5.43,0-9.846-4.416-9.846-9.845v-7.58h-8.865v52.628
			c0,10.593,8.593,19.192,19.186,19.192h36.749c0.434,0,0.87-0.038,1.299-0.065C82.068,111.478,79.25,108.094,77.476,104.134
			L77.476,104.134z"/>
	</g>
</g>
</svg>
