<?xml version="1.0" encoding="utf-8"?>
<!-- Generator: Adobe Illustrator 17.0.0, SVG Export Plug-In . SVG Version: 6.00 Build 0)  -->
<!DOCTYPE svg PUBLIC "-//W3C//DTD SVG 1.1//EN" "http://www.w3.org/Graphics/SVG/1.1/DTD/svg11.dtd">
<svg version="1.1" id="Layer_1" xmlns="http://www.w3.org/2000/svg" xmlns:xlink="http://www.w3.org/1999/xlink" x="0px" y="0px"
	 width="500px" height="500px" viewBox="0 0 500 500" enable-background="new 0 0 500 500" xml:space="preserve">
<path fill="#093C5B" d="M340.763,9.765h-201.59c-23.767,0-43.202,19.446-43.202,43.202v374.396
	c0,23.756,19.435,43.202,43.202,43.202h201.59c23.756,0,43.202-19.446,43.202-43.202V52.966
	C383.964,29.211,364.518,9.765,340.763,9.765 M182.363,31.371H297.56v14.397H182.363V31.371z M239.962,441.76
	c-15.902,0-28.794-12.892-28.794-28.805c0-15.902,12.892-28.805,28.794-28.805c15.913,0,28.805,12.901,28.805,28.805
	C268.767,428.868,255.875,441.76,239.962,441.76 M355.159,355.357H124.765V67.363H355.16L355.159,355.357L355.159,355.357z"/>
<path opacity="0.4" fill="#093C5B" d="M393.565,436.964c0,23.756-19.446,43.202-43.202,43.202h-201.59
	c-9.445,0-18.2-3.079-25.329-8.272c7.871,10.807,20.61,17.872,34.929,17.872h201.59c23.756,0,43.202-19.446,43.202-43.202
	L393.565,436.964z"/>
</svg>
