<?xml version="1.0" encoding="utf-8"?>
<!-- Generator: Adobe Illustrator 23.0.2, SVG Export Plug-In . SVG Version: 6.00 Build 0)  -->
<svg version="1.1" id="Layer_1" xmlns="http://www.w3.org/2000/svg" xmlns:xlink="http://www.w3.org/1999/xlink" x="0px" y="0px"
	 viewBox="0 0 500 500" style="enable-background:new 0 0 500 500;" xml:space="preserve">
<style type="text/css">
	.st0{fill:#F17E7D;}
	.st1{fill:none;stroke:#093C5B;stroke-width:5;stroke-linejoin:round;stroke-miterlimit:10;}
</style>
<g>
	<g>
		<g>
			<path class="st0" d="M420.6,190.8h-37.2c-17.2,0-31.2-14-31.2-31.2v-32.9c0-17.2,14-31.2,31.2-31.2h37.2
				c17.2,0,31.2,14,31.2,31.2v32.9C451.8,176.8,437.8,190.8,420.6,190.8z M383.4,116.2c-5.8,0-10.4,4.7-10.4,10.4v32.9
				c0,5.8,4.7,10.4,10.4,10.4h37.2c5.8,0,10.4-4.7,10.4-10.4v-32.9c0-5.8-4.7-10.4-10.4-10.4H383.4z"/>
		</g>
		<g>
			<path class="st0" d="M420.6,321h-99.7c-17.2,0-31.2-14-31.2-31.2v-32.9c0-17.2,14-31.2,31.2-31.2h99.7c17.2,0,31.2,14,31.2,31.2
				v32.9C451.8,307,437.8,321,420.6,321z M320.9,246.4c-5.8,0-10.4,4.7-10.4,10.4v32.9c0,5.8,4.7,10.4,10.4,10.4h99.7
				c5.8,0,10.4-4.7,10.4-10.4v-32.9c0-5.8-4.7-10.4-10.4-10.4H320.9z"/>
		</g>
		<g>
			<path class="st0" d="M420.6,451.7H244.7c-17.2,0-31.2-14-31.2-31.2v-32.9c0-17.2,14-31.2,31.2-31.2h175.9
				c17.2,0,31.2,14,31.2,31.2v32.9C451.8,437.7,437.8,451.7,420.6,451.7z M244.7,377.1c-5.8,0-10.4,4.7-10.4,10.4v32.9
				c0,5.8,4.7,10.4,10.4,10.4h175.9c5.8,0,10.4-4.7,10.4-10.4v-32.9c0-5.8-4.7-10.4-10.4-10.4H244.7z"/>
		</g>
		<g>
			<g>
				<path class="st0" d="M297.8,190.8h-63.1c-9,0-16.2-7.3-16.2-16.2v-11.7c0-13.8,6.1-26.8,16.1-35.8c-3.3-5.6-5.1-12-5.1-18.7
					c0-20.3,16.5-36.8,36.8-36.8c20.3,0,36.8,16.5,36.8,36.8c0,6.7-1.8,13.1-5.1,18.7c10.1,9,16.1,22,16.1,35.8v11.7
					C314,183.5,306.7,190.8,297.8,190.8z M239.1,170h54.1v-7.2c0-10.3-6-19.9-15.3-24.4c-3.2-1.6-5.4-4.7-5.8-8.2
					c-0.4-3.6,1.1-7.1,3.9-9.3c3.9-3.1,6.2-7.7,6.2-12.6c0-8.8-7.2-16-16-16c-8.8,0-16,7.2-16,16c0,4.9,2.2,9.5,6.2,12.6
					c2.8,2.2,4.3,5.7,3.9,9.3c-0.4,3.6-2.6,6.7-5.8,8.2c-9.3,4.5-15.3,14.1-15.3,24.4V170z"/>
			</g>
			<g>
				<path class="st0" d="M224.4,321h-63.1c-9,0-16.2-7.3-16.2-16.2V293c0-13.8,6.1-26.8,16.1-35.8c-3.3-5.6-5.1-12-5.1-18.7
					c0-20.3,16.5-36.8,36.8-36.8s36.8,16.5,36.8,36.8c0,6.7-1.8,13.1-5.1,18.7c10.1,9,16.1,22,16.1,35.8v11.7
					C240.6,313.7,233.4,321,224.4,321z M165.8,300.2h54.1V293c0-10.3-6-19.9-15.3-24.4c-3.2-1.6-5.4-4.7-5.8-8.2
					c-0.4-3.6,1.1-7.1,3.9-9.3c3.9-3.1,6.2-7.7,6.2-12.6c0-8.8-7.2-16-16-16c-8.8,0-16,7.2-16,16c0,4.9,2.2,9.5,6.2,12.6
					c2.8,2.2,4.3,5.7,3.9,9.3c-0.4,3.6-2.6,6.7-5.8,8.2c-9.3,4.5-15.3,14.1-15.3,24.4V300.2z"/>
			</g>
			<g>
				<path class="st0" d="M151,451.7H87.9c-9,0-16.2-7.3-16.2-16.2v-11.7c0-13.8,6.1-26.8,16.1-35.8c-3.3-5.6-5.1-12-5.1-18.7
					c0-20.3,16.5-36.8,36.8-36.8s36.8,16.5,36.8,36.8c0,6.7-1.8,13.1-5.1,18.7c10.1,9,16.1,22,16.1,35.8v11.7
					C167.3,444.4,160,451.7,151,451.7z M92.4,430.9h54.1v-7.2c0-10.3-6-19.9-15.3-24.4c-3.2-1.6-5.4-4.7-5.8-8.2
					c-0.4-3.6,1.1-7.1,3.9-9.3c3.9-3.1,6.2-7.7,6.2-12.6c0-8.8-7.2-16-16-16s-16,7.2-16,16c0,4.9,2.2,9.5,6.2,12.6
					c2.8,2.2,4.3,5.7,3.9,9.3c-0.4,3.6-2.6,6.7-5.8,8.2c-9.3,4.5-15.3,14.1-15.3,24.4V430.9z"/>
			</g>
		</g>
	</g>
</g>
<g>
	<g>
		<path class="st1" d="M400.7,170.9h-37.2c-17.2,0-31.2-14-31.2-31.2v-32.9c0-17.2,14-31.2,31.2-31.2h37.2c17.2,0,31.2,14,31.2,31.2
			v32.9C431.9,156.9,417.9,170.9,400.7,170.9z"/>
	</g>
	<g>
		<path class="st1" d="M400.7,301.1H301c-17.2,0-31.2-14-31.2-31.2v-32.9c0-17.2,14-31.2,31.2-31.2h99.7c17.2,0,31.2,14,31.2,31.2
			v32.9C431.9,287.1,417.9,301.1,400.7,301.1z"/>
	</g>
	<g>
		<path class="st1" d="M400.7,431.8H224.8c-17.2,0-31.2-14-31.2-31.2v-32.9c0-17.2,14-31.2,31.2-31.2h175.9
			c17.2,0,31.2,14,31.2,31.2v32.9C431.9,417.8,417.9,431.8,400.7,431.8z"/>
	</g>
	<g>
		<g>
			<path class="st1" d="M277.9,170.9h-63.1c-9,0-16.2-7.3-16.2-16.2v-11.7c0-13.8,6.1-26.8,16.1-35.8c-3.3-5.6-5.1-12-5.1-18.7
				c0-20.3,16.5-36.8,36.8-36.8s36.8,16.5,36.8,36.8c0,6.7-1.8,13.1-5.1,18.7c10.1,9,16.1,22,16.1,35.8v11.7
				C294.1,163.6,286.8,170.9,277.9,170.9z"/>
		</g>
		<g>
			<path class="st1" d="M204.5,301.1h-63.1c-9,0-16.2-7.3-16.2-16.2v-11.7c0-13.8,6.1-26.8,16.1-35.8c-3.3-5.6-5.1-12-5.1-18.7
				c0-20.3,16.5-36.8,36.8-36.8s36.8,16.5,36.8,36.8c0,6.7-1.8,13.1-5.1,18.7c10.1,9,16.1,22,16.1,35.8v11.7
				C220.7,293.8,213.5,301.1,204.5,301.1z"/>
		</g>
		<g>
			<path class="st1" d="M131.1,431.8H68c-9,0-16.2-7.3-16.2-16.2v-11.7c0-13.8,6.1-26.8,16.1-35.8c-3.3-5.6-5.1-12-5.1-18.7
				c0-20.3,16.5-36.8,36.8-36.8s36.8,16.5,36.8,36.8c0,6.7-1.8,13.1-5.1,18.7c10.1,9,16.1,22,16.1,35.8v11.7
				C147.4,424.5,140.1,431.8,131.1,431.8z"/>
		</g>
	</g>
</g>
</svg>
