<?xml version="1.0" encoding="utf-8"?>
<!-- Generator: Adobe Illustrator 23.0.2, SVG Export Plug-In . SVG Version: 6.00 Build 0)  -->
<svg version="1.1" id="Layer_1" xmlns="http://www.w3.org/2000/svg" xmlns:xlink="http://www.w3.org/1999/xlink" x="0px" y="0px"
	 viewBox="0 0 463.2 133.2" style="enable-background:new 0 0 463.2 133.2;" xml:space="preserve">
<style type="text/css">
	.st0{fill-rule:evenodd;clip-rule:evenodd;fill:#33475B;}
	.st1{filter:url(#Adobe_OpacityMaskFilter);}
	.st2{fill-rule:evenodd;clip-rule:evenodd;fill:#FFFFFF;}
	.st3{mask:url(#mask-2_1_);fill-rule:evenodd;clip-rule:evenodd;fill:#33475B;}
	.st4{filter:url(#Adobe_OpacityMaskFilter_1_);}
	.st5{mask:url(#mask-4_1_);fill-rule:evenodd;clip-rule:evenodd;fill:#FF7A59;}
</style>
<title>Group 30</title>
<desc>Created with Sketch.</desc>
<g id="Home">
	<g id="Style-Guide---Homepage" transform="translate(-180.000000, -1168.000000)">
		<g id="Group-30" transform="translate(180.000000, 1168.000000)">
			<g transform="translate(111.000000, 121.000000)">
				<g transform="translate(0.000000, 1.048420)">
					<polygon id="Fill-1" class="st0" points="-60.8,-100 -60.8,-62.4 -94.9,-62.4 -94.9,-100 -111,-100 -111,-10.3 -94.9,-10.3 
						-94.9,-46.6 -60.8,-46.6 -60.8,-10.3 -44.7,-10.3 -44.7,-100 					"/>
					<path id="Fill-2" class="st0" d="M7-39.3c0,7.5-6,13.6-13.4,13.6c-7.4,0-13.4-6.1-13.4-13.6v-38.4H-35v38.4
						c0,16,12.9,29.1,28.7,29.1c15.8,0,28.6-13,28.6-29.1v-38.4H7V-39.3z"/>
					<path id="Fill-4" class="st0" d="M120.5-73.8c0-7.9,5.1-10.4,10.8-10.4c4.5,0,10.5,3.5,14.4,7.7l10-12
						c-5-6.9-15.2-11.6-23.5-11.6c-16.6,0-28.6,9.9-28.6,26.2c0,30.4,36.6,20.7,36.6,37.7c0,5.2-5,9.9-10.8,9.9
						c-9.1,0-12-4.5-16.2-9.2l-11.1,11.7c7.1,8.9,15.9,13.4,26.4,13.4c15.8,0,28.5-10,28.5-25.6C157-69.6,120.5-59.1,120.5-73.8"/>
					<path id="Fill-6" class="st0" d="M346.8-24.6c-9,0-11.6-4-11.6-10.1v-26.9h14.1v-13.7h-14.1v-18l-15.5,7.1v54.9
						c0,14,9.5,21.1,22.6,21.1c2,0,4.7-0.1,6.1-0.5l3.8-14.2C350.5-24.7,348.5-24.6,346.8-24.6"/>
					<path id="Fill-8" class="st0" d="M65.2-25.9c-9.6,0-17.4-7.9-17.4-17.7s7.8-17.7,17.4-17.7s17.4,7.9,17.4,17.7
						S74.8-25.9,65.2-25.9 M65.3-77.3c-7.6,0-12.9,2.2-18,7.3v-29.5H31.9v54.7c0,20.5,14.6,34.5,31,34.5c18.2,0,34.2-14.3,34.2-33.5
						C97.1-62.7,82.4-77.3,65.3-77.3"/>
					<g id="Group-12" transform="translate(277.614795, 45.510850)">
						<g id="Clip-11">
						</g>
						<defs>
							<filter id="Adobe_OpacityMaskFilter" filterUnits="userSpaceOnUse" x="-111" y="-123.6" width="65.2" height="89.2">
								<feColorMatrix  type="matrix" values="1 0 0 0 0  0 1 0 0 0  0 0 1 0 0  0 0 0 1 0"/>
							</filter>
						</defs>
						<mask maskUnits="userSpaceOnUse" x="-111" y="-123.6" width="65.2" height="89.2" id="mask-2_1_">
							<g class="st1">
								<polygon id="path-1_1_" class="st2" points="-45.8,-34.3 -111,-34.3 -111,-123.6 -45.8,-123.6 								"/>
							</g>
						</mask>
						<path id="Fill-10" class="st3" d="M-77.7-72.6c-9.6,0-17.4-7.9-17.4-17.7s7.8-17.7,17.4-17.7c9.6,0,17.4,7.9,17.4,17.7
							S-68.1-72.6-77.7-72.6 M-45.8-90.1c0-19.2-16-33.5-34.2-33.5c-16.4,0-31,14-31,34.5v54.7h15.3v-29.5c5.1,5.1,10.4,7.3,18,7.3
							C-60.5-56.5-45.8-71.1-45.8-90.1"/>
					</g>
					<g id="Group-15" transform="translate(295.900800, 1.653425)">
						<g id="Clip-14">
						</g>
						<defs>
							<filter id="Adobe_OpacityMaskFilter_1_" filterUnits="userSpaceOnUse" x="-109.4" y="-123.7" width="123.5" height="131.4">
								<feColorMatrix  type="matrix" values="1 0 0 0 0  0 1 0 0 0  0 0 1 0 0  0 0 0 1 0"/>
							</filter>
						</defs>
						<mask maskUnits="userSpaceOnUse" x="-109.4" y="-123.7" width="123.5" height="131.4" id="mask-4_1_">
							<g class="st4">
								<polygon id="path-3_1_" class="st2" points="-109.4,-123.7 14.1,-123.7 14.1,7.7 -109.4,7.7 								"/>
							</g>
						</mask>
						<path id="Fill-13" class="st5" d="M-19.7-29C-29.2-29-37-36.9-37-46.6c0-9.7,7.8-17.6,17.3-17.6s17.3,7.9,17.3,17.6
							C-2.3-36.9-10.1-29-19.7-29 M-14.5-80.5v-15.6c4-1.9,6.8-6.1,6.8-10.8v-0.4c0-6.6-5.3-12-11.9-12h-0.4
							c-6.5,0-11.9,5.4-11.9,12v0.4c0,4.8,2.8,8.9,6.8,10.9v15.6c-6,0.9-11.5,3.4-16,7.1l-42.3-33.4c0.3-1.1,0.5-2.2,0.5-3.4
							c0-7.5-6-13.6-13.4-13.6c-7.4,0-13.4,6.1-13.4,13.5c0,7.5,6,13.6,13.4,13.6c2.4,0,4.6-0.7,6.6-1.8l41.6,32.9
							c-3.5,5.4-5.6,11.9-5.6,18.9c0,7.3,2.3,14.1,6.1,19.7L-60-14.1c-1-0.3-2-0.5-3.1-0.5c-6.1,0-11,5-11,11.1
							c0,6.2,4.9,11.1,11,11.1c6.1,0,11-5,11-11.1c0-1.1-0.2-2.2-0.5-3.2l12.5-12.7c5.7,4.4,12.8,7,20.5,7
							c18.7,0,33.8-15.4,33.8-34.3C14.1-63.8,1.7-77.9-14.5-80.5"/>
					</g>
				</g>
			</g>
		</g>
	</g>
</g>
</svg>
