<?xml version="1.0" encoding="utf-8"?>
<!-- Generator: Adobe Illustrator 22.0.1, SVG Export Plug-In . SVG Version: 6.00 Build 0)  -->
<svg version="1.1" id="Mobile_x5F_Active_1_" xmlns="http://www.w3.org/2000/svg" xmlns:xlink="http://www.w3.org/1999/xlink"
	 x="0px" y="0px" viewBox="0 0 500 500" style="enable-background:new 0 0 500 500;" xml:space="preserve">
<style type="text/css">
	.st0{fill:#F9DCDE;stroke:#EB6769;stroke-width:8;stroke-linecap:round;stroke-linejoin:round;stroke-miterlimit:10;}
	.st1{fill:#F9DCDE;}
	.st2{fill:#FFFFFF;stroke:#EB6769;stroke-width:8;stroke-linecap:round;stroke-linejoin:round;stroke-miterlimit:10;}
	.st3{fill:#FFFFFF;stroke:#EB6769;stroke-width:8;stroke-miterlimit:10;}
	.st4{fill:none;stroke:#EB6769;stroke-width:8;stroke-linecap:round;stroke-linejoin:round;stroke-miterlimit:10;}
	.st5{fill:#E6E6E6;stroke:#EB6769;stroke-width:8;stroke-linecap:round;stroke-linejoin:round;stroke-miterlimit:10;}
	.st6{fill:#EB6769;stroke:#FFFFFF;stroke-width:8;stroke-miterlimit:10;}
	.st7{fill:#EB6769;}
</style>
<g>
	<rect x="122.7" y="228.4" class="st2" width="242.4" height="79.3"/>
	<path class="st2" d="M365.2,299.1c0,66.9-54.3,121.2-121.2,121.2s-121.2-54.3-121.2-121.2"/>
	<path class="st0" d="M122.7,228.8c0-66.9,54.3-121.2,121.2-121.2s121.2,54.3,121.2,121.2"/>
	<path class="st0" d="M370.1,243.7H116.9c-7.7,0-14-6.3-14-14v-2.6c0-7.7,6.3-14,14-14h253.2c7.7,0,14,6.3,14,14v2.6
		C384.1,237.4,377.8,243.7,370.1,243.7z"/>
	<path class="st0" d="M258.8,87v59.7c0,7.7-6.3,14-14,14h-2.6c-7.7,0-14-6.3-14-14V87c0-7.7,6.3-14,14-14h2.6
		C252.5,73,258.8,79.3,258.8,87z"/>
	<circle class="st6" cx="204" cy="289" r="16"/>
	<circle class="st6" cx="283" cy="289" r="16"/>
	<path class="st2" d="M279.7,342.2c-4.4,15.7-18.8,27.3-35.9,27.3c-17.1,0-31.6-11.6-35.9-27.3"/>
</g>
</svg>
