<?xml version="1.0" encoding="utf-8"?>
<!-- Generator: Adobe Illustrator 22.0.1, SVG Export Plug-In . SVG Version: 6.00 Build 0)  -->
<svg version="1.1" id="Mobile_x5F_Active_1_" xmlns="http://www.w3.org/2000/svg" xmlns:xlink="http://www.w3.org/1999/xlink"
	 x="0px" y="0px" viewBox="0 0 500 500" style="enable-background:new 0 0 500 500;" xml:space="preserve">
<style type="text/css">
	.st0{fill:#F9DCDE;stroke:#EB6769;stroke-width:8;stroke-linecap:round;stroke-linejoin:round;stroke-miterlimit:10;}
	.st1{fill:#F9DCDE;}
	.st2{fill:#FFFFFF;stroke:#EB6769;stroke-width:8;stroke-linecap:round;stroke-linejoin:round;stroke-miterlimit:10;}
	.st3{fill:#FFFFFF;stroke:#EB6769;stroke-width:8;stroke-miterlimit:10;}
	.st4{fill:none;stroke:#EB6769;stroke-width:8;stroke-linecap:round;stroke-linejoin:round;stroke-miterlimit:10;}
	.st5{fill:#E6E6E6;stroke:#EB6769;stroke-width:8;stroke-linecap:round;stroke-linejoin:round;stroke-miterlimit:10;}
	.st6{fill:#EB6769;stroke:#FFFFFF;stroke-width:8;stroke-miterlimit:10;}
	.st7{fill:#EB6769;}
</style>
<g id="XMLID_54_">
	<g id="XMLID_63_">
		<rect id="XMLID_64_" x="60.5" y="149" class="st2" width="372" height="212.6"/>
	</g>
	<path id="XMLID_62_" class="st2" d="M332.9,255.3c0,47.7-38.7,86.4-86.4,86.4s-86.4-38.7-86.4-86.4s38.7-86.4,86.4-86.4
		S332.9,207.6,332.9,255.3"/>
	<path id="XMLID_61_" class="st0" d="M200.6,328.4c-24.3-15.3-40.5-42.3-40.5-73.1s16.2-57.8,40.5-73.1h-67.2
		c0.1,1.1,0.2,2.2,0.2,3.3c0,20.2-16.4,36.5-36.5,36.5c-1.1,0-2.2-0.1-3.3-0.2v66.8c1.1-0.1,2.2-0.2,3.3-0.2
		c20.2,0,36.5,16.4,36.5,36.5c0,1.1-0.1,2.2-0.2,3.3H200.6z"/>
	<path id="XMLID_60_" class="st0" d="M396,222.1c-20.2,0-36.5-16.4-36.5-36.5c0-1.1,0.1-2.2,0.2-3.3h-67.2
		c24.3,15.3,40.5,42.3,40.5,73.1s-16.2,57.8-40.5,73.1h67.2c-0.1-1.1-0.2-2.2-0.2-3.3c0-20.2,16.4-36.5,36.5-36.5
		c1.1,0,2.2,0.1,3.3,0.2v-66.8C398.2,222,397.1,222.1,396,222.1"/>
	<path id="XMLID_59_" class="st7" d="M97,197.2c-6.4,0-11.6-5.2-11.6-11.6c0-6.4,5.2-11.6,11.6-11.6c6.4,0,11.6,5.2,11.6,11.6
		C108.7,191.9,103.4,197.2,97,197.2"/>
	<path id="XMLID_58_" class="st7" d="M396,197.2c-6.4,0-11.6-5.2-11.6-11.6c0-6.4,5.2-11.6,11.6-11.6s11.6,5.2,11.6,11.6
		C407.6,191.9,402.4,197.2,396,197.2"/>
	<path id="XMLID_57_" class="st7" d="M97,336.7c-6.4,0-11.6-5.2-11.6-11.6s5.2-11.6,11.6-11.6c6.4,0,11.6,5.2,11.6,11.6
		S103.4,336.7,97,336.7"/>
	<path id="XMLID_56_" class="st7" d="M396,336.7c-6.4,0-11.6-5.2-11.6-11.6s5.2-11.6,11.6-11.6s11.6,5.2,11.6,11.6
		S402.4,336.7,396,336.7"/>
	<path id="XMLID_55_" class="st0" d="M279.4,265.4c26.3-11.1-6.4-43.4-6.4-43.4c-27.1-23.5-59.8-6.6-59.8-6.6
		c-1.7,5.7,3.3,22.3,8.7,24.2c-5.4,5.9-8.7,13.7-8.7,22.3c0,10.8,11.3,15.4,12.4,18.6c0.6,1.6,0.8,3.3,0.9,4.9
		c0.1,4.9-2.5,9.6-6.1,12.9l-27.2,24.7c14.7,11.5,33.1,18.4,53.2,18.4s38.6-6.9,53.2-18.4l-27-24.5c-4.4-4-7.1-10-6.1-15.9
		c0.1-0.8,0.4-1.7,0.6-2.5C268,278.2,279.2,267.7,279.4,265.4"/>
</g>
</svg>
