<?xml version="1.0" encoding="utf-8"?>
<!-- Generator: Adobe Illustrator 22.0.1, SVG Export Plug-In . SVG Version: 6.00 Build 0)  -->
<svg version="1.1" id="Mobile_x5F_Active_1_" xmlns="http://www.w3.org/2000/svg" xmlns:xlink="http://www.w3.org/1999/xlink"
	 x="0px" y="0px" viewBox="0 0 500 500" style="enable-background:new 0 0 500 500;" xml:space="preserve">
<style type="text/css">
	.st0{fill:#F9DCDE;stroke:#EB6769;stroke-width:8;stroke-linecap:round;stroke-linejoin:round;stroke-miterlimit:10;}
	.st1{fill:#F9DCDE;}
	.st2{fill:#FFFFFF;stroke:#EB6769;stroke-width:8;stroke-linecap:round;stroke-linejoin:round;stroke-miterlimit:10;}
	.st3{fill:#FFFFFF;stroke:#EB6769;stroke-width:8;stroke-miterlimit:10;}
	.st4{fill:none;stroke:#EB6769;stroke-width:8;stroke-linecap:round;stroke-linejoin:round;stroke-miterlimit:10;}
	.st5{fill:#E6E6E6;stroke:#EB6769;stroke-width:8;stroke-linecap:round;stroke-linejoin:round;stroke-miterlimit:10;}
	.st6{fill:#EB6769;stroke:#FFFFFF;stroke-width:8;stroke-miterlimit:10;}
	.st7{fill:#EB6769;}
	.st8{fill:none;}
	.st9{font-family:'Roboto-Bold';}
	.st10{font-size:250px;}
</style>
<circle class="st0" cx="241" cy="250" r="165"/>
<circle class="st2" cx="241" cy="250" r="125"/>
<rect x="165.9" y="153.8" class="st8" width="150.1" height="196.2"/>
<text transform="matrix(1 0 0 1 206.9414 341.3008)" class="st0 st9 st10">!</text>
</svg>
