<?xml version="1.0" encoding="utf-8"?>
<!-- Generator: Adobe Illustrator 22.0.1, SVG Export Plug-In . SVG Version: 6.00 Build 0)  -->
<svg version="1.1" id="Mobile_x5F_Active_1_" xmlns="http://www.w3.org/2000/svg" xmlns:xlink="http://www.w3.org/1999/xlink"
	 x="0px" y="0px" viewBox="0 0 500 500" style="enable-background:new 0 0 500 500;" xml:space="preserve">
<style type="text/css">
	.st0{fill:#F9DCDE;stroke:#EB6769;stroke-width:8;stroke-linecap:round;stroke-linejoin:round;stroke-miterlimit:10;}
	.st1{fill:#F9DCDE;}
	.st2{fill:#FFFFFF;stroke:#EB6769;stroke-width:8;stroke-linecap:round;stroke-linejoin:round;stroke-miterlimit:10;}
	.st3{fill:#FFFFFF;stroke:#EB6769;stroke-width:8;stroke-miterlimit:10;}
	.st4{fill:none;stroke:#EB6769;stroke-width:8;stroke-linecap:round;stroke-linejoin:round;stroke-miterlimit:10;}
	.st5{fill:#E6E6E6;stroke:#EB6769;stroke-width:8;stroke-linecap:round;stroke-linejoin:round;stroke-miterlimit:10;}
	.st6{fill:#EB6769;stroke:#FFFFFF;stroke-width:8;stroke-miterlimit:10;}
	.st7{fill:#EB6769;}
</style>
<g>
	<path class="st0" d="M178.9,264c0,31.6-25.6,57.2-57.2,57.2S64.5,295.6,64.5,264H178.9z"/>
	<polyline class="st4" points="67.1,243 125,127.2 173.7,243 	"/>
	<path class="st0" d="M430.2,264c0,31.6-25.6,57.2-57.2,57.2s-57.2-25.6-57.2-57.2H430.2z"/>
	<polyline class="st4" points="318.4,243 376.3,127.2 424.9,243 	"/>
	<rect x="234.2" y="77.2" class="st0" width="32.9" height="277.6"/>
	<g>
		<g>
			<path class="st0" d="M344.1,377.8H157.3c-19.3,0-35,15.7-35,35c0,6.5,5.2,11.7,11.7,11.7h233.5c6.5,0,11.7-5.2,11.7-11.7
				C379.2,393.5,363.4,377.8,344.1,377.8z"/>
		</g>
	</g>
	<g>
		<g>
			<path class="st2" d="M297.4,354.8H204c-15.2,0-28,9.8-32.9,23.4h159.2C325.5,364.6,312.6,354.8,297.4,354.8z"/>
		</g>
	</g>
	<rect x="102.6" y="102.2" class="st0" width="293.3" height="26.3"/>
</g>
</svg>
