<?xml version="1.0" encoding="utf-8"?>
<!-- Generator: Adobe Illustrator 22.0.1, SVG Export Plug-In . SVG Version: 6.00 Build 0)  -->
<svg version="1.1" id="Mobile_x5F_Active_1_" xmlns="http://www.w3.org/2000/svg" xmlns:xlink="http://www.w3.org/1999/xlink"
	 x="0px" y="0px" viewBox="0 0 500 500" style="enable-background:new 0 0 500 500;" xml:space="preserve">
<style type="text/css">
	.st0{fill:#F9DCDE;stroke:#EB6769;stroke-width:8;stroke-linecap:round;stroke-linejoin:round;stroke-miterlimit:10;}
	.st1{fill:#F9DCDE;}
	.st2{fill:#FFFFFF;stroke:#EB6769;stroke-width:8;stroke-linecap:round;stroke-linejoin:round;stroke-miterlimit:10;}
	.st3{fill:#FFFFFF;stroke:#EB6769;stroke-width:8;stroke-miterlimit:10;}
	.st4{fill:none;stroke:#EB6769;stroke-width:8;stroke-linecap:round;stroke-linejoin:round;stroke-miterlimit:10;}
	.st5{fill:#E6E6E6;stroke:#EB6769;stroke-width:8;stroke-linecap:round;stroke-linejoin:round;stroke-miterlimit:10;}
	.st6{fill:#EB6769;stroke:#FFFFFF;stroke-width:8;stroke-miterlimit:10;}
	.st7{fill:#EB6769;}
</style>
<g>
	<rect x="80.8" y="272.3" class="st0" width="75.2" height="139.4"/>
	<rect x="210.4" y="203.9" class="st0" width="75.2" height="207.8"/>
	<rect x="339.9" y="151.1" class="st0" width="75.2" height="260.6"/>
</g>
<g>
	<circle class="st3" cx="118.6" cy="272.6" r="15.6"/>
	<circle class="st3" cx="247.6" cy="205.8" r="15.6"/>
	<circle class="st3" cx="378" cy="151.1" r="15.6"/>
	<line class="st4" x1="18.3" y1="411.7" x2="477" y2="411.7"/>
</g>
</svg>
