<?xml version="1.0" encoding="utf-8"?>
<!-- Generator: Adobe Illustrator 22.0.1, SVG Export Plug-In . SVG Version: 6.00 Build 0)  -->
<svg version="1.1" id="Website_x5F_Coloured" xmlns="http://www.w3.org/2000/svg" xmlns:xlink="http://www.w3.org/1999/xlink"
	 x="0px" y="0px" viewBox="0 0 500 500" style="enable-background:new 0 0 500 500;" xml:space="preserve">
<style type="text/css">
	.st0{fill:#F2F2F2;}
	.st1{fill:#F9C94C;}
	.st2{fill:none;stroke:#0A3C58;stroke-width:5;stroke-linecap:round;stroke-linejoin:round;stroke-miterlimit:10;}
	.st3{fill:#EB6769;}
	.st4{fill:#B3E0FF;}
	.st5{fill:#0A3C58;stroke:#FFFFFF;stroke-width:5;stroke-linecap:round;stroke-linejoin:round;stroke-miterlimit:10;}
	.st6{fill:#FFFFFF;}
	.st7{fill:none;stroke:#58595B;stroke-width:5;stroke-linecap:round;stroke-linejoin:round;stroke-miterlimit:10;}
	.st8{fill:#FFFFFF;stroke:#58595B;stroke-width:5;stroke-linecap:round;stroke-linejoin:round;stroke-miterlimit:10;}
	.st9{fill:none;}
	.st10{fill:none;stroke:#FFFFFF;stroke-width:10;stroke-linecap:round;stroke-linejoin:round;stroke-miterlimit:10;}
	.st11{fill:#E6E6E6;}
</style>
<g>
	<rect x="80.8" y="272.3" class="st3" width="75.2" height="139.4"/>
	<rect x="210.4" y="203.9" class="st1" width="75.2" height="207.8"/>
	<rect x="339.9" y="151.1" class="st4" width="75.2" height="260.6"/>
</g>
<g>
	<polyline class="st2" points="325.6,393 325.6,162.8 351.8,162.8 	"/>
	<line class="st2" x1="400.8" y1="247.6" x2="400.8" y2="393"/>
	<line class="st2" x1="400.8" y1="198.8" x2="400.8" y2="230.3"/>
	<polyline class="st2" points="69.5,405.1 69.5,287 92.8,287 	"/>
	<line class="st2" x1="144.7" y1="287" x2="144.7" y2="367.8"/>
	<line class="st2" x1="196" y1="368" x2="196" y2="239"/>
	<line class="st2" x1="271.2" y1="353.7" x2="271.2" y2="402.1"/>
	<line class="st2" x1="271.2" y1="215.6" x2="271.2" y2="326.5"/>
	<circle class="st5" cx="118.6" cy="272.6" r="15.6"/>
	<circle class="st5" cx="247.6" cy="205.8" r="15.6"/>
	<circle class="st5" cx="378" cy="151.1" r="15.6"/>
	<line class="st2" x1="18.3" y1="411.7" x2="477" y2="411.7"/>
</g>
</svg>
