<?xml version="1.0" encoding="utf-8"?>
<!-- Generator: Adobe Illustrator 22.0.1, SVG Export Plug-In . SVG Version: 6.00 Build 0)  -->
<svg version="1.1" id="Website_x5F_Coloured" xmlns="http://www.w3.org/2000/svg" xmlns:xlink="http://www.w3.org/1999/xlink"
	 x="0px" y="0px" viewBox="0 0 500 500" style="enable-background:new 0 0 500 500;" xml:space="preserve">
<style type="text/css">
	.st0{fill:#F2F2F2;}
	.st1{fill:#F9C94C;}
	.st2{fill:none;stroke:#0A3C58;stroke-width:5;stroke-linecap:round;stroke-linejoin:round;stroke-miterlimit:10;}
	.st3{fill:#EB6769;}
	.st4{fill:#B3E0FF;}
	.st5{fill:#0A3C58;stroke:#FFFFFF;stroke-width:5;stroke-linecap:round;stroke-linejoin:round;stroke-miterlimit:10;}
	.st6{fill:#FFFFFF;}
	.st7{fill:none;stroke:#58595B;stroke-width:5;stroke-linecap:round;stroke-linejoin:round;stroke-miterlimit:10;}
	.st8{fill:#FFFFFF;stroke:#58595B;stroke-width:5;stroke-linecap:round;stroke-linejoin:round;stroke-miterlimit:10;}
	.st9{fill:none;}
	.st10{fill:none;stroke:#FFFFFF;stroke-width:10;stroke-linecap:round;stroke-linejoin:round;stroke-miterlimit:10;}
	.st11{fill:#E6E6E6;}
</style>
<g>
	<path class="st4" d="M325,416.5H152.8c-7.7,0-14-6.3-14-14v-302c0-7.7,6.3-14,14-14H325c7.7,0,14,6.3,14,14v302
		C339,410.2,332.7,416.5,325,416.5z"/>
	<rect x="138.8" y="140" class="st6" width="200.2" height="215"/>
	<polygon class="st3" points="275.9,196 207.9,196 207.9,236 207.9,249 207.9,257 207.9,270 207.9,310 275.9,310 238.9,253 	"/>
</g>
<g>
	<path class="st7" d="M319,371v47.5c0,7.7-6.3,14-14,14H132.8c-7.7,0-14-6.3-14-14V371"/>
	<path class="st7" d="M118.8,156v-39.5c0-7.7,6.3-14,14-14H305c7.7,0,14,6.3,14,14V156"/>
	<line class="st7" x1="118.8" y1="371" x2="118.8" y2="347.8"/>
	<line class="st7" x1="118.8" y1="156" x2="252" y2="156"/>
	<line class="st7" x1="193.9" y1="130" x2="244" y2="130"/>
	<polyline class="st7" points="248.6,223.3 255.9,212 187.9,212 187.9,252 187.9,265 187.9,273 187.9,286 187.9,326 255.9,326 
		218.9,269 241.8,233.8 	"/>
	<line class="st7" x1="118.8" y1="290" x2="118.8" y2="156"/>
	<polyline class="st7" points="319,216.4 319,371 118.8,371 	"/>
	<polyline class="st7" points="275.9,156 319,156 319,192 	"/>
</g>
</svg>
