<?xml version="1.0" encoding="utf-8"?>
<!-- Generator: Adobe Illustrator 22.0.1, SVG Export Plug-In . SVG Version: 6.00 Build 0)  -->
<svg version="1.1" id="Website_x5F_Coloured" xmlns="http://www.w3.org/2000/svg" xmlns:xlink="http://www.w3.org/1999/xlink"
	 x="0px" y="0px" viewBox="0 0 500 500" style="enable-background:new 0 0 500 500;" xml:space="preserve">
<style type="text/css">
	.st0{fill:#F2F2F2;}
	.st1{fill:#F9C94C;}
	.st2{fill:none;stroke:#0A3C58;stroke-width:5;stroke-linecap:round;stroke-linejoin:round;stroke-miterlimit:10;}
	.st3{fill:#EB6769;}
	.st4{fill:#B3E0FF;}
	.st5{fill:#0A3C58;stroke:#FFFFFF;stroke-width:5;stroke-linecap:round;stroke-linejoin:round;stroke-miterlimit:10;}
	.st6{fill:#FFFFFF;}
	.st7{fill:none;stroke:#58595B;stroke-width:5;stroke-linecap:round;stroke-linejoin:round;stroke-miterlimit:10;}
	.st8{fill:#FFFFFF;stroke:#58595B;stroke-width:5;stroke-linecap:round;stroke-linejoin:round;stroke-miterlimit:10;}
	.st9{fill:none;}
	.st10{fill:none;stroke:#FFFFFF;stroke-width:10;stroke-linecap:round;stroke-linejoin:round;stroke-miterlimit:10;}
	.st11{fill:#E6E6E6;}
	.st12{font-family:'Roboto-Black';}
	.st13{font-size:180px;}
	.st14{fill:#F9C94C;stroke:#58595B;stroke-width:5;stroke-linecap:round;stroke-linejoin:round;stroke-miterlimit:10;}
</style>
<g>
	<g>
		<path class="st3" d="M355.5,426h-212c-19.5,0-35.5-16-35.5-35.5v-275C108,96,124,80,143.5,80h212C375,80,391,96,391,115.5v275
			C391,410,375,426,355.5,426z"/>
		<path class="st6" d="M398,151H144.4c-20,0-36.4-16-36.4-35.5v0C108,96,124.4,80,144.4,80H398"/>
		<rect x="180.2" y="218.2" class="st9" width="136.1" height="168.8"/>
		<text transform="matrix(1 0 0 1 186.9287 353.2188)" class="st6 st12 st13">A</text>
	</g>
</g>
<g>
	<g>
		<path class="st7" d="M90.5,274.4V128c0-19.5,16-35.5,35.5-35.5h212"/>
		<path class="st7" d="M155,438.5h-29c-19.5,0-35.5-16-35.5-35.5V302.6"/>
		<path class="st7" d="M373.5,185.7V403c0,19.5-16,35.5-35.5,35.5H223.3"/>
		<path class="st7" d="M316.3,163.5H126.9c-20,0-36.4-16-36.4-35.5v0c0-19.5,16.4-35.5,36.4-35.5h253.6"/>
		<line class="st7" x1="380.5" y1="163.5" x2="329.7" y2="163.5"/>
		<line class="st7" x1="230.7" y1="128.5" x2="324.5" y2="128.5"/>
		<line class="st7" x1="162.5" y1="128.5" x2="209.1" y2="128.5"/>
		<rect x="162.7" y="230.7" class="st9" width="136.1" height="168.8"/>
		<text transform="matrix(1 0 0 1 169.4287 365.7188)" class="st14 st12 st13">A</text>
	</g>
</g>
</svg>
