<?xml version="1.0" encoding="utf-8"?>
<!-- Generator: Adobe Illustrator 22.0.1, SVG Export Plug-In . SVG Version: 6.00 Build 0)  -->
<svg version="1.1" id="Website_x5F_Coloured" xmlns="http://www.w3.org/2000/svg" xmlns:xlink="http://www.w3.org/1999/xlink"
	 x="0px" y="0px" viewBox="0 0 500 500" style="enable-background:new 0 0 500 500;" xml:space="preserve">
<style type="text/css">
	.st0{fill:#F2F2F2;}
	.st1{fill:#F9C94C;}
	.st2{fill:none;stroke:#0A3C58;stroke-width:5;stroke-linecap:round;stroke-linejoin:round;stroke-miterlimit:10;}
	.st3{fill:#EB6769;}
	.st4{fill:#B3E0FF;}
	.st5{fill:#0A3C58;stroke:#FFFFFF;stroke-width:5;stroke-linecap:round;stroke-linejoin:round;stroke-miterlimit:10;}
	.st6{fill:#FFFFFF;}
	.st7{fill:none;stroke:#58595B;stroke-width:5;stroke-linecap:round;stroke-linejoin:round;stroke-miterlimit:10;}
	.st8{fill:#FFFFFF;stroke:#58595B;stroke-width:5;stroke-linecap:round;stroke-linejoin:round;stroke-miterlimit:10;}
	.st9{fill:none;}
	.st10{fill:none;stroke:#FFFFFF;stroke-width:10;stroke-linecap:round;stroke-linejoin:round;stroke-miterlimit:10;}
	.st11{fill:#E6E6E6;}
</style>
<g>
	<path class="st0" d="M373,461H117.5c-7.7,0-14-6.3-14-14V130.4c0-7.7,6.3-14,14-14H373c7.7,0,14,6.3,14,14V447
		C387,454.7,380.7,461,373,461z"/>
	<path class="st1" d="M299.1,100c-2.8-27-25.6-48-53.3-48c-27.7,0-50.5,21-53.3,48h-38.2v34.6h181.9V100H299.1z"/>
</g>
<g>
	<path class="st7" d="M79.5,240V110.4c0-7.7,6.3-14,14-14h18.1"/>
	<line class="st7" x1="79.5" y1="314" x2="79.5" y2="268.7"/>
	<path class="st7" d="M281.1,441H93.5c-7.7,0-14-6.3-14-14v-88"/>
	<path class="st7" d="M322.6,96.4H349c7.7,0,14,6.3,14,14V427c0,7.7-6.3,14-14,14h-49.4"/>
	<path class="st7" d="M275.1,80c-2.8-27-25.6-48-53.3-48s-50.5,21-53.3,48h-38.2v34.6h181.9V80H275.1z"/>
	<line class="st7" x1="154" y1="203" x2="288" y2="203"/>
	<line class="st7" x1="154" y1="240" x2="288" y2="240"/>
	<line class="st7" x1="154" y1="277" x2="288" y2="277"/>
	<line class="st7" x1="185.9" y1="314" x2="256.1" y2="314"/>
</g>
</svg>
