<?xml version="1.0" encoding="utf-8"?>
<!-- Generator: Adobe Illustrator 22.0.1, SVG Export Plug-In . SVG Version: 6.00 Build 0)  -->
<svg version="1.1" id="Website_x5F_Coloured" xmlns="http://www.w3.org/2000/svg" xmlns:xlink="http://www.w3.org/1999/xlink"
	 x="0px" y="0px" viewBox="0 0 500 500" style="enable-background:new 0 0 500 500;" xml:space="preserve">
<style type="text/css">
	.st0{fill:#F2F2F2;}
	.st1{fill:#F9C94C;}
	.st2{fill:none;stroke:#0A3C58;stroke-width:5;stroke-linecap:round;stroke-linejoin:round;stroke-miterlimit:10;}
	.st3{fill:#EB6769;}
	.st4{fill:#B3E0FF;}
	.st5{fill:#0A3C58;stroke:#FFFFFF;stroke-width:5;stroke-linecap:round;stroke-linejoin:round;stroke-miterlimit:10;}
	.st6{fill:#FFFFFF;}
	.st7{fill:none;stroke:#58595B;stroke-width:5;stroke-linecap:round;stroke-linejoin:round;stroke-miterlimit:10;}
	.st8{fill:#FFFFFF;stroke:#58595B;stroke-width:5;stroke-linecap:round;stroke-linejoin:round;stroke-miterlimit:10;}
	.st9{fill:none;}
	.st10{fill:none;stroke:#FFFFFF;stroke-width:10;stroke-linecap:round;stroke-linejoin:round;stroke-miterlimit:10;}
	.st11{fill:#E6E6E6;}
</style>
<g>
	<rect x="122.7" y="228.4" class="st0" width="242.4" height="79.3"/>
	<path class="st0" d="M365.2,299.1c0,66.9-54.3,121.2-121.2,121.2s-121.2-54.3-121.2-121.2"/>
	<path class="st1" d="M122.7,228.8c0-66.9,54.3-121.2,121.2-121.2s121.2,54.3,121.2,121.2"/>
	<path class="st1" d="M370.1,243.7H116.9c-7.7,0-14-6.3-14-14v-2.6c0-7.7,6.3-14,14-14h253.2c7.7,0,14,6.3,14,14v2.6
		C384.1,237.4,377.8,243.7,370.1,243.7z"/>
	<path class="st1" d="M258.8,87v59.7c0,7.7-6.3,14-14,14h-2.6c-7.7,0-14-6.3-14-14V87c0-7.7,6.3-14,14-14h2.6
		C252.5,73,258.8,79.3,258.8,87z"/>
</g>
<g>
	<line class="st7" x1="97.2" y1="264.8" x2="97.2" y2="326.9"/>
	<line class="st7" x1="332.6" y1="319" x2="332.6" y2="279.6"/>
	<path class="st7" d="M308.6,389.9c-21.5,28.2-55.5,46.5-93.7,46.5c-65,0-117.7-52.7-117.7-117.7"/>
	<path class="st7" d="M325.7,358.5c-2.3,6.5-5.2,12.8-8.6,18.7"/>
	<path class="st7" d="M260.7,141.9c33.6,14.2,59.2,43.6,68.3,79.5"/>
	<path class="st7" d="M97.2,250.3c0-55.1,37.8-101.3,88.9-114.2"/>
	<path class="st7" d="M337,264.8H91.9c-7.7,0-14-6.3-14-14V249c0-7.7,6.3-14,14-14H337c7.7,0,14,6.3,14,14v1.8
		C351,258.5,344.7,264.8,337,264.8z"/>
	<path class="st7" d="M229.3,113v57.2c0,7.7-6.3,14-14,14h-1.8c-7.7,0-14-6.3-14-14V113c0-7.7,6.3-14,14-14h1.8
		C223,99,229.3,105.3,229.3,113z"/>
	<circle class="st7" cx="175" cy="304" r="12"/>
	<circle class="st7" cx="254" cy="304" r="12"/>
</g>
</svg>
