<?xml version="1.0" encoding="utf-8"?>
<!-- Generator: Adobe Illustrator 22.0.1, SVG Export Plug-In . SVG Version: 6.00 Build 0)  -->
<svg version="1.1" id="Website_x5F_Coloured" xmlns="http://www.w3.org/2000/svg" xmlns:xlink="http://www.w3.org/1999/xlink"
	 x="0px" y="0px" viewBox="0 0 500 500" style="enable-background:new 0 0 500 500;" xml:space="preserve">
<style type="text/css">
	.st0{fill:none;stroke:#E6E6E6;stroke-width:10;stroke-miterlimit:10;}
	.st1{fill:#E6E6E6;}
	.st2{fill:#F9C94C;}
	.st3{fill:#B3E0FF;}
	.st4{fill:#EB6769;}
	.st5{fill:none;stroke:#58595B;stroke-width:5;stroke-linecap:round;stroke-linejoin:round;stroke-miterlimit:10;}
</style>
<g>
	<line class="st0" x1="253" y1="121" x2="253" y2="262"/>
	<line class="st0" x1="132" y1="369" x2="253" y2="262"/>
	<line class="st0" x1="380" y1="369" x2="253" y2="262"/>
	<path class="st1" d="M252.9,207c-33.4,0-60.7,28-60.7,61.5s27.2,60.7,60.7,60.7s60.7-27.2,60.7-60.7S286.4,207,252.9,207z"/>
	<path class="st2" d="M131.6,327.9c-22.8,0-41.4,19.1-41.4,41.9c0,22.8,18.6,41.4,41.4,41.4s41.4-18.6,41.4-41.4
		C173,347,154.4,327.9,131.6,327.9z"/>
	<path class="st3" d="M379.6,327.9c-22.8,0-41.4,19.1-41.4,41.9c0,22.8,18.6,41.4,41.4,41.4c22.8,0,41.4-18.6,41.4-41.4
		C421,347,402.4,327.9,379.6,327.9z"/>
	<path class="st4" d="M252.6,79.9c-22.8,0-41.4,19.1-41.4,41.9s18.6,41.4,41.4,41.4s41.4-18.6,41.4-41.4S275.4,79.9,252.6,79.9z"/>
</g>
<g>
	<line class="st5" x1="226" y1="189.5" x2="226" y2="224.5"/>
	<line class="st5" x1="135.5" y1="358.5" x2="177.5" y2="321.5"/>
	<line class="st5" x1="321.5" y1="359.5" x2="286.6" y2="330.1"/>
	<path class="st5" d="M225.9,224c-33.4,0-60.7,28-60.7,61.5s27.2,60.7,60.7,60.7s60.7-27.2,60.7-60.7S259.4,224,225.9,224z"/>
	<path class="st5" d="M83.1,351.1c-11.9,7.4-19.9,20.8-19.9,35.7c0,22.8,18.6,41.4,41.4,41.4s41.4-18.6,41.4-41.4
		c0-22.8-18.6-41.9-41.4-41.9"/>
	<path class="st5" d="M381.4,416.5c7.8-7.5,12.6-18.1,12.6-29.7c0-22.8-18.6-41.9-41.4-41.9c-22.8,0-41.4,19.1-41.4,41.9
		c0,22.8,18.6,41.4,41.4,41.4"/>
	<path class="st5" d="M239.1,177.9c16.2-5.6,27.9-21,27.9-39.1c0-22.8-18.6-41.9-41.4-41.9s-41.4,19.1-41.4,41.9
		c0,17.1,10.4,31.8,25.3,38.1"/>
</g>
</svg>
