<?xml version="1.0" encoding="utf-8"?>
<!-- Generator: Adobe Illustrator 22.0.1, SVG Export Plug-In . SVG Version: 6.00 Build 0)  -->
<svg version="1.1" id="Website_x5F_Coloured" xmlns="http://www.w3.org/2000/svg" xmlns:xlink="http://www.w3.org/1999/xlink"
	 x="0px" y="0px" viewBox="0 0 500 500" style="enable-background:new 0 0 500 500;" xml:space="preserve">
<style type="text/css">
	.st0{fill:#EB6769;}
	.st1{fill:none;stroke:#58595B;stroke-width:5;stroke-linecap:round;stroke-linejoin:round;stroke-miterlimit:10;}
</style>
<path class="st0" d="M388,397.4c0-1.2,0-2.1,0-2.1v-5.7c0-16.6-9.4-31.8-24.2-39.2l-60.3-26.1c-3.3-1.7-6-5.2-7.9-9
	c-1.7-3.4,0.8-7.5,4.7-7.5h42.5c0,0,15.6,1.5,27.6-3.7c7-3,9.5-11.8,5.1-18.1c-12.9-18.3-39.4-61.4-40.3-105.9
	c0,0-1.5-68.5-69.1-69.1c-39.4,0.3-58.1,23.5-66.8,42.8c-4.8,10.8-6.9,22.5-7.7,34.3c-2.8,42.4-24.4,82.5-34.5,99.1
	c-3.4,5.6-1.8,13.1,3.9,16.5c9.3,5.5,20.6,4.1,20.6,4.1H225c4.2,0,6.1,5.4,2.8,8c-2.7,2.1-5.3,4.1-6.7,4.8l-50.8,29.4
	c-14.1,7.7-22.9,22.4-22.9,38.5v6.8c0,0,0,0.9,0,2.1H388z"/>
<path class="st1" d="M183.1,166.8c-5.3,6.2-9.1,12.8-11.9,19.1c-4.8,10.8-6.9,22.5-7.7,34.3c-2.8,42.4-24.4,82.5-34.5,99.1
	c-3.4,5.6-1.8,13.1,3.9,16.5c9.3,5.5,20.6,4.1,20.6,4.1H197c4.2,0,6.1,5.4,2.8,8c-2.7,2.1-5.3,4.1-6.7,4.8l-50.8,29.4
	c-14.1,7.7-22.9,22.4-22.9,38.5v6.8c0,0,0,0.9,0,2.1h62.3"/>
<path class="st1" d="M297.9,177.8c-8.8-17.2-26.1-34.5-59.9-34.8"/>
<path class="st1" d="M296.5,429.4H360c0-1.2,0-2.1,0-2.1v-5.7c0-16.6-9.4-31.8-24.2-39.2l-60.3-26.1c-3.3-1.7-6-5.2-7.9-9
	c-1.7-3.4,0.8-7.5,4.7-7.5h42.5c0,0,15.6,1.5,27.6-3.7c7-3,9.5-11.8,5.1-18.1c-12.9-18.3-39.4-61.4-40.3-105.9"/>
</svg>
