<?xml version="1.0" encoding="utf-8"?>
<!-- Generator: Adobe Illustrator 22.0.1, SVG Export Plug-In . SVG Version: 6.00 Build 0)  -->
<svg version="1.1" id="Website_x5F_Coloured" xmlns="http://www.w3.org/2000/svg" xmlns:xlink="http://www.w3.org/1999/xlink"
	 x="0px" y="0px" viewBox="0 0 500 500" style="enable-background:new 0 0 500 500;" xml:space="preserve">
<style type="text/css">
	.st0{fill:#F2F2F2;}
	.st1{fill:#F9C94C;}
	.st2{fill:none;stroke:#0A3C58;stroke-width:5;stroke-linecap:round;stroke-linejoin:round;stroke-miterlimit:10;}
	.st3{fill:#EB6769;}
	.st4{fill:#B3E0FF;}
	.st5{fill:#0A3C58;stroke:#FFFFFF;stroke-width:5;stroke-linecap:round;stroke-linejoin:round;stroke-miterlimit:10;}
	.st6{fill:#FFFFFF;}
	.st7{fill:none;stroke:#58595B;stroke-width:5;stroke-linecap:round;stroke-linejoin:round;stroke-miterlimit:10;}
	.st8{fill:#FFFFFF;stroke:#58595B;stroke-width:5;stroke-linecap:round;stroke-linejoin:round;stroke-miterlimit:10;}
	.st9{fill:none;}
	.st10{fill:none;stroke:#FFFFFF;stroke-width:10;stroke-linecap:round;stroke-linejoin:round;stroke-miterlimit:10;}
	.st11{fill:#E6E6E6;}
</style>
<g>
	<path class="st3" d="M259.3,293.2h-61.7c-24.9,0-45.2-20.3-45.2-45.2s20.3-45.2,45.2-45.2h61.7V137h-61.7c-61.2,0-111,49.8-111,111
		s49.8,111,111,111h61.7V293.2z"/>
	<rect x="275.8" y="293.2" class="st11" width="57.6" height="65.8"/>
	<rect x="275.8" y="137" class="st11" width="57.6" height="65.8"/>
</g>
<g>
	<g>
		<path class="st7" d="M131.8,363.1c15,7.6,32,11.9,49.9,11.9h61.7v-65.8h-61.7c-24.9,0-45.2-20.3-45.2-45.2"/>
		<path class="st7" d="M85.6,319.5c7.1,12.2,16.5,23,27.5,31.7"/>
		<path class="st7" d="M136.4,264c0-24.9,20.3-45.2,45.2-45.2h61.7V153h-61.7c-61.2,0-111,49.8-111,111"/>
		<polyline class="st7" points="304.6,309.2 317.3,309.2 317.3,375 259.8,375 259.8,309.2 275.8,309.2 		"/>
		<polyline class="st7" points="304.6,218.8 259.8,218.8 259.8,153 317.3,153 317.3,185.9 		"/>
	</g>
	<g>
		<line class="st7" x1="369.4" y1="152.9" x2="386" y2="136.2"/>
		<line class="st7" x1="374.3" y1="170.5" x2="404.6" y2="170.5"/>
		<line class="st7" x1="369.4" y1="186.7" x2="388.5" y2="205.8"/>
		<line class="st7" x1="369.4" y1="307.9" x2="386" y2="291.2"/>
		<line class="st7" x1="374.3" y1="325.5" x2="404.6" y2="325.5"/>
		<line class="st7" x1="369.4" y1="341.7" x2="388.5" y2="360.8"/>
	</g>
</g>
</svg>
