<?xml version="1.0" encoding="utf-8"?>
<!-- Generator: Adobe Illustrator 17.0.0, SVG Export Plug-In . SVG Version: 6.00 Build 0)  -->
<!DOCTYPE svg PUBLIC "-//W3C//DTD SVG 1.1//EN" "http://www.w3.org/Graphics/SVG/1.1/DTD/svg11.dtd">
<svg version="1.1" id="Layer_1" xmlns="http://www.w3.org/2000/svg" xmlns:xlink="http://www.w3.org/1999/xlink" x="0px" y="0px"
	 width="2160px" height="2160px" viewBox="0 0 2160 2160" enable-background="new 0 0 2160 2160" xml:space="preserve">
<g>
	<rect x="1524.793" y="1154.824" fill="#7AACCB" width="135.052" height="123.308"/>
	<rect x="1524.793" y="1031.517" fill="#D3E3EE" width="135.052" height="123.308"/>
	<rect x="1524.793" y="1278.132" fill="#D3E3EE" width="135.052" height="123.308"/>
	<rect x="1524.793" y="908.208" fill="#7AACCB" width="135.052" height="123.308"/>
	<rect x="1524.793" y="784.9" fill="#D3E3EE" width="135.052" height="123.308"/>
	<path fill="#D3E3EE" d="M2088.955,588.696c0-30.149-23.79-54.733-53.622-56.024c-6.409-34.434-36.592-60.511-72.884-60.511
		c-7.276,0-14.3,1.066-20.945,3.019c-13.523-18.099-35.115-29.816-59.446-29.816c-6.698,0-13.182,0.903-19.355,2.568
		c-13.014-11.295-29.987-18.148-48.573-18.148c-27.488,0-51.465,14.968-64.274,37.186c-9.999,5.683-18.644,13.458-25.346,22.739
		c-1.277-0.065-2.562-0.099-3.856-0.099c-40.957,0-74.159,33.202-74.159,74.158c0,3.631,0.273,7.198,0.778,10.689
		c-1.683-0.24-3.391-0.407-5.14-0.407c-16.991,0-31.205,11.741-35.071,27.541c-5.56,2.56-10.247,6.665-13.516,11.781
		c-16.809,0.649-30.245,14.442-30.245,31.409c0,7.315,2.517,14.029,6.704,19.373c-0.493,1.981-0.784,4.043-0.784,6.177
		c0,12.061,8.366,22.143,19.605,24.827c-2.146,3.247-3.402,7.134-3.402,11.317c0,11.358,9.207,20.565,20.565,20.565
		s20.565-9.207,20.565-20.565c0-1.063-0.106-2.1-0.262-3.119c1.416,0.304,2.882,0.473,4.389,0.473
		c6.644,0,12.546-3.126,16.354-7.975c12.139-0.29,21.895-10.199,21.895-22.408c0-2.687-0.496-5.251-1.362-7.638
		c0.064-0.101,0.123-0.206,0.187-0.308c1.81,0.279,3.649,0.467,5.537,0.467c17.52,0,32.12-12.467,35.433-29.011
		c3.885,0.628,7.866,0.968,11.928,0.968c21.207,0,40.322-8.917,53.838-23.189c4.771,0.89,9.683,1.377,14.712,1.377
		c3.523,0,6.985-0.253,10.387-0.695c12.946,9.068,28.695,14.405,45.7,14.405c1.046,0,2.081-0.038,3.117-0.079
		c0,0.027-0.002,0.052-0.002,0.079c0,44.054,35.713,79.767,79.767,79.767c16.797,0,32.373-5.204,45.228-14.07
		c10.215,13.825,26.624,22.795,45.133,22.795c30.976,0,56.087-25.111,56.087-56.087c0-10.526-2.906-20.37-7.949-28.785
		C2080.207,623.206,2088.955,606.975,2088.955,588.696z"/>
	<rect x="98.753" y="995.174" fill="#D3E3EE" width="506.281" height="709.08"/>
	<path fill="#4E90B9" d="M622.77,1001.623c0,2.375-1.925,4.3-4.3,4.3H85.317c-2.375,0-4.3-1.925-4.3-4.3v-31.172
		c0-2.375,1.925-4.3,4.3-4.3H618.47c2.375,0,4.3,1.925,4.3,4.3V1001.623z"/>
	<rect x="184.208" y="1072.925" fill="#FFFFFF" width="128.989" height="144.037"/>
	<path fill="#7AACCB" d="M329.32,1224.845c0,2.375-1.925,4.3-4.3,4.3H172.384c-2.375,0-4.3-1.925-4.3-4.3v-18.632
		c0-2.375,1.925-4.3,4.3-4.3h152.637c2.375,0,4.3,1.925,4.3,4.3V1224.845z"/>
	<rect x="390.59" y="1072.925" fill="#FFFFFF" width="128.989" height="144.037"/>
	<path fill="#7AACCB" d="M535.703,1224.845c0,2.375-1.925,4.3-4.3,4.3H378.766c-2.375,0-4.3-1.925-4.3-4.3v-18.632
		c0-2.375,1.925-4.3,4.3-4.3h152.637c2.375,0,4.3,1.925,4.3,4.3V1224.845z"/>
	<rect x="184.208" y="1281.816" fill="#FFFFFF" width="128.989" height="144.037"/>
	<path fill="#7AACCB" d="M329.32,1433.736c0,2.375-1.925,4.3-4.3,4.3H172.384c-2.375,0-4.3-1.925-4.3-4.3v-18.632
		c0-2.375,1.925-4.3,4.3-4.3h152.637c2.375,0,4.3,1.925,4.3,4.3V1433.736z"/>
	<rect x="390.59" y="1281.816" fill="#FFFFFF" width="128.989" height="144.037"/>
	<path fill="#7AACCB" d="M535.703,1433.736c0,2.375-1.925,4.3-4.3,4.3H378.766c-2.375,0-4.3-1.925-4.3-4.3v-18.632
		c0-2.375,1.925-4.3,4.3-4.3h152.637c2.375,0,4.3,1.925,4.3,4.3V1433.736z"/>
	<rect x="374.466" y="1490.706" fill="#FFFFFF" width="161.236" height="213.548"/>
	<rect x="387.365" y="1503.605" fill="#D3E3EE" width="135.438" height="200.649"/>
	<rect x="184.208" y="1490.706" fill="#FFFFFF" width="128.989" height="144.037"/>
	<path fill="#7AACCB" d="M329.32,1642.626c0,2.375-1.925,4.3-4.3,4.3H172.384c-2.375,0-4.3-1.925-4.3-4.3v-18.632
		c0-2.375,1.925-4.3,4.3-4.3h152.637c2.375,0,4.3,1.925,4.3,4.3V1642.626z"/>
	<rect x="1183.558" y="1423.094" fill="#D3E3EE" width="532.546" height="281.16"/>
	<path fill="#4E90B9" d="M1734.761,1429.878c0,2.498-2.025,4.523-4.523,4.523h-560.813c-2.498,0-4.523-2.025-4.523-4.523v-32.79
		c0-2.498,2.025-4.523,4.523-4.523h560.813c2.498,0,4.523,2.025,4.523,4.523V1429.878z"/>
	<rect x="1473.576" y="1479.627" fill="#FFFFFF" width="169.601" height="224.627"/>
	<rect x="1487.144" y="1493.195" fill="#7AACCB" width="142.465" height="211.059"/>
	<rect x="1273.447" y="1479.627" fill="#FFFFFF" width="135.681" height="151.51"/>
	<path fill="#7AACCB" d="M1426.088,1642.403c0,2.498-2.025,4.523-4.523,4.523h-160.555c-2.498,0-4.523-2.025-4.523-4.523v-19.598
		c0-2.498,2.025-4.523,4.523-4.523h160.555c2.498,0,4.523,2.025,4.523,4.523V1642.403z"/>
	<g>
		<rect x="1280.434" y="980.295" fill="#B5C5DB" width="83.126" height="14.332"/>
		<rect x="1280.434" y="1125.049" fill="#B5C5DB" width="83.126" height="14.332"/>
	</g>
	<rect x="597.51" y="856.332" fill="#D3E3EE" width="700.839" height="847.922"/>
	<path fill="#4E90B9" d="M1309.098,871.918c0,2.375-1.925,4.3-4.3,4.3H588.373c-2.375,0-4.3-1.925-4.3-4.3v-31.172
		c0-2.375,1.925-4.3,4.3-4.3h716.425c2.375,0,4.3,1.925,4.3,4.3V871.918z"/>
	<rect x="1079.605" y="1479.24" fill="#FFFFFF" width="161.236" height="213.548"/>
	<rect x="1092.504" y="1492.139" fill="#7AACCB" width="135.438" height="200.649"/>
	<rect x="672.753" y="942.145" fill="#FFFFFF" width="128.989" height="144.037"/>
	<path fill="#7AACCB" d="M817.865,1094.066c0,2.375-1.925,4.3-4.3,4.3H660.929c-2.375,0-4.3-1.925-4.3-4.3v-18.632
		c0-2.375,1.925-4.3,4.3-4.3h152.637c2.375,0,4.3,1.925,4.3,4.3V1094.066z"/>
	<rect x="881.285" y="942.145" fill="#FFFFFF" width="128.989" height="144.037"/>
	<path fill="#7AACCB" d="M1026.397,1094.066c0,2.375-1.925,4.3-4.3,4.3H869.461c-2.375,0-4.3-1.925-4.3-4.3v-18.632
		c0-2.375,1.925-4.3,4.3-4.3h152.637c2.375,0,4.3,1.925,4.3,4.3V1094.066z"/>
	<rect x="1089.817" y="942.145" fill="#FFFFFF" width="128.989" height="144.037"/>
	<path fill="#7AACCB" d="M1234.929,1094.066c0,2.375-1.925,4.3-4.3,4.3h-152.637c-2.375,0-4.3-1.925-4.3-4.3v-18.632
		c0-2.375,1.925-4.3,4.3-4.3h152.637c2.375,0,4.3,1.925,4.3,4.3V1094.066z"/>
	<rect x="672.753" y="1148.527" fill="#FFFFFF" width="128.989" height="144.037"/>
	<path fill="#7AACCB" d="M817.865,1300.448c0,2.375-1.925,4.3-4.3,4.3H660.929c-2.375,0-4.3-1.925-4.3-4.3v-18.632
		c0-2.375,1.925-4.3,4.3-4.3h152.637c2.375,0,4.3,1.925,4.3,4.3V1300.448z"/>
	<g>
		<rect x="683.502" y="1414.029" fill="#FFFFFF" width="318.71" height="220.714"/>
		<path fill="#7AACCB" d="M1018.336,1642.626c0,2.375-1.925,4.3-4.3,4.3H671.678c-2.375,0-4.3-1.925-4.3-4.3v-18.632
			c0-2.375,1.925-4.3,4.3-4.3h342.358c2.375,0,4.3,1.925,4.3,4.3V1642.626z"/>
	</g>
	<rect x="881.285" y="1148.527" fill="#FFFFFF" width="128.989" height="144.037"/>
	<path fill="#7AACCB" d="M1026.397,1300.448c0,2.375-1.925,4.3-4.3,4.3H869.461c-2.375,0-4.3-1.925-4.3-4.3v-18.632
		c0-2.375,1.925-4.3,4.3-4.3h152.637c2.375,0,4.3,1.925,4.3,4.3V1300.448z"/>
	<rect x="1089.817" y="1148.527" fill="#FFFFFF" width="128.989" height="144.037"/>
	<path fill="#7AACCB" d="M1234.929,1300.448c0,2.375-1.925,4.3-4.3,4.3h-152.637c-2.375,0-4.3-1.925-4.3-4.3v-18.632
		c0-2.375,1.925-4.3,4.3-4.3h152.637c2.375,0,4.3,1.925,4.3,4.3V1300.448z"/>
	<path fill="#4E90B9" d="M1734.761,1711.779c0,10.488-8.502,18.99-18.99,18.99H91.945c-10.488,0-18.99-8.502-18.99-18.99l0,0
		c0-10.488,8.502-18.99,18.99-18.99h1623.826C1726.259,1692.789,1734.761,1701.291,1734.761,1711.779L1734.761,1711.779z"/>
	<path fill="#7AACCB" d="M1435.937,1159.276c0,24.736-20.052,44.788-44.788,44.788l0,0c-24.736,0-44.788-20.052-44.788-44.788V960.4
		c0-24.736,20.052-44.788,44.788-44.788l0,0c24.736,0,44.788,20.052,44.788,44.788V1159.276z"/>
</g>
</svg>
