<?xml version="1.0" encoding="utf-8"?>
<!-- Generator: Adobe Illustrator 17.0.0, SVG Export Plug-In . SVG Version: 6.00 Build 0)  -->
<!DOCTYPE svg PUBLIC "-//W3C//DTD SVG 1.1//EN" "http://www.w3.org/Graphics/SVG/1.1/DTD/svg11.dtd">
<svg version="1.1" id="Layer_1" xmlns="http://www.w3.org/2000/svg" xmlns:xlink="http://www.w3.org/1999/xlink" x="0px" y="0px"
	 width="2160px" height="2160px" viewBox="0 0 2160 2160" enable-background="new 0 0 2160 2160" xml:space="preserve">
<g>
	<path fill="#D3E3EE" d="M109.625,1594.866c-32.697-165.935-44.14-362.115-13.079-528.868s124.247-393.994,421.786-393.994
		c362.933,0,526.416,376.011,699.708,376.011c111.169,0,326.966-183.101,542.764-183.101s333.505,243.59,333.505,429.961
		c0,91.551-24.522,238.685-57.219,291L109.625,1594.866z"/>
	<path fill="none" d="M936.851,825.68c-10.721,0-20.546,2.517-29.603,7.1c31.853,26.311,61.616,53.344,89.87,78.988
		C985.678,859.688,967.455,825.68,936.851,825.68z"/>
	<polygon fill="#7AACCB" points="713.538,1016.953 475.01,771.728 236.482,1016.953 354.85,1016.953 354.85,1584.24 595.17,1584.24 
		595.17,1016.953 	"/>
	<polygon fill="#7AACCB" points="1897.156,786.387 1658.627,541.162 1420.099,786.387 1538.467,786.387 1538.467,1584.24 
		1778.788,1584.24 1778.788,786.387 	"/>
	<path fill="#FFFFFF" d="M228.971,1242.835c4.703,169.392,25.763,274.379,116.07,274.379c39.155,0,39.413-68.744,39.811-172.807
		c0.551-145.094,1.303-343.803,128.575-343.803c37.895,0,70.904,71.628,100.025,134.826
		c32.756,71.067,63.687,138.193,109.235,138.193c41.43,0,56.938-77.854,76.575-176.423
		c21.006-105.437,46.502-233.311,107.986-264.419c-5.383-4.447-10.839-8.867-16.345-13.262
		c-64.415,40.918-89.801,168.034-110.881,273.849c-15.001,75.296-32.004,160.636-57.336,160.636
		c-32.986,0-62.69-64.453-91.418-126.789c-33.129-71.891-67.389-146.23-117.842-146.23c-146.814,0-147.614,210.007-148.193,363.344
		c-0.259,68.285-0.584,153.265-20.193,153.265c-65.147,0-91.289-69.195-96.457-255.206
		c-3.904-223.815-23.183-302.745-106.621-327.974c-2.589,5.871-5.069,11.764-7.439,17.673
		C205.338,952.053,225.045,1017.896,228.971,1242.835z"/>
	<path fill="#FFFFFF" d="M1997.879,1280.988c-9.871,91.217-19.192,177.371-75.225,177.371c-73.021,0-97.031-218.681-112.918-363.387
		c-14.402-131.186-21.907-189.187-48.93-189.187c-107.865,0-133.494,108.445-156.106,204.121
		c-17.855,75.565-33.278,140.827-82.581,140.827c-48.451,0-56.55-32.238-65.751-84.837
		c-9.316-53.245-20.911-119.513-114.082-119.513c-88.075,0-101.251,117.401-113.996,230.938
		c-12.151,108.292-24.724,220.276-100.164,220.276c-75.239,0-83.003-182.879-89.852-344.234
		c-3.397-80.08-6.735-158.115-17.171-219.9c-7.884-7.087-15.868-14.326-23.986-21.693c13.935,63.441,17.794,153.731,21.558,242.426
		c7.927,186.687,15.408,363.019,109.451,363.019c92.979,0,106.543-120.845,119.662-237.705
		c12.323-109.8,23.962-213.508,94.498-213.508c76.69,0,85.465,50.166,94.756,103.272c8.291,47.378,17.683,101.078,85.077,101.078
		c64.827,0,82.725-75.742,101.677-155.933c21.893-92.654,44.533-188.449,136.196-189.01c12.462,9.761,22.314,99.474,30.246,171.705
		c18.626,169.684,41.813,380.865,132.417,380.865c73.644,0,84.363-99.072,94.728-194.882
		c7.328-67.712,14.859-137.058,43.289-169.843c-2.564-6.927-5.281-13.802-8.132-20.621
		C2014.536,1127.184,2006.096,1205.043,1997.879,1280.988z"/>
	<path fill="#4E90B9" d="M2081.231,1594.866c0,13.995-11.345,25.34-25.34,25.34H110.442c-13.995,0-25.34-11.345-25.34-25.34l0,0
		c0-13.995,11.345-25.34,25.34-25.34h1945.449C2069.886,1569.527,2081.231,1580.872,2081.231,1594.866L2081.231,1594.866z"/>
</g>
</svg>
