<?xml version="1.0" encoding="utf-8"?>
<!-- Generator: Adobe Illustrator 22.1.0, SVG Export Plug-In . SVG Version: 6.00 Build 0)  -->
<svg version="1.1" id="Layer_1" xmlns="http://www.w3.org/2000/svg" xmlns:xlink="http://www.w3.org/1999/xlink" x="0px" y="0px"
	 viewBox="0 0 48 48" style="enable-background:new 0 0 48 48;" xml:space="preserve">
<style type="text/css">
	.st0{fill:#814EAC;}
</style>
<path class="st0" d="M35.85,13.8c-2.2,0-4.4-0.8-6.2-2l-1.6-1.2h-8l-1.6,1.2c-1.8,1.4-4,2-6.4,2l0.2,14.2c0,2,1,3.8,2.6,5l9.2,6.4
	l9.4-6.6c1.6-1.2,2.4-3,2.4-5L35.85,13.8z M14.25,28V15.6c2-0.4,3.8-1,5.4-2.2l1-0.8h2.6v23.8l-7.2-5
	C15.05,30.6,14.25,29.4,14.25,28z M32.25,31.2l-7.4,5.2V12.6h2.6l1,0.8c1.6,1.2,3.6,2,5.6,2.2v10.558
	c0,1.462-0.34,2.922-1.097,4.173C32.737,30.687,32.5,31,32.25,31.2z"/>
</svg>
