<?xml version="1.0" encoding="utf-8"?>
<!-- Generator: Adobe Illustrator 23.0.2, SVG Export Plug-In . SVG Version: 6.00 Build 0)  -->
<svg version="1.1" id="Layer_1" xmlns="http://www.w3.org/2000/svg" xmlns:xlink="http://www.w3.org/1999/xlink" x="0px" y="0px"
	 viewBox="0 0 85 85" style="enable-background:new 0 0 85 85;" xml:space="preserve">
<style type="text/css">
	.st0{opacity:0.2;fill:#093C5B;enable-background:new    ;}
	.st1{fill:none;stroke:#093C5B;stroke-width:5;stroke-linecap:round;stroke-linejoin:round;stroke-miterlimit:10;}
</style>
<circle class="st0" cx="42.5" cy="42.5" r="40"/>
<g>
	<line class="st1" x1="42.5" y1="25" x2="42.5" y2="60"/>
	<line class="st1" x1="60" y1="42.5" x2="25" y2="42.5"/>
</g>
</svg>
