<?xml version="1.0" encoding="utf-8"?>
<!-- Generator: Adobe Illustrator 23.0.2, SVG Export Plug-In . SVG Version: 6.00 Build 0)  -->
<svg version="1.1" id="Layer_1" xmlns="http://www.w3.org/2000/svg" xmlns:xlink="http://www.w3.org/1999/xlink" x="0px" y="0px"
	 viewBox="0 0 85 85" style="enable-background:new 0 0 85 85;" xml:space="preserve">
<style type="text/css">
	.st0{opacity:0.2;fill:#F07D7C;enable-background:new    ;}
	.st1{fill:none;stroke:#F07D7C;stroke-width:5;stroke-miterlimit:10;}
</style>
<circle class="st0" cx="42.5" cy="42.5" r="40"/>
<g>
	<circle class="st1" cx="42.5" cy="33.8" r="8.8"/>
	<path class="st1" d="M30.4,60c-1.7,0-3-1.6-2.7-3.3c1.3-8.1,7.5-14.2,14.8-14.2S56,48.6,57.3,56.7c0.3,1.7-1,3.3-2.7,3.3H30.4z"/>
</g>
</svg>
