<?xml version="1.0" encoding="utf-8"?>
<!-- Generator: Adobe Illustrator 17.0.0, SVG Export Plug-In . SVG Version: 6.00 Build 0)  -->
<!DOCTYPE svg PUBLIC "-//W3C//DTD SVG 1.1//EN" "http://www.w3.org/Graphics/SVG/1.1/DTD/svg11.dtd">
<svg version="1.1" id="Layer_1" xmlns="http://www.w3.org/2000/svg" xmlns:xlink="http://www.w3.org/1999/xlink" x="0px" y="0px"
	 width="1080px" height="1080px" viewBox="0 0 1080 1080" enable-background="new 0 0 1080 1080" xml:space="preserve">
<path fill="#FFDE7B" d="M540.984,65C278.669,65,66,277.681,66,539.984C66,802.303,278.669,1015,540.984,1015
	C803.303,1015,1016,802.319,1016,539.984C1016,277.669,803.303,65,540.984,65z M766.287,678.526L550.191,785.632
	c-2.894,1.429-6.051,2.153-9.191,2.153s-6.296-0.711-9.191-2.14L315.713,678.539c-10.241-5.077-14.421-17.484-9.344-27.725
	c5.061-10.227,17.481-14.421,27.712-9.347L541,744.021l206.918-102.554c10.218-5.073,22.651-0.88,27.712,9.347
	C780.708,661.042,776.527,673.449,766.287,678.526z M766.287,599.817L550.191,706.926c-2.894,1.425-6.051,2.153-9.191,2.153
	s-6.296-0.715-9.191-2.143L315.713,599.83c-10.241-5.073-14.421-17.484-9.344-27.725c5.061-10.227,17.481-14.408,27.712-9.344
	L541,665.312l206.918-102.537c10.218-5.101,22.651-0.897,27.712,9.33C780.708,582.332,776.527,594.756,766.287,599.817z
	 M766.287,521.124L550.191,628.216c-2.894,1.442-6.051,2.167-9.191,2.167s-6.296-0.725-9.191-2.153L315.713,521.124
	c-10.241-5.077-14.421-17.485-9.344-27.712c5.061-10.241,17.481-14.434,27.712-9.36L541,586.605l206.918-102.554
	c10.218-5.06,22.651-0.88,27.712,9.36C780.708,503.639,776.527,516.046,766.287,521.124z M766.287,438.533L550.191,545.642
	c-2.894,1.425-6.051,2.14-9.191,2.14s-6.296-0.715-9.191-2.14L315.713,438.533c-7.034-3.479-11.5-10.669-11.5-18.521
	c0-7.865,4.453-15.042,11.5-18.534l216.109-107.123c5.788-2.854,12.576-2.854,18.368,0l216.096,107.123
	c7.047,3.479,11.5,10.669,11.5,18.534C777.786,427.864,773.334,435.041,766.287,438.533z"/>
</svg>
